LB11_Regime1_stepresponse.csv

#Digilent WaveForms Oscilloscope Acquisition
#Device Name: Discovery2NI
#Serial Number: SN:210321ABE52A
#Date Time: 2021-12-09 11:46:39.831
#Sample rate: 1.5873e+06Hz
#Samples: 8192
#Trigger: Source: Channel 1 Type: Edge Condition: Rising Level: 0 V Hyst.: Auto HoldOff: 0 s
#Channel 1: Range: 1 V/div Offset: 0 V Attenuation: 1 X
#Channel 2: Range: 1 V/div Offset: 9.7 V Attenuation: 1 X
#Wavegen Channel 1: Enabled
#Mode: Simple
#Type: Square
#Frequency: 1 kHz
#Amplitude: 500 mV
#Offset: 0 V
#Symmetry: 50 %
#Phase: 0 °

Time (s),Channel 1 (V),Channel 2 (V)
-0.002580229899497488,0.4363043295724391,-9.912931850904341
-0.002579599899497488,0.4325701060930267,-10.04343689853403
-0.002578969899497488,0.4288358826136107,-10.18139937745696
-0.002578339899497488,0.425101659134193,-10.30817570944019
-0.002577709899497488,0.4176332121753679,-10.41630846319051
-0.002577079899497488,0.4176332121753679,-10.51698378564774
-0.002576449899497488,0.4213674356547805,-10.59528681422555
-0.002575819899497488,0.4251016591341964,-10.66240369586374
-0.002575189899497488,0.4251016591341964,-10.71833443056221
-0.002574559899497488,0.4251016591341964,-10.75935030267439
-0.002573929899497488,0.4213674356547822,-10.78545131220036
-0.002573299899497488,0.4213674356547822,-10.80409489043318
-0.002572669899497488,0.4213674356547822,-10.80036617478662
-0.002572039899497488,0.4176332121753679,-10.78918002784692
-0.002571409899497488,0.4251016591341964,-10.75189287138126
-0.002570779899497488,0.4251016591341964,-10.71087699926908
-0.002570149899497488,0.4251016591341964,-10.65867498021718
-0.002569519899497488,0.4251016591341964,-10.61765910810499
-0.002568889899497488,0.4251016591341964,-10.55054222646682
-0.002568259899497488,0.4288358826136124,-10.51698378564771
-0.002567629899497488,0.4325701060930249,-10.46105305094928
-0.002566999899497488,0.4325701060930249,-10.40885103189738
-0.002566369899497488,0.4288358826136073,-10.34919158155233
-0.002565739899497488,0.4213674356547822,-10.29698956250045
-0.002565109899497488,0.4288358826136107,-10.24478754344855
-0.002564479899497488,0.4325701060930232,-10.19631424004324
-0.002563849899497488,0.4325701060930249,-10.14038350534476
-0.002563219899497488,0.4325701060930232,-10.0919102019394
-0.002562589899497488,0.4288358826136107,-10.03970818288752
-0.002561959899497488,0.4363043295724391,-9.991234879482189
-0.002561329899497488,0.4363043295724374,-9.93903286043027
-0.002560699899497488,0.4325701060930249,-9.89428827267152
-0.002560069899497488,0.4288358826136107,-9.968862585602803
-0.002559439899497488,0.4213674356547856,-10.09936763323249
-0.002558809899497488,0.4213674356547822,-10.23733011215542
-0.002558179899497488,0.4213674356547822,-10.34546286590579
-0.002557549899497488,0.4176332121753679,-10.46478176659584
-0.002556919899497488,0.4176332121753679,-10.55054222646682
-0.002556289899497488,0.4213674356547788,-10.62884525504469
-0.002555659899497488,0.4138989886959537,-10.68477598974313
-0.002555029899497488,0.4138989886959537,-10.74443544008815
-0.002554399899497488,0.4138989886959537,-10.77053644961409
-0.002553769899497488,0.4101647652165394,-10.79663745914005
-0.002553139899497488,0.4101647652165394,-10.80036617478662
-0.002552509899497488,0.4138989886959537,-10.79290874349349
-0.002551879899497488,0.4101647652165394,-10.7817225965538
-0.002551249899497488,0.4101647652165412,-10.74070672444157
-0.002550619899497488,0.4138989886959537,-10.69969085232938
-0.002549989899497488,0.4138989886959537,-10.64376011763092
-0.002549359899497488,0.4213674356547788,-10.59528681422561
-0.002548729899497488,0.4251016591341964,-10.53562736388056
-0.002548099899497488,0.4213674356547822,-10.49834020741492
-0.002547469899497488,0.4213674356547822,-10.44613818836304
-0.002546839899497488,0.4213674356547822,-10.39393616931112
-0.002546209899497488,0.4251016591341947,-10.33800543461263
-0.002545579899497488,0.4213674356547822,-10.28580341556076
-0.002544949899497488,0.4213674356547822,-10.22614396521573
-0.002544319899497488,0.4213674356547822,-10.17021323051729
-0.002543689899497488,0.4251016591341964,-10.11801121146537
-0.002543059899497488,0.4288358826136107,-10.06953790806004
-0.002542429899497488,0.4288358826136107,-10.01733588900816
-0.002541799899497488,0.4288358826136107,-9.968862585602803
-0.002541169899497488,0.4288358826136089,-9.912931850904338
-0.002540539899497488,0.4251016591341964,-9.905474419611211
-0.002539909899497488,0.4251016591341964,-10.0210646046547
-0.002539279899497488,0.4251016591341964,-10.15902708357751
-0.002538649899497488,0.4251016591341964,-10.29698956250045
-0.002538019899497488,0.4138989886959537,-10.39766488495768
-0.002537389899497488,0.4101647652165412,-10.50206892306143
-0.002536759899497488,0.4101647652165394,-10.58782938293246
-0.002536129899497488,0.4101647652165412,-10.66240369586377
-0.002535499899497488,0.4138989886959537,-10.71833443056221
-0.002534869899497488,0.4101647652165394,-10.76680773396754
-0.002534239899497488,0.4138989886959519,-10.78545131220037
-0.002533609899497488,0.4101647652165394,-10.80782360607975
-0.002532979899497488,0.4101647652165394,-10.80409489043318
-0.002532349899497488,0.4064305417371269,-10.79663745914006
-0.002531719899497488,0.4064305417371252,-10.76680773396754
-0.002531089899497488,0.4064305417371252,-10.72952057750187
-0.002530459899497488,0.4064305417371252,-10.67731855845
-0.002529829899497488,0.4101647652165394,-10.63257397069123
-0.002529199899497488,0.4138989886959554,-10.57664323599275
-0.002528569899497488,0.4176332121753679,-10.531898648234
-0.002527939899497488,0.4176332121753679,-10.4796966291821
-0.002527309899497488,0.4176332121753679,-10.43122332577678
-0.002526679899497488,0.4176332121753679,-10.3752925910783
-0.002526049899497488,0.4176332121753679,-10.31936185637984
-0.002525419899497488,0.4176332121753679,-10.26715983732794
-0.002524789899497488,0.4176332121753679,-10.21122910262948
-0.002524159899497488,0.4176332121753696,-10.16275579922412
-0.002523529899497488,0.4213674356547822,-10.11055378017224
-0.002522899899497488,0.4176332121753679,-10.05835176112034
-0.002522269899497488,0.4213674356547805,-10.00242102642191
-0.002521639899497488,0.4251016591341964,-9.950219007369983
-0.002521009899497488,0.4251016591341964,-9.905474419611211
-0.002520379899497488,0.4176332121753679,-9.93903286043029
-0.002519749899497488,0.4176332121753679,-10.07699533935316
-0.002519119899497488,0.4138989886959519,-10.21868653392266
-0.002518489899497488,0.4101647652165394,-10.33427671896609
-0.002517859899497488,0.4101647652165394,-10.43868075706989
-0.002517229899497488,0.4101647652165394,-10.53189864823395
-0.002516599899497488,0.4101647652165394,-10.61393039245841
-0.002515969899497488,0.4064305417371252,-10.68477598974313
-0.002515339899497488,0.4026963182577127,-10.74070672444157
-0.002514709899497488,0.4064305417371252,-10.77799388090723
-0.002514079899497488,0.4064305417371269,-10.80036617478662
-0.002513449899497488,0.4101647652165394,-10.80782360607975
-0.002512819899497488,0.4064305417371252,-10.80409489043318
-0.002512189899497488,0.4064305417371252,-10.79663745914006
-0.002511559899497488,0.4101647652165394,-10.76307901832097
-0.002510929899497488,0.4101647652165394,-10.72579186185533
-0.002510299899497488,0.4138989886959519,-10.6698611271569
-0.002509669899497488,0.4176332121753679,-10.6251165393981
-0.002509039899497488,0.4176332121753662,-10.55427094211336
-0.002508409899497488,0.4138989886959537,-10.5207125012943
-0.002507779899497488,0.4138989886959537,-10.46478176659584
-0.002507149899497488,0.4138989886959537,-10.41257974754397
-0.002506519899497488,0.4176332121753679,-10.35664901284548
-0.002505889899497488,0.4138989886959537,-10.31190442508671
-0.002505259899497488,0.4138989886959537,-10.24851625909515
-0.002504629899497488,0.4176332121753679,-10.19631424004322
-0.002503999899497488,0.4176332121753679,-10.14038350534473
-0.002503369899497488,0.4176332121753679,-10.09191020193942
-0.002502739899497488,0.4138989886959537,-10.04343689853409
-0.002502109899497488,0.4176332121753679,-9.994963595128727
-0.002501479899497488,0.4176332121753679,-9.93903286043029
-0.002500849899497488,0.4176332121753679,-9.901745703964648
-0.002500219899497488,0.3877594243400675,-10.00242102642184
-0.002499589899497488,-0.3478826011045527,-10.13292607405163
-0.002498959899497488,-0.4972515402811311,-10.27461726862111
-0.002498329899497488,-0.5159226576781939,-10.37902130672486
-0.002497699899497488,-0.5196568811576081,-10.49088277612179
-0.002497069899497488,-0.5196568811576081,-10.56918580469967
-0.002496439899497488,-0.5196568811576081,-10.65121754892405
-0.002495809899497488,-0.5159226576781939,-10.71087699926908
-0.002495179899497488,-0.5233911046370189,-10.76680773396751
-0.002494549899497488,-0.5196568811576081,-10.78918002784692
-0.002493919899497488,-0.5196568811576047,-10.81528103737287
-0.002493289899497488,-0.5121884341987796,-10.81155232172631
-0.002492659899497488,-0.5159226576781939,-10.81155232172631
-0.002492029899497488,-0.5121884341987812,-10.78545131220034
-0.002491399899497488,-0.5159226576781939,-10.75189287138128
-0.002490769899497488,-0.5159226576781939,-10.69969085232938
-0.002490139899497488,-0.5084542107193688,-10.65121754892407
-0.002489509899497488,-0.5047199872399512,-10.59901552987215
-0.002488879899497488,-0.5084542107193654,-10.54681351082025
-0.002488249899497488,-0.5084542107193654,-10.50206892306148
-0.002487619899497488,-0.5047199872399512,-10.44613818836302
-0.002486989899497488,-0.5047199872399512,-10.39766488495766
-0.002486359899497488,-0.5047199872399512,-10.33800543461266
-0.002485729899497488,-0.5009857637605368,-10.28953213120732
-0.002485099899497488,-0.5009857637605368,-10.23360139650888
-0.002484469899497488,-0.5009857637605368,-10.18139937745696
-0.002483839899497488,-0.5009857637605368,-10.1254686427585
-0.002483209899497488,-0.5009857637605368,-10.0732666237066
-0.002482579899497488,-0.4972515402811226,-10.02479332030127
-0.002481949899497488,-0.5009857637605368,-9.980048732542471
-0.002481319899497488,-0.5009857637605368,-9.924117997844034
-0.002480689899497488,-0.4972515402811226,-9.875644694438698
-0.002480059899497488,-0.4972515402811226,-9.819713959740261
-0.002479429899497488,-0.4972515402811226,-9.774969371981467
-0.002478799899497488,-0.5009857637605368,-9.80479909715398
-0.002478169899497488,-0.5047199872399495,-9.980048732542416
-0.002477539899497488,-0.5121884341987796,-10.17021323051727
-0.002476909899497488,-0.5121884341987812,-10.34546286590586
-0.002476279899497488,-0.5159226576781939,-10.50206892306148
-0.002475649899497488,-0.5159226576781939,-10.65121754892405
-0.002475019899497488,-0.5159226576781939,-10.77799388090718
-0.002474389899497488,-0.5159226576781939,-10.90477021289041
-0.002473759899497488,-0.5196568811576081,-11.00171681970108
-0.002473129899497488,-0.5159226576781956,-11.09493471086514
-0.002472499899497488,-0.5196568811576081,-11.16578030814991
-0.002471869899497488,-0.5196568811576098,-11.22916847414151
-0.002471239899497488,-0.5233911046370223,-11.25899819931401
-0.002470609899497488,-0.5271253281164365,-11.30001407142622
-0.002469979899497488,-0.5196568811576115,-11.30747150271934
-0.002469349899497488,-0.5196568811576081,-11.30747150271935
-0.002468719899497488,-0.5196568811576081,-11.2813704931934
-0.002468089899497488,-0.5159226576781956,-11.23662590543465
-0.002467459899497488,-0.5121884341987796,-11.17323773944304
-0.002466829899497488,-0.5084542107193654,-11.11730700474454
-0.002466199899497488,-0.5084542107193654,-11.05391883875298
-0.002465569899497488,-0.5121884341987796,-11.00171681970108
-0.002464939899497488,-0.5084542107193654,-10.93832865370947
-0.002464309899497488,-0.5084542107193654,-10.88239791901103
-0.002463679899497488,-0.5084542107193654,-10.822738468666
-0.002463049899497488,-0.5047199872399528,-10.75935030267444
-0.002462419899497488,-0.5047199872399512,-10.70341956797595
-0.002461789899497488,-0.5009857637605385,-10.65494626457064
-0.002461159899497488,-0.5047199872399512,-10.72206314620877
-0.002460529899497488,-0.5084542107193654,-10.88239791901103
-0.002459899899497488,-0.5121884341987796,-11.06137627004617
-0.002459269899497488,-0.5121884341987796,-11.19933874896899
-0.002458639899497488,-0.5159226576781939,-11.33730122789186
-0.002458009899497488,-0.5159226576781939,-11.44916269728873
-0.002457379899497488,-0.5159226576781939,-11.55729545103915
-0.002456749899497488,-0.5121884341987796,-11.63932719526356
-0.002456119899497488,-0.5159226576781939,-11.71390150819484
-0.002455489899497488,-0.5121884341987796,-11.76610352724674
-0.002454859899497488,-0.5121884341987812,-11.80711939935896
-0.002454229899497488,-0.5159226576781939,-11.82576297759177
-0.002453599899497488,-0.5196568811576081,-11.8332204088849
-0.002452969899497488,-0.5159226576781956,-11.82949169323833
-0.002452339899497488,-0.5196568811576081,-11.80339068371238
-0.002451709899497488,-0.5196568811576081,-11.76237481160018
-0.002451079899497488,-0.5159226576781939,-11.70644407690171
-0.002450449899497488,-0.5047199872399512,-11.65797077349638
-0.002449819899497488,-0.5047199872399528,-11.59831132315132
-0.002449189899497488,-0.5084542107193654,-11.5311944415132
-0.002448559899497488,-0.5047199872399512,-11.47153499116817
-0.002447929899497488,-0.5047199872399512,-11.42306168776286
-0.002447299899497488,-0.5009857637605368,-11.35221609047812
-0.002446669899497488,-0.4972515402811226,-11.29255664013309
-0.002446039899497488,-0.5009857637605352,-11.22916847414153
-0.002445409899497488,-0.5047199872399512,-11.1769664550896
-0.002444779899497488,-0.5047199872399546,-11.11357828909798
-0.002444149899497488,-0.5121884341987796,-11.05391883875298
-0.002443519899497488,-0.5047199872399512,-10.99425938840795
-0.002442889899497488,-0.5009857637605385,-10.93087122241639
-0.002442259899497488,-0.4972515402811226,-10.86748305642477
-0.002441629899497488,-0.4972515402811226,-10.80782360607975
-0.002440999899497488,-0.4935173168017101,-10.75189287138131
-0.002440369899497488,-0.4935173168017084,-10.72206314620877
-0.002439739899497488,-0.5047199872399495,-10.84138204689889
-0.002439109899497488,-0.5009857637605368,-10.98680195711483
-0.002438479899497488,-0.5047199872399512,-11.14713672991709
-0.002437849899497488,-0.5084542107193637,-11.26645563060709
-0.002437219899497488,-0.5159226576781939,-11.38950324694376
-0.002436589899497488,-0.5159226576781939,-11.48272113810786
-0.002435959899497488,-0.5121884341987812,-11.57221031362536
-0.002435329899497488,-0.5084542107193654,-11.63559847961699
-0.002434699899497488,-0.5121884341987796,-11.6989866456086
-0.002434069899497488,-0.5121884341987796,-11.72135893948797
-0.002433439899497488,-0.5121884341987796,-11.75118866466048
-0.002432809899497488,-0.5121884341987779,-11.74745994901392
-0.002432179899497488,-0.5084542107193654,-11.74373123336736
-0.002431549899497488,-0.5084542107193654,-11.71390150819484
-0.002430919899497488,-0.5047199872399528,-11.67288563608265
-0.002430289899497488,-0.5047199872399512,-11.61695490138417
-0.002429659899497488,-0.5047199872399477,-11.56475288233225
-0.002429029899497488,-0.4972515402811226,-11.51255086328038
-0.002428399899497488,-0.4972515402811226,-11.45662012858191
-0.002427769899497488,-0.4935173168017066,-11.38950324694373
-0.002427139899497488,-0.4897830933222941,-11.32984379659873
-0.002426509899497488,-0.4935173168017084,-11.26645563060714
-0.002425879899497488,-0.4935173168017084,-11.20679618026214
-0.002425249899497488,-0.5009857637605368,-11.14340801427052
-0.002424619899497488,-0.4935173168017066,-11.07629113263234
-0.002423989899497488,-0.4897830933222941,-11.02408911358047
-0.002423359899497488,-0.4897830933222941,-10.96442966323544
-0.002422729899497488,-0.4972515402811192,-10.91222764418352
-0.002422099899497488,-0.4897830933222941,-10.85256819383851
-0.002421469899497488,-0.4935173168017084,-10.78918002784692
-0.002420839899497488,-0.4860488698428833,-10.73697800879505
-0.002420209899497488,-0.4897830933222941,-10.83019589995913
-0.002419579899497488,-0.4972515402811226,-10.97561581017513
-0.002418949899497488,-0.5009857637605368,-11.13967929862396
-0.002418319899497488,-0.5084542107193654,-11.25526948366745
-0.002417689899497488,-0.5047199872399512,-11.38577453129724
-0.002417059899497488,-0.5047199872399512,-11.48272113810786
-0.002416429899497488,-0.5047199872399512,-11.57593902927197
-0.002415799899497488,-0.5047199872399512,-11.64305591091009
-0.002415169899497488,-0.5084542107193654,-11.70271536125515
-0.002414539899497488,-0.5047199872399512,-11.7288163707811
-0.002413909899497488,-0.5047199872399512,-11.75491738030705
-0.002413279899497488,-0.5047199872399512,-11.75491738030705
-0.002412649899497488,-0.5009857637605368,-11.74745994901391
-0.002412019899497488,-0.5009857637605368,-11.7288163707811
-0.002411389899497488,-0.5047199872399512,-11.69525792996202
-0.002410759899497488,-0.5009857637605385,-11.63932719526358
-0.002410129899497488,-0.4935173168017084,-11.5833964605651
-0.002409499899497488,-0.4935173168017084,-11.5311944415132
-0.002408869899497488,-0.4935173168017084,-11.47526370681476
-0.002408239899497488,-0.4935173168017084,-11.41560425646971
-0.002407609899497488,-0.4860488698428799,-11.35221609047809
-0.002406979899497488,-0.4860488698428799,-11.29255664013309
-0.002406349899497488,-0.4860488698428799,-11.22171104284837
-0.002405719899497488,-0.4897830933222924,-11.16578030814993
-0.002405089899497488,-0.4897830933222941,-11.10239214215832
-0.002404459899497488,-0.4860488698428799,-11.04646140745985
-0.002403829899497488,-0.4823146463634673,-10.98307324146829
-0.002403199899497488,-0.4860488698428799,-10.92341379112323
-0.002402569899497488,-0.4823146463634673,-10.86748305642475
-0.002401939899497488,-0.4860488698428799,-10.81155232172631
-0.002401309899497488,-0.4823146463634656,-10.75189287138128
-0.002400679899497488,-0.4785804228840531,-10.74443544008816
-0.002400049899497488,-0.4897830933222941,-10.8749404877179
-0.002399419899497488,-0.4897830933222941,-11.02408911358047
-0.002398789899497488,-0.4935173168017066,-11.17323773944297
-0.002398159899497488,-0.4935173168017084,-11.30001407142622
-0.002397529899497488,-0.4972515402811243,-11.41933297211631
-0.002396899899497488,-0.5009857637605368,-11.50509343198725
-0.002396269899497488,-0.5009857637605368,-11.59085389185822
-0.002395639899497488,-0.5084542107193637,-11.65051334220328
-0.002395009899497488,-0.5047199872399512,-11.70644407690171
-0.002394379899497488,-0.5047199872399512,-11.73254508642766
-0.002393749899497488,-0.5047199872399512,-11.76237481160016
-0.002393119899497488,-0.5047199872399512,-11.75118866466048
-0.002392489899497488,-0.5047199872399512,-11.7474599490139
-0.002391859899497488,-0.5047199872399512,-11.71017279254828
-0.002391229899497488,-0.5047199872399512,-11.66915692043607
-0.002390599899497488,-0.5047199872399495,-11.60949747009103
-0.002389969899497488,-0.5009857637605368,-11.56475288233228
-0.002389339899497488,-0.5009857637605368,-11.50136471634068
-0.002388709899497488,-0.5009857637605368,-11.44543398164225
-0.002388079899497488,-0.4972515402811226,-11.38204581565063
-0.002387449899497488,-0.4935173168017066,-11.32611508095214
-0.002386819899497488,-0.4897830933222941,-11.26272691496058
-0.002386189899497488,-0.4823146463634656,-11.19561003332242
-0.002385559899497488,-0.482314646363469,-11.13595058297737
-0.002384929899497488,-0.4897830933222941,-11.08374856392549
-0.002384299899497488,-0.4823146463634656,-11.02781782922703
-0.002383669899497488,-0.4823146463634656,-10.96442966323547
-0.002383039899497488,-0.4860488698428799,-10.90104149724385
-0.002382409899497488,-0.4823146463634656,-10.84138204689882
-0.002381779899497488,-0.4823146463634656,-10.7817225965538
-0.002381149899497488,-0.4823146463634656,-10.73324929314846
-0.002380519899497488,-0.4972515402811226,-10.77053644961417
-0.002379889899497488,-0.4972515402811226,-10.92341379112323
-0.002379259899497488,-0.4935173168017084,-11.08374856392549
-0.002378629899497488,-0.4972515402811209,-11.21425361155518
