lb7_data/base2.csv

X,CH3,CH4,Start,Increment,
Sequence,Volt,Volt,-2.000000e-07,2.000000e-09
0,2.80e-01,8.00e-01,
1,2.80e-01,1.60e+00,
2,2.80e-01,8.00e-01,
3,2.72e-01,1.60e+00,
4,2.80e-01,1.60e+00,
5,2.72e-01,8.00e-01,
6,2.72e-01,8.00e-01,
7,2.72e-01,8.00e-01,
8,2.64e-01,1.60e+00,
9,2.80e-01,1.60e+00,
10,2.80e-01,1.60e+00,
11,2.72e-01,2.40e+00,
12,2.64e-01,1.60e+00,
13,2.64e-01,2.40e+00,
14,2.72e-01,2.40e+00,
15,2.72e-01,2.40e+00,
16,2.80e-01,2.40e+00,
17,2.72e-01,2.40e+00,
18,2.80e-01,2.40e+00,
19,2.72e-01,2.40e+00,
20,2.80e-01,2.40e+00,
21,2.72e-01,3.20e+00,
22,2.80e-01,3.20e+00,
23,2.80e-01,3.20e+00,
24,2.72e-01,2.40e+00,
25,2.80e-01,2.40e+00,
26,2.80e-01,2.40e+00,
27,2.64e-01,4.00e+00,
28,2.80e-01,3.20e+00,
29,2.80e-01,4.00e+00,
30,2.72e-01,3.20e+00,
31,2.72e-01,4.00e+00,
32,2.80e-01,4.00e+00,
33,2.80e-01,4.00e+00,
34,2.80e-01,4.00e+00,
35,2.72e-01,4.80e+00,
36,2.80e-01,4.00e+00,
37,2.80e-01,4.80e+00,
38,2.72e-01,4.80e+00,
39,2.80e-01,4.80e+00,
40,2.80e-01,4.80e+00,
41,2.80e-01,4.80e+00,
42,2.72e-01,4.80e+00,
43,2.64e-01,5.60e+00,
44,2.80e-01,5.60e+00,
45,2.80e-01,5.60e+00,
46,2.80e-01,5.60e+00,
47,2.80e-01,6.40e+00,
48,2.80e-01,6.40e+00,
49,2.80e-01,5.60e+00,
50,2.80e-01,6.40e+00,
51,2.72e-01,6.40e+00,
52,2.80e-01,6.40e+00,
53,2.80e-01,6.40e+00,
54,2.72e-01,6.40e+00,
55,2.72e-01,7.20e+00,
56,2.80e-01,8.00e+00,
57,2.80e-01,8.00e+00,
58,2.80e-01,8.80e+00,
59,2.80e-01,8.00e+00,
60,2.80e-01,8.80e+00,
61,2.80e-01,8.80e+00,
62,2.80e-01,9.60e+00,
63,2.72e-01,8.80e+00,
64,2.80e-01,8.80e+00,
65,2.72e-01,1.04e+01,
66,2.80e-01,1.04e+01,
67,2.72e-01,1.12e+01,
68,2.72e-01,1.04e+01,
69,2.72e-01,1.04e+01,
70,2.64e-01,1.20e+01,
71,2.72e-01,1.20e+01,
72,2.64e-01,1.20e+01,
73,2.64e-01,1.28e+01,
74,2.72e-01,1.36e+01,
75,2.64e-01,1.36e+01,
76,2.72e-01,1.52e+01,
77,2.72e-01,1.52e+01,
78,2.72e-01,1.60e+01,
79,2.72e-01,1.68e+01,
80,2.64e-01,1.60e+01,
81,2.56e-01,1.76e+01,
82,2.64e-01,1.84e+01,
83,2.64e-01,1.92e+01,
84,2.56e-01,2.00e+01,
85,2.64e-01,2.08e+01,
86,2.56e-01,2.16e+01,
87,2.56e-01,2.24e+01,
88,2.40e-01,2.40e+01,
89,2.16e-01,2.64e+01,
90,2.08e-01,2.96e+01,
91,1.92e-01,3.20e+01,
92,1.76e-01,3.44e+01,
93,1.44e-01,3.84e+01,
94,1.04e-01,4.16e+01,
95,6.40e-02,4.48e+01,
96,2.40e-02,4.88e+01,
97,-2.40e-02,5.12e+01,
98,-6.40e-02,5.44e+01,
99,-1.04e-01,5.76e+01,
100,-1.52e-01,6.00e+01,
101,-1.92e-01,6.24e+01,
102,-2.32e-01,6.40e+01,
103,-2.72e-01,6.72e+01,
104,-3.12e-01,6.88e+01,
105,-3.52e-01,7.04e+01,
106,-3.92e-01,7.12e+01,
107,-4.16e-01,7.28e+01,
108,-4.40e-01,7.36e+01,
109,-4.72e-01,7.36e+01,
110,-4.80e-01,7.36e+01,
111,-4.88e-01,7.28e+01,
112,-4.80e-01,7.04e+01,
113,-4.48e-01,6.80e+01,
114,-4.08e-01,6.24e+01,
115,-3.52e-01,5.60e+01,
116,-3.12e-01,4.88e+01,
117,-2.56e-01,4.00e+01,
118,-1.92e-01,3.28e+01,
119,-1.28e-01,2.56e+01,
120,-6.40e-02,2.00e+01,
121,-2.40e-02,1.60e+01,
122,5.60e-02,1.28e+01,
123,1.04e-01,1.04e+01,
124,1.28e-01,8.80e+00,
125,1.68e-01,8.80e+00,
126,1.84e-01,7.20e+00,
127,2.00e-01,7.20e+00,
128,1.92e-01,6.40e+00,
129,2.16e-01,6.40e+00,
130,2.16e-01,7.20e+00,
131,2.16e-01,8.80e+00,
132,2.08e-01,9.60e+00,
133,2.00e-01,1.04e+01,
134,1.92e-01,1.28e+01,
135,1.68e-01,1.44e+01,
136,1.44e-01,1.84e+01,
137,9.60e-02,2.16e+01,
138,1.60e-02,2.72e+01,
139,0.00e+00,3.28e+01,
140,-7.20e-02,3.92e+01,
141,-1.36e-01,4.64e+01,
142,-1.92e-01,5.28e+01,
143,-2.48e-01,5.76e+01,
144,-2.88e-01,6.16e+01,
145,-3.28e-01,6.32e+01,
146,-3.52e-01,6.24e+01,
147,-3.44e-01,6.08e+01,
148,-3.28e-01,5.60e+01,
149,-3.04e-01,5.04e+01,
150,-2.64e-01,4.48e+01,
151,-2.08e-01,3.92e+01,
152,-1.68e-01,3.20e+01,
153,-1.12e-01,2.56e+01,
154,-5.60e-02,2.16e+01,
155,-8.00e-03,1.68e+01,
156,2.40e-02,1.44e+01,
157,8.80e-02,1.28e+01,
158,1.04e-01,1.20e+01,
159,1.36e-01,1.04e+01,
160,1.60e-01,9.60e+00,
161,1.76e-01,9.60e+00,
162,1.84e-01,9.60e+00,
163,1.76e-01,9.60e+00,
164,1.84e-01,1.04e+01,
165,1.92e-01,1.04e+01,
166,1.84e-01,1.20e+01,
167,1.68e-01,1.36e+01,
168,1.60e-01,1.52e+01,
169,1.44e-01,1.68e+01,
170,1.04e-01,2.08e+01,
171,4.80e-02,2.40e+01,
172,2.40e-02,2.96e+01,
173,-2.40e-02,3.36e+01,
174,-8.00e-02,4.08e+01,
175,-1.36e-01,4.64e+01,
176,-1.92e-01,5.04e+01,
177,-2.24e-01,5.36e+01,
178,-2.64e-01,5.52e+01,
179,-2.88e-01,5.76e+01,
180,-2.88e-01,5.52e+01,
181,-2.88e-01,5.36e+01,
182,-2.64e-01,5.04e+01,
183,-2.40e-01,4.56e+01,
184,-2.00e-01,4.08e+01,
185,-1.68e-01,3.52e+01,
186,-1.28e-01,3.04e+01,
187,-8.80e-02,2.48e+01,
188,-4.00e-02,2.16e+01,
189,8.00e-03,1.84e+01,
190,3.20e-02,1.60e+01,
191,8.80e-02,1.44e+01,
192,1.12e-01,1.28e+01,
193,1.36e-01,1.20e+01,
194,1.52e-01,1.20e+01,
195,1.44e-01,1.20e+01,
196,1.68e-01,1.12e+01,
197,1.68e-01,1.20e+01,
198,1.68e-01,1.28e+01,
199,1.52e-01,1.36e+01,
200,1.44e-01,1.44e+01,
201,1.36e-01,1.68e+01,
202,1.20e-01,1.84e+01,
203,8.00e-02,2.08e+01,
204,4.80e-02,2.40e+01,
205,2.40e-02,2.88e+01,
206,-1.60e-02,3.36e+01,
207,-6.40e-02,3.84e+01,
208,-1.04e-01,4.24e+01,
209,-1.44e-01,4.56e+01,
210,-1.76e-01,4.80e+01,
211,-2.16e-01,5.12e+01,
212,-2.32e-01,5.12e+01,
213,-2.40e-01,5.12e+01,
214,-2.32e-01,4.96e+01,
215,-2.32e-01,4.72e+01,
216,-2.08e-01,4.32e+01,
217,-1.76e-01,4.00e+01,
218,-1.44e-01,3.52e+01,
219,-1.12e-01,3.12e+01,
220,-7.20e-02,2.72e+01,
221,-3.20e-02,2.32e+01,
222,0.00e+00,2.08e+01,
223,2.40e-02,1.84e+01,
224,5.60e-02,1.60e+01,
225,8.80e-02,1.52e+01,
226,1.04e-01,1.44e+01,
227,1.20e-01,1.36e+01,
228,1.28e-01,1.36e+01,
229,1.36e-01,1.36e+01,
230,1.36e-01,1.36e+01,
231,1.36e-01,1.44e+01,
232,1.28e-01,1.52e+01,
233,1.28e-01,1.60e+01,
234,1.12e-01,1.76e+01,
235,8.80e-02,2.08e+01,
236,5.60e-02,2.32e+01,
237,4.00e-02,2.64e+01,
238,8.00e-03,2.96e+01,
239,-3.20e-02,3.36e+01,
240,-6.40e-02,3.68e+01,
241,-9.60e-02,4.00e+01,
242,-1.28e-01,4.24e+01,
243,-1.68e-01,4.56e+01,
244,-1.84e-01,4.64e+01,
245,-2.00e-01,4.72e+01,
246,-2.00e-01,4.64e+01,
247,-2.00e-01,4.56e+01,
248,-1.92e-01,4.32e+01,
249,-1.76e-01,4.08e+01,
250,-1.60e-01,3.68e+01,
251,-1.28e-01,3.36e+01,
252,-9.60e-02,2.96e+01,
253,-5.60e-02,2.72e+01,
254,-3.20e-02,2.32e+01,
255,-8.00e-03,2.16e+01,
256,2.40e-02,1.92e+01,
257,4.80e-02,1.76e+01,
258,7.20e-02,1.68e+01,
259,8.80e-02,1.68e+01,
260,9.60e-02,1.52e+01,
261,1.12e-01,1.52e+01,
262,1.20e-01,1.52e+01,
263,1.20e-01,1.60e+01,
264,1.04e-01,1.68e+01,
265,1.12e-01,1.68e+01,
266,1.04e-01,1.84e+01,
267,7.20e-02,2.08e+01,
268,5.60e-02,2.32e+01,
269,4.00e-02,2.56e+01,
270,8.00e-03,2.88e+01,
271,-1.60e-02,3.20e+01,
272,-4.80e-02,3.44e+01,
273,-7.20e-02,3.68e+01,
274,-1.04e-01,3.92e+01,
275,-1.28e-01,4.24e+01,
276,-1.44e-01,4.32e+01,
277,-1.68e-01,4.40e+01,
278,-1.68e-01,4.40e+01,
279,-1.68e-01,4.32e+01,
280,-1.60e-01,4.08e+01,
281,-1.52e-01,4.00e+01,
282,-1.36e-01,3.68e+01,
283,-1.20e-01,3.36e+01,
284,-9.60e-02,3.12e+01,
285,-7.20e-02,2.80e+01,
286,-4.00e-02,2.64e+01,
287,-1.60e-02,2.40e+01,
288,8.00e-03,2.24e+01,
289,3.20e-02,2.00e+01,
290,4.80e-02,1.92e+01,
291,7.20e-02,1.76e+01,
292,8.00e-02,1.76e+01,
293,9.60e-02,1.76e+01,
294,1.04e-01,1.68e+01,
295,9.60e-02,1.68e+01,
296,9.60e-02,1.76e+01,
297,8.80e-02,1.92e+01,
298,8.80e-02,2.00e+01,
299,7.20e-02,2.16e+01,
300,6.40e-02,2.40e+01,
301,3.20e-02,2.48e+01,
302,1.60e-02,2.80e+01,
303,-8.00e-03,3.12e+01,
304,-4.00e-02,3.36e+01,
305,-5.60e-02,3.52e+01,
306,-8.00e-02,3.76e+01,
307,-1.04e-01,3.92e+01,
308,-1.20e-01,4.08e+01,
309,-1.36e-01,4.16e+01,
310,-1.44e-01,4.16e+01,
311,-1.44e-01,4.08e+01,
312,-1.36e-01,3.92e+01,
313,-1.28e-01,3.76e+01,
314,-1.12e-01,3.60e+01,
315,-9.60e-02,3.44e+01,
316,-8.00e-02,3.20e+01,
317,-5.60e-02,2.88e+01,
318,-3.20e-02,2.72e+01,
319,-2.40e-02,2.48e+01,
320,0.00e+00,2.32e+01,
321,1.60e-02,2.16e+01,
322,4.00e-02,2.00e+01,
323,5.60e-02,2.00e+01,
324,6.40e-02,1.92e+01,
325,7.20e-02,1.76e+01,
326,8.00e-02,1.84e+01,
327,8.80e-02,1.92e+01,
328,8.80e-02,1.92e+01,
329,7.20e-02,2.00e+01,
330,6.40e-02,2.16e+01,
331,5.60e-02,2.32e+01,
332,4.00e-02,2.40e+01,
333,3.20e-02,2.56e+01,
334,1.60e-02,2.80e+01,
335,-8.00e-03,3.04e+01,
336,-3.20e-02,3.28e+01,
337,-5.60e-02,3.44e+01,
338,-7.20e-02,3.60e+01,
339,-8.80e-02,3.84e+01,
340,-1.04e-01,3.92e+01,
341,-1.04e-01,3.92e+01,
342,-1.12e-01,3.84e+01,
343,-1.28e-01,3.92e+01,
344,-1.20e-01,3.76e+01,
345,-1.12e-01,3.60e+01,
346,-1.04e-01,3.52e+01,
347,-8.80e-02,3.36e+01,
348,-7.20e-02,3.04e+01,
349,-5.60e-02,2.88e+01,
350,-4.00e-02,2.72e+01,
351,-1.60e-02,2.56e+01,
352,0.00e+00,2.40e+01,
353,1.60e-02,2.32e+01,
354,3.20e-02,2.24e+01,
355,4.00e-02,2.16e+01,
356,5.60e-02,2.00e+01,
357,7.20e-02,2.00e+01,
358,7.20e-02,2.00e+01,
359,6.40e-02,2.00e+01,
360,6.40e-02,2.08e+01,
361,6.40e-02,2.16e+01,
362,5.60e-02,2.24e+01,
363,4.00e-02,2.32e+01,
364,3.20e-02,2.48e+01,
365,1.60e-02,2.64e+01,
366,8.00e-03,2.88e+01,
367,-1.60e-02,3.04e+01,
368,-2.40e-02,3.28e+01,
369,-4.00e-02,3.28e+01,
370,-6.40e-02,3.52e+01,
371,-8.00e-02,3.60e+01,
372,-9.60e-02,3.68e+01,
373,-1.04e-01,3.68e+01,
374,-9.60e-02,3.68e+01,
375,-1.12e-01,3.68e+01,
376,-1.04e-01,3.60e+01,
377,-1.04e-01,3.52e+01,
378,-8.00e-02,3.36e+01,
379,-7.20e-02,3.20e+01,
380,-6.40e-02,3.04e+01,
381,-4.00e-02,2.88e+01,
382,-3.20e-02,2.72e+01,
383,-1.60e-02,2.48e+01,
384,0.00e+00,2.48e+01,
385,1.60e-02,2.32e+01,
386,3.20e-02,2.24e+01,
387,3.20e-02,2.16e+01,
388,4.80e-02,2.24e+01,
389,4.80e-02,2.16e+01,
390,6.40e-02,2.16e+01,
391,5.60e-02,2.16e+01,
392,5.60e-02,2.24e+01,
393,5.60e-02,2.32e+01,
394,4.00e-02,2.32e+01,
395,3.20e-02,2.56e+01,
396,2.40e-02,2.64e+01,
397,0.00e+00,2.72e+01,
398,-8.00e-03,2.88e+01,
399,-2.40e-02,3.04e+01,
400,-3.20e-02,3.12e+01,
401,-4.80e-02,3.36e+01,
402,-6.40e-02,3.44e+01,
403,-7.20e-02,3.52e+01,
404,-8.80e-02,3.52e+01,
405,-8.00e-02,3.60e+01,
406,-9.60e-02,3.60e+01,
407,-9.60e-02,3.52e+01,
408,-8.80e-02,3.44e+01,
409,-8.80e-02,3.28e+01,
410,-7.20e-02,3.20e+01,
411,-6.40e-02,3.12e+01,
412,-4.80e-02,2.96e+01,
413,-3.20e-02,2.80e+01,
414,-2.40e-02,2.72e+01,
415,-8.00e-03,2.64e+01,
416,8.00e-03,2.40e+01,
417,1.60e-02,2.40e+01,
418,2.40e-02,2.32e+01,
419,3.20e-02,2.32e+01,
420,4.00e-02,2.32e+01,
421,4.00e-02,2.32e+01,
422,4.00e-02,2.32e+01,
423,4.80e-02,2.32e+01,
424,4.00e-02,2.40e+01,
425,4.00e-02,2.40e+01,
426,3.20e-02,2.48e+01,
427,2.40e-02,2.64e+01,
428,1.60e-02,2.72e+01,
429,8.00e-03,2.80e+01,
430,0.00e+00,2.88e+01,
431,-1.60e-02,3.04e+01,
432,-2.40e-02,3.12e+01,
433,-4.80e-02,3.20e+01,
434,-5.60e-02,3.28e+01,
435,-6.40e-02,3.44e+01,
436,-6.40e-02,3.44e+01,
437,-8.00e-02,3.44e+01,
438,-7.20e-02,3.44e+01,
439,-7.20e-02,3.36e+01,
440,-7.20e-02,3.28e+01,
441,-6.40e-02,3.20e+01,
442,-6.40e-02,3.12e+01,
443,-5.60e-02,3.12e+01,
444,-4.00e-02,2.88e+01,
445,-3.20e-02,2.80e+01,
446,-2.40e-02,2.72e+01,
447,-1.60e-02,2.64e+01,
448,0.00e+00,2.56e+01,
449,8.00e-03,2.48e+01,
450,2.40e-02,2.40e+01,
451,2.40e-02,2.40e+01,
452,3.20e-02,2.32e+01,
453,4.00e-02,2.32e+01,
454,4.00e-02,2.32e+01,
455,4.00e-02,2.32e+01,
456,3.20e-02,2.40e+01,
457,3.20e-02,2.40e+01,
458,2.40e-02,2.56e+01,
459,1.60e-02,2.64e+01,
460,8.00e-03,2.72e+01,
461,-8.00e-03,2.80e+01,
462,-1.60e-02,3.04e+01,
463,-2.40e-02,3.04e+01,
464,-3.20e-02,3.12e+01,
465,-4.80e-02,3.20e+01,
466,-4.80e-02,3.28e+01,
467,-5.60e-02,3.36e+01,
468,-6.40e-02,3.36e+01,
469,-6.40e-02,3.28e+01,
470,-6.40e-02,3.36e+01,
471,-6.40e-02,3.36e+01,
472,-6.40e-02,3.28e+01,
473,-5.60e-02,3.20e+01,
474,-4.80e-02,3.12e+01,
475,-4.80e-02,2.96e+01,
476,-4.00e-02,2.88e+01,
477,-2.40e-02,2.80e+01,
478,-2.40e-02,2.72e+01,
479,0.00e+00,2.64e+01,
480,8.00e-03,2.56e+01,
481,8.00e-03,2.48e+01,
482,2.40e-02,2.48e+01,
483,2.40e-02,2.40e+01,
484,2.40e-02,2.40e+01,
485,3.20e-02,2.40e+01,
486,3.20e-02,2.40e+01,
487,3.20e-02,2.40e+01,
488,2.40e-02,2.56e+01,
489,2.40e-02,2.48e+01,
490,1.60e-02,2.56e+01,
491,8.00e-03,2.72e+01,
492,0.00e+00,2.80e+01,
493,0.00e+00,2.88e+01,
494,-8.00e-03,2.96e+01,
495,-1.60e-02,3.04e+01,
496,-2.40e-02,3.04e+01,
497,-4.00e-02,3.12e+01,
498,-4.80e-02,3.20e+01,
499,-5.60e-02,3.20e+01,
500,-5.60e-02,3.20e+01,
501,-5.60e-02,3.20e+01,
502,-5.60e-02,3.20e+01,
503,-5.60e-02,3.20e+01,
504,-5.60e-02,3.12e+01,
505,-4.80e-02,3.04e+01,
506,-4.00e-02,3.04e+01,
507,-4.00e-02,2.96e+01,
508,-3.20e-02,2.88e+01,
509,-2.40e-02,2.72e+01,
510,-1.60e-02,2.64e+01,
511,0.00e+00,2.64e+01,
512,0.00e+00,2.48e+01,
513,8.00e-03,2.48e+01,
514,1.60e-02,2.56e+01,
515,1.60e-02,2.40e+01,
516,2.40e-02,2.40e+01,
517,2.40e-02,2.40e+01,
518,2.40e-02,2.56e+01,
519,2.40e-02,2.48e+01,
520,2.40e-02,2.48e+01,
521,8.00e-03,2.56e+01,
522,8.00e-03,2.64e+01,
523,8.00e-03,2.72e+01,
524,0.00e+00,2.80e+01,
525,-1.60e-02,2.88e+01,
526,-1.60e-02,2.96e+01,
527,-2.40e-02,3.04e+01,
528,-3.20e-02,3.04e+01,
529,-4.00e-02,3.12e+01,
530,-4.00e-02,3.12e+01,
531,-4.80e-02,3.28e+01,
532,-4.80e-02,3.20e+01,
533,-4.80e-02,3.12e+01,
534,-4.80e-02,3.20e+01,
535,-4.80e-02,3.12e+01,
536,-4.80e-02,3.04e+01,
537,-3.20e-02,3.04e+01,
538,-4.00e-02,2.96e+01,
539,-3.20e-02,2.88e+01,
540,-3.20e-02,2.80e+01,
541,-2.40e-02,2.80e+01,
542,-8.00e-03,2.72e+01,
543,0.00e+00,2.64e+01,
544,8.00e-03,2.64e+01,
545,8.00e-03,2.48e+01,
546,1.60e-02,2.56e+01,
547,1.60e-02,2.48e+01,
548,8.00e-03,2.48e+01,
549,2.40e-02,2.48e+01,
550,1.60e-02,2.48e+01,
551,8.00e-03,2.64e+01,
552,8.00e-03,2.64e+01,
553,0.00e+00,2.72e+01,
554,0.00e+00,2.72e+01,
555,0.00e+00,2.80e+01,
556,-8.00e-03,2.80e+01,
557,-1.60e-02,2.88e+01,
558,-2.40e-02,2.96e+01,
559,-3.20e-02,3.04e+01,
560,-3.20e-02,3.12e+01,
561,-4.00e-02,3.04e+01,
562,-4.00e-02,3.20e+01,
563,-4.80e-02,3.12e+01,
564,-4.80e-02,3.20e+01,
565,-4.80e-02,3.20e+01,
566,-4.80e-02,3.12e+01,
567,-4.80e-02,3.04e+01,
568,-4.00e-02,3.12e+01,
569,-4.00e-02,2.96e+01,
570,-3.20e-02,2.96e+01,
571,-3.20e-02,2.88e+01,
572,-2.40e-02,2.80e+01,
573,-1.60e-02,2.80e+01,
574,-1.60e-02,2.64e+01,
575,0.00e+00,2.64e+01,
576,8.00e-03,2.56e+01,
577,8.00e-03,2.56e+01,
578,8.00e-03,2.56e+01,
579,8.00e-03,2.48e+01,
580,1.60e-02,2.56e+01,
581,1.60e-02,2.56e+01,
582,1.60e-02,2.64e+01,
583,1.60e-02,2.56e+01,
584,0.00e+00,2.56e+01,
585,8.00e-03,2.64e+01,
586,8.00e-03,2.64e+01,
587,0.00e+00,2.80e+01,
588,-1.60e-02,2.88e+01,
589,-8.00e-03,2.88e+01,
590,-1.60e-02,2.96e+01,
591,-2.40e-02,3.04e+01,
592,-3.20e-02,3.04e+01,
593,-3.20e-02,3.04e+01,
594,-4.00e-02,3.04e+01,
595,-3.20e-02,3.12e+01,
596,-4.00e-02,3.04e+01,
597,-4.00e-02,3.04e+01,
598,-4.00e-02,3.04e+01,
599,-4.00e-02,3.04e+01,
600,-4.00e-02,2.96e+01,
601,-3.20e-02,2.96e+01,
602,-1.60e-02,2.88e+01,
603,-1.60e-02,2.88e+01,
604,-1.60e-02,2.80e+01,
605,-8.00e-03,2.72e+01,
606,0.00e+00,2.72e+01,
607,0.00e+00,2.72e+01,
608,0.00e+00,2.64e+01,
609,8.00e-03,2.64e+01,
610,8.00e-03,2.64e+01,
611,8.00e-03,2.64e+01,
612,8.00e-03,2.64e+01,
613,0.00e+00,2.56e+01,
614,1.60e-02,2.56e+01,
615,0.00e+00,2.72e+01,
616,8.00e-03,2.72e+01,
617,8.00e-03,2.72e+01,
618,0.00e+00,2.80e+01,
619,0.00e+00,2.80e+01,
620,-8.00e-03,2.88e+01,
621,-8.00e-03,2.96e+01,
622,-2.40e-02,3.04e+01,
623,-1.60e-02,3.04e+01,
624,-3.20e-02,2.96e+01,
625,-3.20e-02,3.04e+01,
626,-2.40e-02,3.04e+01,
627,-4.00e-02,3.04e+01,
628,-4.00e-02,3.04e+01,
629,-3.20e-02,3.04e+01,
630,-3.20e-02,3.04e+01,
631,-3.20e-02,2.96e+01,
632,-2.40e-02,2.96e+01,
633,-3.20e-02,2.88e+01,
634,-2.40e-02,2.96e+01,
635,-2.40e-02,2.88e+01,
636,-8.00e-03,2.80e+01,
637,-1.60e-02,2.80e+01,
638,0.00e+00,2.72e+01,
639,0.00e+00,2.72e+01,
640,0.00e+00,2.72e+01,
641,8.00e-03,2.64e+01,
642,8.00e-03,2.64e+01,
643,8.00e-03,2.64e+01,
644,8.00e-03,2.64e+01,
645,0.00e+00,2.64e+01,
646,0.00e+00,2.72e+01,
647,0.00e+00,2.72e+01,
648,0.00e+00,2.72e+01,
649,0.00e+00,2.80e+01,
650,0.00e+00,2.80e+01,
651,-8.00e-03,2.88e+01,
652,-1.60e-02,2.88e+01,
653,-8.00e-03,2.88e+01,
654,-2.40e-02,2.96e+01,
655,-2.40e-02,2.96e+01,
656,-2.40e-02,2.96e+01,
657,-2.40e-02,2.96e+01,
658,-2.40e-02,3.04e+01,
659,-2.40e-02,3.04e+01,
660,-3.20e-02,2.96e+01,
661,-2.40e-02,2.96e+01,
662,-3.20e-02,2.96e+01,
663,-3.20e-02,2.96e+01,
664,-3.20e-02,2.88e+01,
665,-1.60e-02,2.88e+01,
666,-2.40e-02,2.88e+01,
667,-1.60e-02,2.80e+01,
668,-1.60e-02,2.80e+01,
669,-8.00e-03,2.72e+01,
670,-8.00e-03,2.72e+01,
671,-8.00e-03,2.72e+01,
672,0.00e+00,2.72e+01,
673,-8.00e-03,2.72e+01,
674,0.00e+00,2.72e+01,
675,8.00e-03,2.64e+01,
676,8.00e-03,2.72e+01,
677,8.00e-03,2.72e+01,
678,8.00e-03,2.72e+01,
679,0.00e+00,2.72e+01,
680,-8.00e-03,2.72e+01,
681,-8.00e-03,2.80e+01,
682,-8.00e-03,2.80e+01,
683,-1.60e-02,2.88e+01,
684,-8.00e-03,2.88e+01,
685,-8.00e-03,2.96e+01,
686,-1.60e-02,2.96e+01,
687,-1.60e-02,2.96e+01,
688,-2.40e-02,2.96e+01,
689,-3.20e-02,2.96e+01,
690,-1.60e-02,2.96e+01,
691,-2.40e-02,2.96e+01,
692,-2.40e-02,2.96e+01,
693,-3.20e-02,2.96e+01,
694,-3.20e-02,2.96e+01,
695,-3.20e-02,2.96e+01,
696,-1.60e-02,2.88e+01,
697,-2.40e-02,2.88e+01,
698,-1.60e-02,2.88e+01,
699,-1.60e-02,2.72e+01,
700,-8.00e-03,2.80e+01,
701,-8.00e-03,2.80e+01,
702,0.00e+00,2.80e+01,
703,0.00e+00,2.72e+01,
704,-8.00e-03,2.72e+01,
705,-8.00e-03,2.72e+01,
706,0.00e+00,2.72e+01,
707,0.00e+00,2.72e+01,
708,0.00e+00,2.72e+01,
709,0.00e+00,2.64e+01,
710,-8.00e-03,2.64e+01,
711,0.00e+00,2.80e+01,
712,-8.00e-03,2.80e+01,
713,0.00e+00,2.80e+01,
714,0.00e+00,2.80e+01,
715,-1.60e-02,2.88e+01,
716,-8.00e-03,2.88e+01,
717,-1.60e-02,2.88e+01,
718,-1.60e-02,2.96e+01,
719,-1.60e-02,2.96e+01,
720,-1.60e-02,2.96e+01,
721,-2.40e-02,3.04e+01,
722,-2.40e-02,2.96e+01,
723,-3.20e-02,2.96e+01,
724,-2.40e-02,3.04e+01,
725,-2.40e-02,3.04e+01,
726,-2.40e-02,2.88e+01,
727,-2.40e-02,2.88e+01,
728,-2.40e-02,2.88e+01,
729,-1.60e-02,2.88e+01,
730,-8.00e-03,2.88e+01,
731,-1.60e-02,2.72e+01,
732,-8.00e-03,2.80e+01,
733,-1.60e-02,2.80e+01,
734,-8.00e-03,2.80e+01,
735,-8.00e-03,2.72e+01,
736,0.00e+00,2.72e+01,
737,0.00e+00,2.72e+01,
738,0.00e+00,2.64e+01,
739,0.00e+00,2.72e+01,
740,8.00e-03,2.72e+01,
741,-8.00e-03,2.72e+01,
742,0.00e+00,2.80e+01,
743,0.00e+00,2.80e+01,
744,0.00e+00,2.80e+01,
745,-8.00e-03,2.80e+01,
746,-8.00e-03,2.96e+01,
747,-1.60e-02,2.96e+01,
748,-8.00e-03,2.96e+01,
749,-8.00e-03,2.96e+01,
750,-2.40e-02,2.96e+01,
751,-1.60e-02,2.96e+01,
752,-2.40e-02,2.96e+01,
753,-2.40e-02,2.96e+01,
754,-2.40e-02,2.96e+01,
755,-3.20e-02,2.96e+01,
756,-2.40e-02,2.88e+01,
757,-2.40e-02,2.96e+01,
758,-2.40e-02,2.88e+01,
759,-2.40e-02,2.88e+01,
760,-2.40e-02,2.88e+01,
761,-2.40e-02,2.88e+01,
762,-1.60e-02,2.80e+01,
763,-1.60e-02,2.80e+01,
764,-8.00e-03,2.80e+01,
765,-1.60e-02,2.80e+01,
766,0.00e+00,2.80e+01,
767,-8.00e-03,2.80e+01,
768,-8.00e-03,2.72e+01,
769,0.00e+00,2.72e+01,
770,-8.00e-03,2.72e+01,
771,0.00e+00,2.80e+01,
772,-8.00e-03,2.72e+01,
773,0.00e+00,2.80e+01,
774,0.00e+00,2.80e+01,
775,-8.00e-03,2.72e+01,
776,-8.00e-03,2.80e+01,
777,-1.60e-02,2.80e+01,
778,-8.00e-03,2.88e+01,
779,-8.00e-03,2.88e+01,
780,-8.00e-03,2.88e+01,
781,-2.40e-02,2.88e+01,
782,-1.60e-02,2.88e+01,
783,-2.40e-02,2.96e+01,
784,-1.60e-02,2.88e+01,
785,-1.60e-02,2.96e+01,
786,-8.00e-03,2.96e+01,
787,-1.60e-02,2.96e+01,
788,-1.60e-02,2.88e+01,
789,-1.60e-02,2.88e+01,
790,-2.40e-02,2.96e+01,
791,-1.60e-02,2.88e+01,
792,-1.60e-02,2.88e+01,
793,-1.60e-02,2.88e+01,
794,-1.60e-02,2.80e+01,
795,-1.60e-02,2.80e+01,
796,-1.60e-02,2.80e+01,
797,0.00e+00,2.80e+01,
798,-8.00e-03,2.80e+01,
799,-8.00e-03,2.80e+01,
800,-8.00e-03,2.80e+01,
801,0.00e+00,2.72e+01,
802,0.00e+00,2.80e+01,
803,-8.00e-03,2.80e+01,
804,0.00e+00,2.80e+01,
805,-8.00e-03,2.80e+01,
806,-8.00e-03,2.72e+01,
807,0.00e+00,2.72e+01,
808,-8.00e-03,2.80e+01,
809,-8.00e-03,2.80e+01,
810,-1.60e-02,2.88e+01,
811,-1.60e-02,2.88e+01,
812,-8.00e-03,2.88e+01,
813,-1.60e-02,2.88e+01,
814,-1.60e-02,2.88e+01,
815,-2.40e-02,2.88e+01,
816,-1.60e-02,2.88e+01,
817,-1.60e-02,2.88e+01,
818,-1.60e-02,2.88e+01,
819,-2.40e-02,2.88e+01,
820,-2.40e-02,2.88e+01,
821,-2.40e-02,2.88e+01,
822,-2.40e-02,2.88e+01,
823,-2.40e-02,2.88e+01,
824,-8.00e-03,2.88e+01,
825,-1.60e-02,2.72e+01,
826,-8.00e-03,2.80e+01,
827,-8.00e-03,2.80e+01,
828,-8.00e-03,2.80e+01,
829,-1.60e-02,2.80e+01,
830,0.00e+00,2.80e+01,
831,0.00e+00,2.80e+01,
832,0.00e+00,2.80e+01,
833,-8.00e-03,2.80e+01,
834,-8.00e-03,2.80e+01,
835,0.00e+00,2.80e+01,
836,0.00e+00,2.80e+01,
837,-8.00e-03,2.80e+01,
838,-8.00e-03,2.80e+01,
839,-1.60e-02,2.80e+01,
840,-8.00e-03,2.80e+01,
841,-8.00e-03,2.80e+01,
842,-8.00e-03,2.88e+01,
843,-8.00e-03,2.88e+01,
844,-1.60e-02,2.88e+01,
845,-8.00e-03,2.88e+01,
846,-8.00e-03,2.88e+01,
847,-1.60e-02,2.88e+01,
848,-1.60e-02,2.88e+01,
849,-1.60e-02,2.88e+01,
850,-2.40e-02,2.88e+01,
