lb7_data/clp10.csv

X,CH1,CH3,CH4,Start,Increment,
Sequence,Volt,Volt,Volt,5.932000e-05,2.000000e-09
0,3.08e+01,3.52e-01,0.00e+00,
1,3.08e+01,3.52e-01,0.00e+00,
2,3.12e+01,3.36e-01,4.00e-01,
3,3.12e+01,3.36e-01,4.00e-01,
4,3.12e+01,3.36e-01,4.00e-01,
5,3.12e+01,3.36e-01,4.00e-01,
6,3.08e+01,3.36e-01,4.00e-01,
7,3.08e+01,3.36e-01,4.00e-01,
8,3.08e+01,3.44e-01,4.00e-01,
9,3.08e+01,3.44e-01,4.00e-01,
10,3.08e+01,3.44e-01,0.00e+00,
11,3.08e+01,3.44e-01,0.00e+00,
12,3.16e+01,3.36e-01,0.00e+00,
13,3.16e+01,3.36e-01,0.00e+00,
14,3.08e+01,3.52e-01,4.00e-01,
15,3.08e+01,3.52e-01,4.00e-01,
16,3.08e+01,3.44e-01,4.00e-01,
17,3.08e+01,3.44e-01,4.00e-01,
18,3.12e+01,3.44e-01,4.00e-01,
19,3.12e+01,3.44e-01,4.00e-01,
20,3.08e+01,3.52e-01,4.00e-01,
21,3.08e+01,3.52e-01,4.00e-01,
22,3.12e+01,3.44e-01,4.00e-01,
23,3.12e+01,3.44e-01,4.00e-01,
24,3.12e+01,3.44e-01,4.00e-01,
25,3.12e+01,3.44e-01,4.00e-01,
26,3.08e+01,3.44e-01,4.00e-01,
27,3.08e+01,3.44e-01,4.00e-01,
28,3.08e+01,3.52e-01,4.00e-01,
29,3.08e+01,3.52e-01,4.00e-01,
30,3.08e+01,3.44e-01,4.00e-01,
31,3.08e+01,3.44e-01,4.00e-01,
32,3.12e+01,3.44e-01,4.00e-01,
33,3.12e+01,3.44e-01,4.00e-01,
34,3.08e+01,3.36e-01,4.00e-01,
35,3.08e+01,3.36e-01,4.00e-01,
36,3.12e+01,2.96e-01,-4.00e-01,
37,3.12e+01,2.96e-01,-4.00e-01,
38,3.08e+01,2.72e-01,4.00e-01,
39,3.08e+01,2.72e-01,4.00e-01,
40,3.08e+01,2.80e-01,0.00e+00,
41,3.08e+01,2.80e-01,0.00e+00,
42,3.12e+01,3.04e-01,0.00e+00,
43,3.12e+01,3.04e-01,0.00e+00,
44,3.12e+01,3.12e-01,0.00e+00,
45,3.12e+01,3.12e-01,0.00e+00,
46,3.12e+01,3.20e-01,4.00e-01,
47,3.12e+01,3.20e-01,4.00e-01,
48,3.08e+01,3.28e-01,4.00e-01,
49,3.08e+01,3.28e-01,4.00e-01,
50,3.12e+01,3.20e-01,4.00e-01,
51,3.12e+01,3.20e-01,4.00e-01,
52,3.12e+01,3.36e-01,4.00e-01,
53,3.12e+01,3.36e-01,4.00e-01,
54,3.08e+01,3.36e-01,4.00e-01,
55,3.08e+01,3.36e-01,4.00e-01,
56,3.08e+01,3.28e-01,4.00e-01,
57,3.08e+01,3.28e-01,4.00e-01,
58,3.12e+01,3.36e-01,4.00e-01,
59,3.12e+01,3.36e-01,4.00e-01,
60,3.12e+01,3.36e-01,4.00e-01,
61,3.12e+01,3.36e-01,4.00e-01,
62,3.12e+01,3.36e-01,4.00e-01,
63,3.12e+01,3.36e-01,4.00e-01,
64,3.16e+01,3.36e-01,4.00e-01,
65,3.16e+01,3.36e-01,4.00e-01,
66,3.08e+01,3.36e-01,4.00e-01,
67,3.08e+01,3.36e-01,4.00e-01,
68,3.08e+01,3.36e-01,4.00e-01,
69,3.08e+01,3.36e-01,4.00e-01,
70,3.12e+01,3.36e-01,4.00e-01,
71,3.12e+01,3.36e-01,4.00e-01,
72,3.08e+01,3.36e-01,4.00e-01,
73,3.08e+01,3.36e-01,4.00e-01,
74,3.12e+01,3.36e-01,4.00e-01,
75,3.12e+01,3.36e-01,4.00e-01,
76,3.12e+01,3.36e-01,4.00e-01,
77,3.12e+01,3.36e-01,4.00e-01,
78,3.12e+01,3.36e-01,4.00e-01,
79,3.12e+01,3.36e-01,4.00e-01,
80,3.12e+01,3.52e-01,4.00e-01,
81,3.12e+01,3.52e-01,4.00e-01,
82,3.12e+01,3.36e-01,4.00e-01,
83,3.12e+01,3.36e-01,4.00e-01,
84,3.12e+01,3.36e-01,4.00e-01,
85,3.12e+01,3.36e-01,4.00e-01,
86,3.08e+01,3.36e-01,4.00e-01,
87,3.08e+01,3.36e-01,4.00e-01,
88,3.12e+01,3.36e-01,4.00e-01,
89,3.12e+01,3.36e-01,4.00e-01,
90,3.08e+01,3.44e-01,4.00e-01,
91,3.08e+01,3.44e-01,4.00e-01,
92,3.12e+01,3.36e-01,4.00e-01,
93,3.12e+01,3.36e-01,4.00e-01,
94,3.08e+01,3.52e-01,4.00e-01,
95,3.08e+01,3.52e-01,4.00e-01,
96,3.08e+01,3.52e-01,4.00e-01,
97,3.08e+01,3.52e-01,4.00e-01,
98,3.08e+01,3.52e-01,4.00e-01,
99,3.08e+01,3.52e-01,4.00e-01,
100,3.12e+01,3.52e-01,4.00e-01,
101,3.12e+01,3.52e-01,4.00e-01,
102,3.08e+01,3.52e-01,4.00e-01,
103,3.08e+01,3.52e-01,4.00e-01,
104,3.12e+01,3.52e-01,4.00e-01,
105,3.12e+01,3.52e-01,4.00e-01,
106,3.12e+01,3.52e-01,4.00e-01,
107,3.12e+01,3.52e-01,4.00e-01,
108,3.12e+01,3.52e-01,4.00e-01,
109,3.12e+01,3.52e-01,4.00e-01,
110,3.08e+01,3.52e-01,4.00e-01,
111,3.08e+01,3.52e-01,4.00e-01,
112,3.12e+01,3.52e-01,4.00e-01,
113,3.12e+01,3.52e-01,4.00e-01,
114,3.12e+01,3.52e-01,4.00e-01,
115,3.12e+01,3.52e-01,4.00e-01,
116,3.08e+01,3.52e-01,4.00e-01,
117,3.08e+01,3.52e-01,4.00e-01,
118,3.12e+01,3.52e-01,4.00e-01,
119,3.12e+01,3.52e-01,4.00e-01,
120,3.08e+01,3.52e-01,4.00e-01,
121,3.08e+01,3.52e-01,4.00e-01,
122,3.12e+01,3.52e-01,4.00e-01,
123,3.12e+01,3.52e-01,4.00e-01,
124,3.12e+01,3.52e-01,4.00e-01,
125,3.12e+01,3.52e-01,4.00e-01,
126,3.08e+01,3.52e-01,4.00e-01,
127,3.08e+01,3.52e-01,4.00e-01,
128,3.08e+01,3.52e-01,4.00e-01,
129,3.08e+01,3.52e-01,4.00e-01,
130,3.08e+01,3.52e-01,4.00e-01,
131,3.08e+01,3.52e-01,4.00e-01,
132,3.08e+01,3.52e-01,4.00e-01,
133,3.08e+01,3.52e-01,4.00e-01,
134,3.12e+01,3.52e-01,4.00e-01,
135,3.12e+01,3.52e-01,4.00e-01,
136,3.12e+01,3.52e-01,4.00e-01,
137,3.12e+01,3.52e-01,4.00e-01,
138,3.08e+01,3.44e-01,1.20e+00,
139,3.08e+01,3.44e-01,1.20e+00,
140,3.08e+01,3.44e-01,1.20e+00,
141,3.08e+01,3.44e-01,1.20e+00,
142,3.12e+01,3.44e-01,1.20e+00,
143,3.12e+01,3.44e-01,1.20e+00,
144,3.12e+01,3.44e-01,1.60e+00,
145,3.12e+01,3.44e-01,1.60e+00,
146,3.08e+01,3.44e-01,1.60e+00,
147,3.08e+01,3.44e-01,1.60e+00,
148,3.12e+01,3.44e-01,1.60e+00,
149,3.12e+01,3.44e-01,1.60e+00,
150,3.12e+01,3.44e-01,2.00e+00,
151,3.12e+01,3.44e-01,2.00e+00,
152,3.08e+01,3.52e-01,2.00e+00,
153,3.08e+01,3.52e-01,2.00e+00,
154,3.12e+01,3.52e-01,2.40e+00,
155,3.12e+01,3.52e-01,2.40e+00,
156,3.08e+01,3.52e-01,2.80e+00,
157,3.08e+01,3.52e-01,2.80e+00,
158,3.12e+01,3.44e-01,2.80e+00,
159,3.12e+01,3.44e-01,2.80e+00,
160,3.08e+01,3.44e-01,3.20e+00,
161,3.08e+01,3.44e-01,3.20e+00,
162,3.08e+01,3.44e-01,3.20e+00,
163,3.08e+01,3.44e-01,3.20e+00,
164,3.08e+01,3.44e-01,3.20e+00,
165,3.08e+01,3.44e-01,3.20e+00,
166,3.08e+01,3.52e-01,4.00e+00,
167,3.08e+01,3.52e-01,4.00e+00,
168,3.08e+01,3.52e-01,4.00e+00,
169,3.08e+01,3.52e-01,4.00e+00,
170,3.12e+01,3.52e-01,4.40e+00,
171,3.12e+01,3.52e-01,4.40e+00,
172,3.12e+01,3.52e-01,4.80e+00,
173,3.12e+01,3.52e-01,4.80e+00,
174,3.12e+01,3.52e-01,4.80e+00,
175,3.12e+01,3.52e-01,4.80e+00,
176,3.08e+01,3.52e-01,5.20e+00,
177,3.08e+01,3.52e-01,5.20e+00,
178,3.12e+01,3.44e-01,5.20e+00,
179,3.12e+01,3.44e-01,5.20e+00,
180,3.08e+01,3.52e-01,6.00e+00,
181,3.08e+01,3.52e-01,6.00e+00,
182,3.08e+01,3.52e-01,6.40e+00,
183,3.08e+01,3.52e-01,6.40e+00,
184,3.12e+01,3.52e-01,6.40e+00,
185,3.12e+01,3.52e-01,6.40e+00,
186,3.12e+01,3.44e-01,6.80e+00,
187,3.12e+01,3.44e-01,6.80e+00,
188,3.12e+01,3.44e-01,7.20e+00,
189,3.12e+01,3.44e-01,7.20e+00,
190,3.12e+01,3.44e-01,8.40e+00,
191,3.12e+01,3.44e-01,8.40e+00,
192,3.08e+01,3.52e-01,8.40e+00,
193,3.08e+01,3.52e-01,8.40e+00,
194,3.12e+01,3.44e-01,8.80e+00,
195,3.12e+01,3.44e-01,8.80e+00,
196,3.08e+01,3.52e-01,9.20e+00,
197,3.08e+01,3.52e-01,9.20e+00,
198,3.08e+01,3.44e-01,1.08e+01,
199,3.08e+01,3.44e-01,1.08e+01,
200,3.12e+01,3.52e-01,1.16e+01,
201,3.12e+01,3.52e-01,1.16e+01,
202,3.12e+01,3.52e-01,1.28e+01,
203,3.12e+01,3.52e-01,1.28e+01,
204,3.08e+01,3.52e-01,1.32e+01,
205,3.08e+01,3.52e-01,1.32e+01,
206,3.12e+01,3.36e-01,1.44e+01,
207,3.12e+01,3.36e-01,1.44e+01,
208,3.08e+01,3.36e-01,1.56e+01,
209,3.08e+01,3.36e-01,1.56e+01,
210,3.12e+01,3.36e-01,1.68e+01,
211,3.12e+01,3.36e-01,1.68e+01,
212,3.08e+01,3.44e-01,1.84e+01,
213,3.08e+01,3.44e-01,1.84e+01,
214,3.08e+01,3.44e-01,2.00e+01,
215,3.08e+01,3.44e-01,2.00e+01,
216,3.12e+01,3.12e-01,2.28e+01,
217,3.12e+01,3.12e-01,2.28e+01,
218,3.16e+01,2.72e-01,2.64e+01,
219,3.16e+01,2.72e-01,2.64e+01,
220,3.16e+01,2.40e-01,3.20e+01,
221,3.16e+01,2.40e-01,3.20e+01,
222,3.28e+01,8.80e-02,3.72e+01,
223,3.28e+01,8.80e-02,3.72e+01,
224,3.56e+01,-2.16e-01,4.08e+01,
225,3.56e+01,-2.16e-01,4.08e+01,
226,3.60e+01,-4.32e-01,4.28e+01,
227,3.60e+01,-4.32e-01,4.28e+01,
228,3.60e+01,-5.36e-01,4.32e+01,
229,3.60e+01,-5.36e-01,4.32e+01,
230,3.60e+01,-6.00e-01,4.36e+01,
231,3.60e+01,-6.00e-01,4.36e+01,
232,3.64e+01,-6.08e-01,4.28e+01,
233,3.64e+01,-6.08e-01,4.28e+01,
234,3.56e+01,-5.84e-01,4.20e+01,
235,3.56e+01,-5.84e-01,4.20e+01,
236,3.52e+01,-5.04e-01,3.96e+01,
237,3.52e+01,-5.04e-01,3.96e+01,
238,3.40e+01,-2.96e-01,3.68e+01,
239,3.40e+01,-2.96e-01,3.68e+01,
240,3.24e+01,-8.00e-03,3.16e+01,
241,3.24e+01,-8.00e-03,3.16e+01,
242,3.12e+01,2.16e-01,2.96e+01,
243,3.12e+01,2.16e-01,2.96e+01,
244,3.16e+01,2.24e-01,3.12e+01,
245,3.16e+01,2.24e-01,3.12e+01,
246,3.36e+01,4.00e-02,3.48e+01,
247,3.36e+01,4.00e-02,3.48e+01,
248,3.52e+01,-2.16e-01,3.84e+01,
249,3.52e+01,-2.16e-01,3.84e+01,
250,3.60e+01,-3.12e-01,3.92e+01,
251,3.60e+01,-3.12e-01,3.92e+01,
252,3.48e+01,-1.68e-01,3.56e+01,
253,3.48e+01,-1.68e-01,3.56e+01,
254,3.28e+01,7.20e-02,3.24e+01,
255,3.28e+01,7.20e-02,3.24e+01,
256,3.24e+01,2.08e-01,3.12e+01,
257,3.24e+01,2.08e-01,3.12e+01,
258,3.36e+01,1.44e-01,3.36e+01,
259,3.36e+01,1.44e-01,3.36e+01,
260,3.52e+01,-5.60e-02,3.72e+01,
261,3.52e+01,-5.60e-02,3.72e+01,
262,3.60e+01,-2.32e-01,3.92e+01,
263,3.60e+01,-2.32e-01,3.92e+01,
264,3.60e+01,-2.32e-01,3.80e+01,
265,3.60e+01,-2.32e-01,3.80e+01,
266,3.40e+01,-5.60e-02,3.48e+01,
267,3.40e+01,-5.60e-02,3.48e+01,
268,3.36e+01,1.20e-01,3.24e+01,
269,3.36e+01,1.20e-01,3.24e+01,
270,3.36e+01,1.60e-01,3.32e+01,
271,3.36e+01,1.60e-01,3.32e+01,
272,3.48e+01,5.60e-02,3.56e+01,
273,3.48e+01,5.60e-02,3.56e+01,
274,3.60e+01,-1.36e-01,3.88e+01,
275,3.60e+01,-1.36e-01,3.88e+01,
276,3.64e+01,-2.00e-01,3.92e+01,
277,3.64e+01,-2.00e-01,3.92e+01,
278,3.60e+01,-1.28e-01,3.76e+01,
279,3.60e+01,-1.28e-01,3.76e+01,
280,3.48e+01,2.40e-02,3.44e+01,
281,3.48e+01,2.40e-02,3.44e+01,
282,3.40e+01,1.20e-01,3.36e+01,
283,3.40e+01,1.20e-01,3.36e+01,
284,3.52e+01,9.60e-02,3.48e+01,
285,3.52e+01,9.60e-02,3.48e+01,
286,3.60e+01,-4.00e-02,3.72e+01,
287,3.60e+01,-4.00e-02,3.72e+01,
288,3.72e+01,-1.52e-01,3.92e+01,
289,3.72e+01,-1.52e-01,3.92e+01,
290,3.64e+01,-1.60e-01,3.84e+01,
291,3.64e+01,-1.60e-01,3.84e+01,
292,3.60e+01,-4.80e-02,3.60e+01,
293,3.60e+01,-4.80e-02,3.60e+01,
294,3.52e+01,7.20e-02,3.48e+01,
295,3.52e+01,7.20e-02,3.48e+01,
296,3.52e+01,9.60e-02,3.48e+01,
297,3.52e+01,9.60e-02,3.48e+01,
298,3.60e+01,2.40e-02,3.68e+01,
299,3.60e+01,2.40e-02,3.68e+01,
300,3.72e+01,-8.80e-02,3.84e+01,
301,3.72e+01,-8.80e-02,3.84e+01,
302,3.72e+01,-1.52e-01,3.92e+01,
303,3.72e+01,-1.52e-01,3.92e+01,
304,3.68e+01,-9.60e-02,3.72e+01,
305,3.68e+01,-9.60e-02,3.72e+01,
306,3.60e+01,8.00e-03,3.60e+01,
307,3.60e+01,8.00e-03,3.60e+01,
308,3.56e+01,7.20e-02,3.48e+01,
309,3.56e+01,7.20e-02,3.48e+01,
310,3.60e+01,4.80e-02,3.64e+01,
311,3.60e+01,4.80e-02,3.64e+01,
312,3.68e+01,-4.00e-02,3.80e+01,
313,3.68e+01,-4.00e-02,3.80e+01,
314,3.72e+01,-1.12e-01,3.84e+01,
315,3.72e+01,-1.12e-01,3.84e+01,
316,3.72e+01,-1.12e-01,3.76e+01,
317,3.72e+01,-1.12e-01,3.76e+01,
318,3.64e+01,-3.20e-02,3.68e+01,
319,3.64e+01,-3.20e-02,3.68e+01,
320,3.56e+01,3.20e-02,3.56e+01,
321,3.56e+01,3.20e-02,3.56e+01,
322,3.60e+01,6.40e-02,3.60e+01,
323,3.60e+01,6.40e-02,3.60e+01,
324,3.64e+01,0.00e+00,3.72e+01,
325,3.64e+01,0.00e+00,3.72e+01,
326,3.72e+01,-7.20e-02,3.80e+01,
327,3.72e+01,-7.20e-02,3.80e+01,
328,3.72e+01,-9.60e-02,3.80e+01,
329,3.72e+01,-9.60e-02,3.80e+01,
330,3.68e+01,-6.40e-02,3.76e+01,
331,3.68e+01,-6.40e-02,3.76e+01,
332,3.60e+01,0.00e+00,3.60e+01,
333,3.60e+01,0.00e+00,3.60e+01,
334,3.60e+01,4.80e-02,3.60e+01,
335,3.60e+01,4.80e-02,3.60e+01,
336,3.68e+01,2.40e-02,3.68e+01,
337,3.68e+01,2.40e-02,3.68e+01,
338,3.64e+01,-4.00e-02,3.72e+01,
339,3.64e+01,-4.00e-02,3.72e+01,
340,3.72e+01,-8.80e-02,3.80e+01,
341,3.72e+01,-8.80e-02,3.80e+01,
342,3.64e+01,-7.20e-02,3.76e+01,
343,3.64e+01,-7.20e-02,3.76e+01,
344,3.64e+01,-2.40e-02,3.68e+01,
345,3.64e+01,-2.40e-02,3.68e+01,
346,3.60e+01,2.40e-02,3.60e+01,
347,3.60e+01,2.40e-02,3.60e+01,
348,3.60e+01,2.40e-02,3.60e+01,
349,3.60e+01,2.40e-02,3.60e+01,
350,3.60e+01,0.00e+00,3.68e+01,
351,3.60e+01,0.00e+00,3.68e+01,
352,3.68e+01,-4.80e-02,3.72e+01,
353,3.68e+01,-4.80e-02,3.72e+01,
354,3.64e+01,-7.20e-02,3.72e+01,
355,3.64e+01,-7.20e-02,3.72e+01,
356,3.60e+01,-4.80e-02,3.68e+01,
357,3.60e+01,-4.80e-02,3.68e+01,
358,3.60e+01,0.00e+00,3.52e+01,
359,3.60e+01,0.00e+00,3.52e+01,
360,3.60e+01,0.00e+00,3.56e+01,
361,3.60e+01,0.00e+00,3.56e+01,
362,3.96e+01,-3.44e-01,3.20e+01,
363,3.96e+01,-3.44e-01,3.20e+01,
364,3.92e+01,-3.04e-01,2.56e+01,
365,3.92e+01,-3.04e-01,2.56e+01,
366,3.40e+01,1.44e-01,2.00e+01,
367,3.40e+01,1.44e-01,2.00e+01,
368,3.80e+01,1.60e-02,1.52e+01,
369,3.80e+01,1.60e-02,1.52e+01,
370,3.72e+01,7.20e-02,1.36e+01,
371,3.72e+01,7.20e-02,1.36e+01,
372,3.60e+01,1.68e-01,1.24e+01,
373,3.60e+01,1.68e-01,1.24e+01,
374,3.72e+01,1.36e-01,1.32e+01,
375,3.72e+01,1.36e-01,1.32e+01,
376,3.64e+01,1.44e-01,1.44e+01,
377,3.64e+01,1.44e-01,1.44e+01,
378,3.64e+01,1.20e-01,1.76e+01,
379,3.64e+01,1.20e-01,1.76e+01,
380,3.72e+01,6.40e-02,2.28e+01,
381,3.72e+01,6.40e-02,2.28e+01,
382,3.64e+01,8.00e-03,3.00e+01,
383,3.64e+01,8.00e-03,3.00e+01,
384,3.72e+01,-7.20e-02,3.68e+01,
385,3.72e+01,-7.20e-02,3.68e+01,
386,3.76e+01,-2.16e-01,4.24e+01,
387,3.76e+01,-2.16e-01,4.24e+01,
388,3.88e+01,-3.92e-01,4.28e+01,
389,3.88e+01,-3.92e-01,4.28e+01,
390,3.72e+01,-2.24e-01,3.80e+01,
391,3.72e+01,-2.24e-01,3.80e+01,
392,3.44e+01,1.20e-01,3.32e+01,
393,3.44e+01,1.20e-01,3.32e+01,
394,3.32e+01,2.72e-01,3.12e+01,
395,3.32e+01,2.72e-01,3.12e+01,
396,3.52e+01,2.16e-01,3.44e+01,
397,3.52e+01,2.16e-01,3.44e+01,
398,3.68e+01,-5.60e-02,3.84e+01,
399,3.68e+01,-5.60e-02,3.84e+01,
400,3.84e+01,-2.72e-01,4.12e+01,
401,3.84e+01,-2.72e-01,4.12e+01,
402,3.76e+01,-2.64e-01,3.92e+01,
403,3.76e+01,-2.64e-01,3.92e+01,
404,3.60e+01,-4.00e-02,3.48e+01,
405,3.60e+01,-4.00e-02,3.48e+01,
406,3.48e+01,1.36e-01,3.20e+01,
407,3.48e+01,1.36e-01,3.20e+01,
408,4.00e+01,-3.60e-01,2.64e+01,
409,4.00e+01,-3.60e-01,2.64e+01,
410,3.48e+01,2.16e-01,2.44e+01,
411,3.48e+01,2.16e-01,2.44e+01,
412,3.72e+01,-1.20e-01,2.04e+01,
413,3.72e+01,-1.20e-01,2.04e+01,
414,3.64e+01,1.92e-01,2.04e+01,
415,3.64e+01,1.92e-01,2.04e+01,
416,3.72e+01,-2.40e-02,1.92e+01,
417,3.72e+01,-2.40e-02,1.92e+01,
418,3.60e+01,1.84e-01,2.08e+01,
419,3.60e+01,1.84e-01,2.08e+01,
420,3.72e+01,-2.40e-02,2.24e+01,
421,3.72e+01,-2.40e-02,2.24e+01,
422,3.64e+01,1.04e-01,2.64e+01,
423,3.64e+01,1.04e-01,2.64e+01,
424,3.72e+01,-6.40e-02,3.00e+01,
425,3.72e+01,-6.40e-02,3.00e+01,
426,3.64e+01,0.00e+00,3.40e+01,
427,3.64e+01,0.00e+00,3.40e+01,
428,3.64e+01,-1.04e-01,3.76e+01,
429,3.64e+01,-1.04e-01,3.76e+01,
430,3.80e+01,-1.44e-01,3.96e+01,
431,3.80e+01,-1.44e-01,3.96e+01,
432,3.72e+01,-1.68e-01,3.84e+01,
433,3.72e+01,-1.68e-01,3.84e+01,
434,3.64e+01,-5.60e-02,3.60e+01,
435,3.64e+01,-5.60e-02,3.60e+01,
436,3.52e+01,9.60e-02,3.40e+01,
437,3.52e+01,9.60e-02,3.40e+01,
438,3.52e+01,9.60e-02,3.44e+01,
439,3.52e+01,9.60e-02,3.44e+01,
440,3.92e+01,-2.00e-01,3.28e+01,
441,3.92e+01,-2.00e-01,3.28e+01,
442,3.84e+01,-1.04e-01,3.20e+01,
443,3.84e+01,-1.04e-01,3.20e+01,
444,3.24e+01,2.16e-01,2.80e+01,
445,3.24e+01,2.16e-01,2.80e+01,
446,4.12e+01,-2.40e-01,2.56e+01,
447,4.12e+01,-2.40e-01,2.56e+01,
448,3.36e+01,2.48e-01,2.36e+01,
449,3.36e+01,2.48e-01,2.36e+01,
450,3.92e+01,-1.44e-01,2.32e+01,
451,3.92e+01,-1.44e-01,2.32e+01,
452,3.48e+01,1.92e-01,2.36e+01,
453,3.48e+01,1.92e-01,2.36e+01,
454,3.92e+01,-9.60e-02,2.44e+01,
455,3.92e+01,-9.60e-02,2.44e+01,
456,3.48e+01,1.44e-01,2.64e+01,
457,3.48e+01,1.44e-01,2.64e+01,
458,3.84e+01,-1.20e-01,2.88e+01,
459,3.84e+01,-1.20e-01,2.88e+01,
460,3.52e+01,8.80e-02,3.12e+01,
461,3.52e+01,8.80e-02,3.12e+01,
462,3.76e+01,-1.44e-01,3.36e+01,
463,3.76e+01,-1.44e-01,3.36e+01,
464,3.56e+01,2.40e-02,3.60e+01,
465,3.56e+01,2.40e-02,3.60e+01,
466,3.72e+01,-1.44e-01,3.68e+01,
467,3.72e+01,-1.44e-01,3.68e+01,
468,3.64e+01,-2.40e-02,3.64e+01,
469,3.64e+01,-2.40e-02,3.64e+01,
470,3.64e+01,-1.04e-01,3.60e+01,
471,3.64e+01,-1.04e-01,3.60e+01,
472,3.68e+01,-5.60e-02,3.36e+01,
473,3.68e+01,-5.60e-02,3.36e+01,
474,3.64e+01,-5.60e-02,3.20e+01,
475,3.64e+01,-5.60e-02,3.20e+01,
476,3.68e+01,-2.40e-02,2.88e+01,
477,3.68e+01,-2.40e-02,2.88e+01,
478,3.64e+01,0.00e+00,2.68e+01,
479,3.64e+01,0.00e+00,2.68e+01,
480,3.68e+01,0.00e+00,2.52e+01,
481,3.68e+01,0.00e+00,2.52e+01,
482,3.64e+01,4.80e-02,2.44e+01,
483,3.64e+01,4.80e-02,2.44e+01,
484,3.64e+01,1.60e-02,2.44e+01,
485,3.64e+01,1.60e-02,2.44e+01,
486,3.72e+01,6.40e-02,2.52e+01,
487,3.72e+01,6.40e-02,2.52e+01,
488,3.68e+01,1.60e-02,2.64e+01,
489,3.68e+01,1.60e-02,2.64e+01,
490,3.72e+01,4.00e-02,2.80e+01,
491,3.72e+01,4.00e-02,2.80e+01,
492,3.64e+01,-2.40e-02,3.08e+01,
493,3.64e+01,-2.40e-02,3.08e+01,
494,3.72e+01,-1.60e-02,3.28e+01,
495,3.72e+01,-1.60e-02,3.28e+01,
496,3.64e+01,-5.60e-02,3.44e+01,
497,3.64e+01,-5.60e-02,3.44e+01,
498,3.64e+01,-4.80e-02,3.52e+01,
499,3.64e+01,-4.80e-02,3.52e+01,
500,3.64e+01,-7.20e-02,3.60e+01,
501,3.64e+01,-7.20e-02,3.60e+01,
502,3.64e+01,-7.20e-02,3.56e+01,
503,3.64e+01,-7.20e-02,3.56e+01,
504,3.72e+01,-6.40e-02,3.36e+01,
505,3.72e+01,-6.40e-02,3.36e+01,
506,3.68e+01,-5.60e-02,3.16e+01,
507,3.68e+01,-5.60e-02,3.16e+01,
508,3.68e+01,-2.40e-02,3.00e+01,
509,3.68e+01,-2.40e-02,3.00e+01,
510,3.64e+01,-2.40e-02,2.80e+01,
511,3.64e+01,-2.40e-02,2.80e+01,
512,3.64e+01,2.40e-02,2.64e+01,
513,3.64e+01,2.40e-02,2.64e+01,
514,3.64e+01,8.00e-03,2.48e+01,
515,3.64e+01,8.00e-03,2.48e+01,
516,3.64e+01,4.00e-02,2.48e+01,
517,3.64e+01,4.00e-02,2.48e+01,
518,3.64e+01,2.40e-02,2.56e+01,
519,3.64e+01,2.40e-02,2.56e+01,
520,3.68e+01,4.00e-02,2.60e+01,
521,3.68e+01,4.00e-02,2.60e+01,
522,3.64e+01,0.00e+00,2.80e+01,
523,3.64e+01,0.00e+00,2.80e+01,
524,3.68e+01,0.00e+00,2.96e+01,
525,3.68e+01,0.00e+00,2.96e+01,
526,3.68e+01,-2.40e-02,3.16e+01,
527,3.68e+01,-2.40e-02,3.16e+01,
528,3.68e+01,-3.20e-02,3.36e+01,
529,3.68e+01,-3.20e-02,3.36e+01,
530,3.64e+01,-4.80e-02,3.48e+01,
531,3.64e+01,-4.80e-02,3.48e+01,
532,3.68e+01,-6.40e-02,3.48e+01,
533,3.68e+01,-6.40e-02,3.48e+01,
534,3.68e+01,-5.60e-02,3.48e+01,
535,3.68e+01,-5.60e-02,3.48e+01,
536,3.64e+01,-6.40e-02,3.36e+01,
537,3.64e+01,-6.40e-02,3.36e+01,
538,3.64e+01,-4.80e-02,3.24e+01,
539,3.64e+01,-4.80e-02,3.24e+01,
540,3.64e+01,-4.00e-02,3.00e+01,
541,3.64e+01,-4.00e-02,3.00e+01,
542,3.64e+01,-1.60e-02,2.88e+01,
543,3.64e+01,-1.60e-02,2.88e+01,
544,3.68e+01,0.00e+00,2.68e+01,
545,3.68e+01,0.00e+00,2.68e+01,
546,3.64e+01,1.60e-02,2.64e+01,
547,3.64e+01,1.60e-02,2.64e+01,
548,3.64e+01,2.40e-02,2.56e+01,
549,3.64e+01,2.40e-02,2.56e+01,
550,3.64e+01,2.40e-02,2.56e+01,
551,3.64e+01,2.40e-02,2.56e+01,
552,3.64e+01,2.40e-02,2.72e+01,
553,3.64e+01,2.40e-02,2.72e+01,
554,3.68e+01,1.60e-02,2.84e+01,
555,3.68e+01,1.60e-02,2.84e+01,
556,3.68e+01,0.00e+00,2.96e+01,
557,3.68e+01,0.00e+00,2.96e+01,
558,3.68e+01,-8.00e-03,3.12e+01,
559,3.68e+01,-8.00e-03,3.12e+01,
560,3.64e+01,-3.20e-02,3.24e+01,
561,3.64e+01,-3.20e-02,3.24e+01,
562,3.68e+01,-4.80e-02,3.36e+01,
563,3.68e+01,-4.80e-02,3.36e+01,
564,3.68e+01,-4.80e-02,3.40e+01,
565,3.68e+01,-4.80e-02,3.40e+01,
566,3.68e+01,-4.80e-02,3.40e+01,
567,3.68e+01,-4.80e-02,3.40e+01,
568,3.68e+01,-4.80e-02,3.32e+01,
569,3.68e+01,-4.80e-02,3.32e+01,
570,3.68e+01,-4.80e-02,3.20e+01,
571,3.68e+01,-4.80e-02,3.20e+01,
572,3.64e+01,-3.20e-02,3.04e+01,
573,3.64e+01,-3.20e-02,3.04e+01,
574,3.68e+01,-2.40e-02,2.92e+01,
575,3.68e+01,-2.40e-02,2.92e+01,
576,3.64e+01,0.00e+00,2.76e+01,
577,3.64e+01,0.00e+00,2.76e+01,
578,3.64e+01,0.00e+00,2.68e+01,
579,3.64e+01,0.00e+00,2.68e+01,
580,3.64e+01,8.00e-03,2.60e+01,
581,3.64e+01,8.00e-03,2.60e+01,
582,3.64e+01,1.60e-02,2.60e+01,
583,3.64e+01,1.60e-02,2.60e+01,
584,3.64e+01,2.40e-02,2.68e+01,
585,3.64e+01,2.40e-02,2.68e+01,
586,3.64e+01,8.00e-03,2.80e+01,
587,3.64e+01,8.00e-03,2.80e+01,
588,3.64e+01,0.00e+00,2.92e+01,
589,3.64e+01,0.00e+00,2.92e+01,
590,3.64e+01,-8.00e-03,3.08e+01,
591,3.64e+01,-8.00e-03,3.08e+01,
592,3.64e+01,-2.40e-02,3.20e+01,
593,3.64e+01,-2.40e-02,3.20e+01,
594,3.64e+01,-4.00e-02,3.32e+01,
595,3.64e+01,-4.00e-02,3.32e+01,
596,3.64e+01,-4.80e-02,3.36e+01,
597,3.64e+01,-4.80e-02,3.36e+01,
598,3.64e+01,-4.80e-02,3.36e+01,
599,3.64e+01,-4.80e-02,3.36e+01,
600,3.64e+01,-4.80e-02,3.32e+01,
601,3.64e+01,-4.80e-02,3.32e+01,
602,3.64e+01,-4.80e-02,3.24e+01,
603,3.64e+01,-4.80e-02,3.24e+01,
604,3.64e+01,-4.00e-02,3.12e+01,
605,3.64e+01,-4.00e-02,3.12e+01,
606,3.68e+01,-2.40e-02,2.92e+01,
607,3.68e+01,-2.40e-02,2.92e+01,
608,3.64e+01,-8.00e-03,2.80e+01,
609,3.64e+01,-8.00e-03,2.80e+01,
610,3.68e+01,0.00e+00,2.72e+01,
611,3.68e+01,0.00e+00,2.72e+01,
612,3.64e+01,8.00e-03,2.68e+01,
613,3.64e+01,8.00e-03,2.68e+01,
614,3.64e+01,8.00e-03,2.68e+01,
615,3.64e+01,8.00e-03,2.68e+01,
616,3.64e+01,1.60e-02,2.72e+01,
617,3.64e+01,1.60e-02,2.72e+01,
