lb7_data/clp8_.csv

X,CH1,CH3,CH4,Start,Increment,
Sequence,Volt,Volt,Volt,5.648000e-05,2.000000e-08
0,2.96e+01,1.44e-01,-4.00e-01,
1,3.00e+01,1.52e-01,0.00e+00,
2,3.00e+01,1.44e-01,-4.00e-01,
3,2.96e+01,1.60e-01,0.00e+00,
4,2.96e+01,1.60e-01,-4.00e-01,
5,3.00e+01,1.44e-01,0.00e+00,
6,2.96e+01,1.52e-01,0.00e+00,
7,3.00e+01,1.60e-01,-4.00e-01,
8,2.96e+01,1.60e-01,-4.00e-01,
9,3.00e+01,1.60e-01,0.00e+00,
10,2.96e+01,1.60e-01,0.00e+00,
11,3.00e+01,1.52e-01,-4.00e-01,
12,2.96e+01,1.52e-01,0.00e+00,
13,3.00e+01,1.60e-01,-4.00e-01,
14,3.00e+01,1.52e-01,-4.00e-01,
15,2.96e+01,1.60e-01,0.00e+00,
16,3.00e+01,1.52e-01,0.00e+00,
17,2.96e+01,1.76e-01,-4.00e-01,
18,3.00e+01,1.68e-01,-4.00e-01,
19,2.96e+01,1.68e-01,-4.00e-01,
20,3.00e+01,1.68e-01,-4.00e-01,
21,2.96e+01,1.68e-01,0.00e+00,
22,2.96e+01,1.68e-01,-4.00e-01,
23,3.00e+01,1.76e-01,0.00e+00,
24,3.00e+01,1.68e-01,-4.00e-01,
25,2.96e+01,1.68e-01,0.00e+00,
26,2.96e+01,1.76e-01,-4.00e-01,
27,3.00e+01,1.68e-01,0.00e+00,
28,2.96e+01,1.68e-01,-4.00e-01,
29,3.00e+01,1.84e-01,-4.00e-01,
30,2.96e+01,1.84e-01,-4.00e-01,
31,3.00e+01,1.76e-01,0.00e+00,
32,2.96e+01,1.76e-01,-4.00e-01,
33,3.00e+01,1.84e-01,0.00e+00,
34,3.00e+01,1.76e-01,0.00e+00,
35,2.96e+01,1.84e-01,-4.00e-01,
36,2.96e+01,1.84e-01,0.00e+00,
37,3.00e+01,1.76e-01,-4.00e-01,
38,3.00e+01,1.76e-01,-4.00e-01,
39,2.96e+01,1.84e-01,0.00e+00,
40,2.96e+01,1.76e-01,-4.00e-01,
41,3.00e+01,1.84e-01,0.00e+00,
42,3.00e+01,1.76e-01,-4.00e-01,
43,2.96e+01,2.00e-01,0.00e+00,
44,3.00e+01,1.92e-01,0.00e+00,
45,2.96e+01,1.92e-01,-4.00e-01,
46,2.96e+01,1.92e-01,-4.00e-01,
47,3.00e+01,2.00e-01,-4.00e-01,
48,2.96e+01,2.00e-01,-4.00e-01,
49,3.00e+01,1.92e-01,0.00e+00,
50,2.96e+01,2.00e-01,-4.00e-01,
51,3.00e+01,1.92e-01,0.00e+00,
52,3.00e+01,1.92e-01,-4.00e-01,
53,2.96e+01,2.08e-01,4.00e-01,
54,2.96e+01,2.08e-01,0.00e+00,
55,3.00e+01,2.00e-01,-4.00e-01,
56,2.96e+01,1.92e-01,0.00e+00,
57,3.00e+01,2.08e-01,-4.00e-01,
58,3.00e+01,2.00e-01,4.00e-01,
59,2.96e+01,2.08e-01,-4.00e-01,
60,2.96e+01,2.08e-01,-4.00e-01,
61,3.00e+01,2.00e-01,0.00e+00,
62,3.00e+01,2.08e-01,0.00e+00,
63,2.96e+01,2.00e-01,-4.00e-01,
64,3.00e+01,2.08e-01,-4.00e-01,
65,2.96e+01,2.00e-01,0.00e+00,
66,3.00e+01,2.00e-01,-4.00e-01,
67,2.96e+01,2.16e-01,0.00e+00,
68,2.96e+01,2.16e-01,0.00e+00,
69,3.00e+01,2.16e-01,-4.00e-01,
70,3.00e+01,2.16e-01,-4.00e-01,
71,2.96e+01,2.16e-01,0.00e+00,
72,2.96e+01,2.16e-01,4.00e-01,
73,3.00e+01,2.16e-01,-4.00e-01,
74,2.96e+01,2.16e-01,-4.00e-01,
75,3.00e+01,2.24e-01,4.00e-01,
76,3.00e+01,2.24e-01,-4.00e-01,
77,2.92e+01,2.16e-01,4.00e-01,
78,3.00e+01,2.16e-01,-4.00e-01,
79,2.96e+01,2.16e-01,4.00e-01,
80,2.96e+01,2.16e-01,-4.00e-01,
81,2.96e+01,2.32e-01,4.00e-01,
82,2.96e+01,2.24e-01,-4.00e-01,
83,2.96e+01,2.32e-01,0.00e+00,
84,2.92e+01,2.32e-01,4.00e-01,
85,2.96e+01,2.24e-01,-4.00e-01,
86,3.00e+01,2.32e-01,4.00e-01,
87,2.92e+01,2.24e-01,-4.00e-01,
88,2.96e+01,2.24e-01,-4.00e-01,
89,2.88e+01,2.32e-01,4.00e-01,
90,3.00e+01,2.32e-01,-4.00e-01,
91,2.92e+01,2.24e-01,0.00e+00,
92,3.00e+01,2.24e-01,4.00e-01,
93,2.92e+01,2.48e-01,-4.00e-01,
94,3.00e+01,2.40e-01,-4.00e-01,
95,2.92e+01,2.40e-01,4.00e-01,
96,2.88e+01,2.40e-01,-4.00e-01,
97,3.00e+01,2.40e-01,4.00e-01,
98,2.88e+01,2.40e-01,-4.00e-01,
99,3.00e+01,2.40e-01,4.00e-01,
100,3.00e+01,2.40e-01,-4.00e-01,
101,2.88e+01,2.48e-01,4.00e-01,
102,2.92e+01,2.48e-01,4.00e-01,
103,3.00e+01,2.40e-01,-4.00e-01,
104,2.88e+01,2.40e-01,-4.00e-01,
105,3.00e+01,2.56e-01,4.00e-01,
106,2.96e+01,2.56e-01,4.00e-01,
107,2.88e+01,2.40e-01,-4.00e-01,
108,2.92e+01,2.48e-01,4.00e-01,
109,2.96e+01,2.56e-01,-4.00e-01,
110,2.96e+01,2.56e-01,4.00e-01,
111,2.88e+01,2.48e-01,-4.00e-01,
112,2.88e+01,2.56e-01,4.00e-01,
113,2.96e+01,2.48e-01,-4.00e-01,
114,2.92e+01,2.56e-01,-4.00e-01,
115,2.92e+01,2.48e-01,4.00e-01,
116,2.92e+01,2.48e-01,-4.00e-01,
117,2.88e+01,2.64e-01,4.00e-01,
118,2.92e+01,2.56e-01,4.00e-01,
119,2.96e+01,2.72e-01,-4.00e-01,
120,2.92e+01,2.64e-01,4.00e-01,
121,2.88e+01,2.64e-01,-4.00e-01,
122,2.88e+01,2.64e-01,4.00e-01,
123,3.00e+01,2.72e-01,-4.00e-01,
124,2.92e+01,2.64e-01,4.00e-01,
125,2.88e+01,2.72e-01,-4.00e-01,
126,2.92e+01,2.64e-01,4.00e-01,
127,2.88e+01,2.64e-01,-4.00e-01,
128,2.92e+01,2.64e-01,-4.00e-01,
129,2.88e+01,2.64e-01,4.00e-01,
130,2.92e+01,2.64e-01,4.00e-01,
131,2.92e+01,2.80e-01,-4.00e-01,
132,2.92e+01,2.64e-01,4.00e-01,
133,2.88e+01,2.80e-01,-4.00e-01,
134,2.92e+01,2.80e-01,4.00e-01,
135,2.92e+01,2.72e-01,-4.00e-01,
136,2.88e+01,2.80e-01,4.00e-01,
137,2.92e+01,2.80e-01,-4.00e-01,
138,2.92e+01,2.72e-01,4.00e-01,
139,2.92e+01,2.80e-01,-4.00e-01,
140,2.92e+01,2.80e-01,4.00e-01,
141,2.92e+01,2.72e-01,4.00e-01,
142,2.92e+01,2.80e-01,-4.00e-01,
143,2.88e+01,2.72e-01,4.00e-01,
144,2.92e+01,2.88e-01,4.00e-01,
145,2.88e+01,2.00e-01,-4.00e-01,
146,2.88e+01,2.64e-01,4.00e-01,
147,2.92e+01,2.80e-01,-4.00e-01,
148,2.92e+01,2.80e-01,4.00e-01,
149,2.92e+01,2.72e-01,-4.00e-01,
150,2.92e+01,2.72e-01,4.00e-01,
151,2.88e+01,2.96e-01,-4.00e-01,
152,2.92e+01,2.88e-01,4.00e-01,
153,2.92e+01,2.96e-01,-4.00e-01,
154,2.92e+01,2.88e-01,4.00e-01,
155,2.88e+01,2.96e-01,1.20e+00,
156,2.92e+01,2.96e-01,1.20e+00,
157,2.88e+01,2.88e-01,3.20e+00,
158,2.92e+01,2.88e-01,3.20e+00,
159,2.92e+01,2.96e-01,5.60e+00,
160,2.92e+01,2.88e-01,6.40e+00,
161,2.88e+01,2.80e-01,1.16e+01,
162,2.92e+01,2.88e-01,1.28e+01,
163,2.96e+01,1.68e-01,3.20e+01,
164,3.40e+01,-6.00e-01,4.08e+01,
165,2.84e+01,2.64e-01,2.68e+01,
166,2.92e+01,-3.12e-01,3.68e+01,
167,3.32e+01,2.24e-01,2.80e+01,
168,3.04e+01,-2.16e-01,2.92e+01,
169,3.36e+01,1.84e-01,3.60e+01,
170,3.16e+01,1.20e-01,3.12e+01,
171,3.44e+01,-1.68e-01,3.60e+01,
172,3.20e+01,-1.20e-01,3.56e+01,
173,3.40e+01,8.80e-02,3.16e+01,
174,3.24e+01,4.80e-02,3.48e+01,
175,3.36e+01,-9.60e-02,3.20e+01,
176,3.20e+01,-7.20e-02,3.40e+01,
177,3.36e+01,4.00e-02,3.12e+01,
178,3.64e+01,-3.60e-01,2.68e+01,
179,3.16e+01,1.36e-01,1.44e+01,
180,3.48e+01,-2.56e-01,3.80e+01,
181,3.08e+01,2.08e-01,2.96e+01,
182,3.16e+01,-1.68e-01,3.36e+01,
183,3.40e+01,8.00e-02,1.96e+01,
184,3.16e+01,8.00e-02,2.76e+01,
185,3.72e+01,-4.56e-01,3.52e+01,
186,3.00e+01,2.56e-01,2.16e+01,
187,3.52e+01,-2.64e-01,2.96e+01,
188,3.40e+01,-8.80e-02,3.36e+01,
189,3.28e+01,3.20e-02,2.40e+01,
190,3.28e+01,3.20e-02,2.36e+01,
191,3.36e+01,-5.60e-02,3.24e+01,
192,3.36e+01,-4.80e-02,3.20e+01,
193,3.28e+01,2.40e-02,2.40e+01,
194,3.36e+01,1.60e-02,2.68e+01,
195,3.28e+01,-4.80e-02,3.16e+01,
196,3.28e+01,2.40e-02,2.48e+01,
197,3.36e+01,-2.40e-02,3.00e+01,
198,3.28e+01,-4.00e-02,3.12e+01,
199,3.36e+01,1.60e-02,2.56e+01,
200,3.28e+01,1.60e-02,2.52e+01,
201,3.36e+01,-4.00e-02,3.12e+01,
202,3.28e+01,-4.00e-02,3.04e+01,
203,3.36e+01,1.60e-02,2.56e+01,
204,3.28e+01,0.00e+00,2.76e+01,
205,3.32e+01,-4.00e-02,3.08e+01,
206,3.28e+01,1.60e-02,2.60e+01,
207,3.36e+01,-2.40e-02,2.92e+01,
208,3.28e+01,-3.20e-02,3.00e+01,
209,3.36e+01,0.00e+00,2.64e+01,
210,3.28e+01,0.00e+00,2.60e+01,
211,3.32e+01,-2.40e-02,2.96e+01,
212,3.28e+01,-2.40e-02,2.92e+01,
213,3.28e+01,8.00e-03,2.68e+01,
214,3.28e+01,-8.00e-03,2.80e+01,
215,3.32e+01,-2.40e-02,2.96e+01,
216,3.28e+01,-1.60e-02,2.68e+01,
217,3.32e+01,0.00e+00,2.88e+01,
218,3.28e+01,-2.40e-02,2.96e+01,
219,3.32e+01,0.00e+00,2.68e+01,
220,3.28e+01,0.00e+00,2.72e+01,
221,3.36e+01,-2.40e-02,2.96e+01,
222,3.28e+01,-2.40e-02,2.88e+01,
223,3.36e+01,0.00e+00,2.72e+01,
224,3.28e+01,-8.00e-03,2.80e+01,
225,3.36e+01,-2.40e-02,2.92e+01,
226,3.28e+01,-1.60e-02,2.72e+01,
227,3.32e+01,0.00e+00,2.88e+01,
228,3.28e+01,-1.60e-02,2.88e+01,
229,3.32e+01,0.00e+00,2.76e+01,
230,3.28e+01,0.00e+00,2.72e+01,
231,3.28e+01,-1.60e-02,2.88e+01,
232,3.28e+01,-1.60e-02,2.88e+01,
233,3.28e+01,0.00e+00,2.72e+01,
234,3.28e+01,-1.60e-02,2.80e+01,
235,3.28e+01,-8.00e-03,2.88e+01,
236,3.28e+01,-1.60e-02,2.72e+01,
237,3.32e+01,0.00e+00,2.88e+01,
238,3.28e+01,-8.00e-03,2.88e+01,
239,3.28e+01,-1.60e-02,2.72e+01,
240,3.28e+01,-8.00e-03,2.80e+01,
241,3.28e+01,-8.00e-03,2.88e+01,
242,3.28e+01,-1.60e-02,2.80e+01,
243,3.32e+01,-8.00e-03,2.80e+01,
244,3.28e+01,-1.60e-02,2.88e+01,
245,3.28e+01,-8.00e-03,2.80e+01,
246,3.28e+01,-1.60e-02,2.84e+01,
247,3.32e+01,-8.00e-03,2.80e+01,
248,3.28e+01,-8.00e-03,2.88e+01,
249,3.28e+01,-1.60e-02,2.80e+01,
250,3.28e+01,-8.00e-03,2.80e+01,
251,3.28e+01,-1.60e-02,2.84e+01,
252,3.32e+01,-1.60e-02,2.80e+01,
253,3.28e+01,-8.00e-03,2.84e+01,
254,3.32e+01,-8.00e-03,2.80e+01,
255,3.28e+01,-1.60e-02,2.84e+01,
256,3.28e+01,-1.60e-02,2.80e+01,
257,3.32e+01,-8.00e-03,2.84e+01,
258,3.28e+01,-1.60e-02,2.88e+01,
259,3.28e+01,-8.00e-03,2.80e+01,
260,3.28e+01,-8.00e-03,2.80e+01,
261,3.32e+01,-1.60e-02,2.84e+01,
262,3.28e+01,-8.00e-03,2.84e+01,
263,3.32e+01,-1.60e-02,2.80e+01,
264,3.28e+01,-8.00e-03,2.80e+01,
265,3.32e+01,-1.60e-02,2.84e+01,
266,3.28e+01,-1.60e-02,2.80e+01,
267,3.32e+01,-8.00e-03,2.88e+01,
268,3.28e+01,-8.00e-03,2.84e+01,
269,3.28e+01,-1.60e-02,2.80e+01,
270,3.32e+01,-1.60e-02,2.84e+01,
271,3.28e+01,-8.00e-03,2.80e+01,
272,3.28e+01,-8.00e-03,2.80e+01,
273,3.28e+01,-1.60e-02,2.84e+01,
274,3.28e+01,-1.60e-02,2.80e+01,
275,3.32e+01,0.00e+00,2.88e+01,
276,3.32e+01,-8.00e-03,2.80e+01,
277,3.28e+01,-1.60e-02,2.80e+01,
278,3.32e+01,-1.60e-02,2.80e+01,
279,3.28e+01,-8.00e-03,2.80e+01,
280,3.28e+01,-8.00e-03,2.80e+01,
281,3.32e+01,-1.60e-02,2.80e+01,
282,3.28e+01,-1.60e-02,2.80e+01,
283,3.28e+01,0.00e+00,2.80e+01,
284,3.28e+01,-8.00e-03,2.80e+01,
285,3.28e+01,-1.60e-02,2.80e+01,
286,3.28e+01,-8.00e-03,2.80e+01,
287,3.28e+01,-1.60e-02,2.80e+01,
288,3.28e+01,-8.00e-03,2.80e+01,
289,3.28e+01,-1.60e-02,2.84e+01,
290,3.28e+01,-1.60e-02,2.80e+01,
291,3.28e+01,-8.00e-03,2.80e+01,
292,3.28e+01,-8.00e-03,2.80e+01,
293,3.28e+01,-1.60e-02,2.80e+01,
294,3.28e+01,-8.00e-03,2.80e+01,
295,3.28e+01,-1.60e-02,2.80e+01,
296,3.28e+01,-8.00e-03,2.80e+01,
297,3.32e+01,-1.60e-02,2.80e+01,
298,3.28e+01,-8.00e-03,2.80e+01,
299,3.28e+01,-1.60e-02,2.80e+01,
300,3.28e+01,-1.60e-02,2.84e+01,
301,3.28e+01,-8.00e-03,2.80e+01,
302,3.28e+01,-1.60e-02,2.84e+01,
303,3.28e+01,-8.00e-03,2.80e+01,
304,3.28e+01,-1.60e-02,2.80e+01,
305,3.28e+01,-8.00e-03,2.88e+01,
306,3.28e+01,-8.00e-03,2.88e+01,
307,3.28e+01,-1.60e-02,2.80e+01,
308,3.32e+01,-8.00e-03,2.80e+01,
309,3.28e+01,-1.60e-02,2.80e+01,
310,3.32e+01,-1.60e-02,2.84e+01,
311,3.28e+01,-8.00e-03,2.80e+01,
312,3.28e+01,-8.00e-03,2.80e+01,
313,3.32e+01,-1.60e-02,2.88e+01,
314,3.28e+01,-1.60e-02,2.80e+01,
315,3.28e+01,0.00e+00,2.88e+01,
316,3.28e+01,-1.60e-02,2.80e+01,
317,3.20e+01,-8.00e-03,2.88e+01,
318,3.28e+01,-8.00e-03,2.80e+01,
319,3.28e+01,0.00e+00,2.88e+01,
320,3.20e+01,0.00e+00,2.80e+01,
321,3.32e+01,-1.60e-02,2.88e+01,
322,3.32e+01,-1.60e-02,2.80e+01,
323,3.24e+01,-8.00e-03,2.84e+01,
324,3.28e+01,-8.00e-03,2.84e+01,
325,3.20e+01,-1.60e-02,2.80e+01,
326,3.28e+01,-8.00e-03,2.80e+01,
327,3.20e+01,-1.60e-02,2.88e+01,
328,3.28e+01,-1.60e-02,2.88e+01,
329,3.20e+01,0.00e+00,2.80e+01,
330,3.28e+01,-1.60e-02,2.80e+01,
331,3.20e+01,0.00e+00,2.88e+01,
332,3.24e+01,-1.60e-02,2.80e+01,
333,3.32e+01,-8.00e-03,2.88e+01,
334,3.24e+01,-1.60e-02,2.80e+01,
335,3.32e+01,-8.00e-03,2.88e+01,
336,3.20e+01,0.00e+00,2.80e+01,
337,3.28e+01,-1.60e-02,2.88e+01,
338,3.28e+01,-1.60e-02,2.80e+01,
339,3.20e+01,0.00e+00,2.84e+01,
340,3.20e+01,-1.60e-02,2.88e+01,
341,3.28e+01,-8.00e-03,2.80e+01,
342,3.20e+01,-8.00e-03,2.80e+01,
343,3.28e+01,-1.60e-02,2.88e+01,
344,3.28e+01,-1.60e-02,2.80e+01,
345,3.20e+01,0.00e+00,2.88e+01,
346,3.20e+01,-1.60e-02,2.88e+01,
347,3.28e+01,-8.00e-03,2.80e+01,
348,3.20e+01,-8.00e-03,2.80e+01,
349,3.28e+01,-1.60e-02,2.88e+01,
350,3.20e+01,-1.60e-02,2.88e+01,
351,3.28e+01,-8.00e-03,2.80e+01,
352,3.20e+01,0.00e+00,2.88e+01,
353,3.24e+01,-1.60e-02,2.80e+01,
354,3.20e+01,-1.60e-02,2.80e+01,
355,3.28e+01,-8.00e-03,2.88e+01,
356,3.20e+01,-1.60e-02,2.88e+01,
357,3.32e+01,-8.00e-03,2.80e+01,
358,3.24e+01,0.00e+00,2.80e+01,
359,3.20e+01,-1.60e-02,2.88e+01,
360,3.24e+01,0.00e+00,2.88e+01,
361,3.20e+01,-1.60e-02,2.80e+01,
362,3.20e+01,0.00e+00,2.88e+01,
363,3.28e+01,-1.60e-02,2.80e+01,
364,3.24e+01,-8.00e-03,2.88e+01,
365,3.20e+01,-1.60e-02,2.80e+01,
366,3.20e+01,-1.60e-02,2.88e+01,
367,3.28e+01,0.00e+00,2.80e+01,
368,3.24e+01,-1.60e-02,2.88e+01,
369,3.20e+01,8.00e-03,2.80e+01,
370,3.20e+01,0.00e+00,2.80e+01,
371,3.24e+01,-1.60e-02,2.88e+01,
372,3.24e+01,0.00e+00,2.88e+01,
373,3.20e+01,-1.60e-02,2.80e+01,
374,3.24e+01,-1.60e-02,2.80e+01,
375,3.20e+01,0.00e+00,2.88e+01,
376,3.24e+01,0.00e+00,2.88e+01,
377,3.20e+01,-1.60e-02,2.80e+01,
378,3.20e+01,-1.60e-02,2.88e+01,
379,3.24e+01,0.00e+00,2.80e+01,
380,3.24e+01,-1.60e-02,2.88e+01,
381,3.20e+01,0.00e+00,2.80e+01,
382,3.24e+01,-1.60e-02,2.80e+01,
383,3.20e+01,0.00e+00,2.88e+01,
384,3.24e+01,-8.00e-03,2.88e+01,
385,3.20e+01,-1.60e-02,2.80e+01,
386,3.24e+01,-8.00e-03,2.88e+01,
387,3.20e+01,-1.60e-02,2.80e+01,
388,3.20e+01,-1.60e-02,2.80e+01,
389,3.24e+01,0.00e+00,2.88e+01,
390,3.20e+01,-1.60e-02,2.88e+01,
391,3.24e+01,0.00e+00,2.80e+01,
392,3.24e+01,-1.60e-02,2.88e+01,
393,3.20e+01,0.00e+00,2.80e+01,
394,3.24e+01,0.00e+00,2.88e+01,
395,3.20e+01,-1.60e-02,2.80e+01,
396,3.20e+01,-1.60e-02,2.80e+01,
397,3.24e+01,0.00e+00,2.88e+01,
398,3.24e+01,0.00e+00,2.88e+01,
399,3.20e+01,-1.60e-02,2.80e+01,
400,3.24e+01,0.00e+00,2.88e+01,
401,3.20e+01,-1.60e-02,2.80e+01,
402,3.24e+01,8.00e-03,2.88e+01,
403,3.20e+01,-1.60e-02,2.80e+01,
404,3.20e+01,-1.60e-02,2.88e+01,
405,3.24e+01,0.00e+00,2.80e+01,
406,3.24e+01,0.00e+00,2.80e+01,
407,3.20e+01,-1.60e-02,2.88e+01,
408,3.20e+01,0.00e+00,2.88e+01,
409,3.24e+01,-1.60e-02,2.80e+01,
410,3.20e+01,0.00e+00,2.88e+01,
411,3.24e+01,-1.60e-02,2.80e+01,
412,3.20e+01,-1.60e-02,2.80e+01,
413,3.24e+01,0.00e+00,2.88e+01,
414,3.24e+01,0.00e+00,2.88e+01,
415,3.20e+01,-1.60e-02,2.80e+01,
416,3.20e+01,-1.60e-02,2.88e+01,
417,3.24e+01,0.00e+00,2.84e+01,
418,3.24e+01,-1.60e-02,2.88e+01,
419,3.20e+01,0.00e+00,2.80e+01,
420,3.20e+01,-1.60e-02,2.88e+01,
421,3.24e+01,0.00e+00,2.80e+01,
422,3.24e+01,0.00e+00,2.88e+01,
423,3.24e+01,-1.60e-02,2.80e+01,
424,3.20e+01,0.00e+00,2.88e+01,
425,3.24e+01,-1.60e-02,2.80e+01,
426,3.20e+01,0.00e+00,2.88e+01,
427,3.24e+01,-1.60e-02,2.80e+01,
428,3.24e+01,-1.60e-02,2.88e+01,
429,3.24e+01,0.00e+00,2.80e+01,
430,3.24e+01,-1.60e-02,2.88e+01,
431,3.20e+01,8.00e-03,2.80e+01,
432,3.24e+01,0.00e+00,2.80e+01,
433,3.20e+01,-1.60e-02,2.88e+01,
434,3.24e+01,0.00e+00,2.88e+01,
435,3.20e+01,-1.60e-02,2.80e+01,
436,3.24e+01,0.00e+00,2.88e+01,
437,3.20e+01,-1.60e-02,2.80e+01,
438,3.24e+01,-1.60e-02,2.88e+01,
439,3.20e+01,0.00e+00,2.80e+01,
440,3.24e+01,-1.60e-02,2.80e+01,
441,3.20e+01,0.00e+00,2.88e+01,
442,3.24e+01,0.00e+00,2.80e+01,
443,3.20e+01,-1.60e-02,2.88e+01,
444,3.24e+01,-1.60e-02,2.88e+01,
445,3.20e+01,0.00e+00,2.80e+01,
446,3.20e+01,0.00e+00,2.88e+01,
447,3.24e+01,-1.60e-02,2.80e+01,
448,3.24e+01,-1.60e-02,2.88e+01,
449,3.20e+01,0.00e+00,2.80e+01,
450,3.24e+01,8.00e-03,2.88e+01,
451,3.20e+01,-1.60e-02,2.80e+01,
452,3.24e+01,0.00e+00,2.88e+01,
453,3.20e+01,-1.60e-02,2.80e+01,
454,3.20e+01,-1.60e-02,2.88e+01,
455,3.24e+01,0.00e+00,2.80e+01,
456,3.20e+01,0.00e+00,2.88e+01,
457,3.24e+01,-1.60e-02,2.80e+01,
458,3.24e+01,0.00e+00,2.88e+01,
459,3.20e+01,-1.60e-02,2.80e+01,
460,3.20e+01,0.00e+00,2.88e+01,
461,3.24e+01,-1.60e-02,2.80e+01,
462,3.24e+01,-1.60e-02,2.80e+01,
463,3.16e+01,0.00e+00,2.88e+01,
464,3.24e+01,0.00e+00,2.88e+01,
465,3.20e+01,-1.60e-02,2.80e+01,
466,3.16e+01,0.00e+00,2.88e+01,
467,3.24e+01,-1.60e-02,2.80e+01,
468,3.16e+01,-1.60e-02,2.88e+01,
469,3.24e+01,8.00e-03,2.80e+01,
470,3.24e+01,8.00e-03,2.80e+01,
471,3.16e+01,-1.60e-02,2.88e+01,
472,3.24e+01,0.00e+00,2.88e+01,
473,3.16e+01,-1.60e-02,2.80e+01,
474,3.24e+01,0.00e+00,2.88e+01,
475,3.16e+01,-1.60e-02,2.80e+01,
476,3.24e+01,-8.00e-03,2.84e+01,
477,3.16e+01,0.00e+00,2.88e+01,
478,3.16e+01,0.00e+00,2.88e+01,
479,3.24e+01,-1.60e-02,2.80e+01,
480,3.24e+01,-1.60e-02,2.88e+01,
481,3.16e+01,0.00e+00,2.80e+01,
482,3.24e+01,-8.00e-03,2.88e+01,
483,3.16e+01,8.00e-03,2.80e+01,
484,3.16e+01,0.00e+00,2.88e+01,
485,3.24e+01,-1.60e-02,2.80e+01,
486,3.16e+01,-1.60e-02,2.88e+01,
487,3.24e+01,8.00e-03,2.80e+01,
488,3.16e+01,0.00e+00,2.88e+01,
489,3.20e+01,-1.60e-02,2.80e+01,
490,3.16e+01,8.00e-03,2.88e+01,
491,3.20e+01,-1.60e-02,2.80e+01,
492,3.16e+01,-1.60e-02,2.88e+01,
493,3.24e+01,0.00e+00,2.80e+01,
494,3.16e+01,-1.60e-02,2.88e+01,
495,3.24e+01,0.00e+00,2.80e+01,
496,3.16e+01,0.00e+00,2.88e+01,
497,3.20e+01,-1.60e-02,2.80e+01,
498,3.16e+01,0.00e+00,2.88e+01,
499,3.20e+01,-1.60e-02,2.80e+01,
500,3.16e+01,0.00e+00,2.88e+01,
501,3.24e+01,-1.60e-02,2.80e+01,
502,3.16e+01,0.00e+00,2.88e+01,
503,3.16e+01,-1.60e-02,2.80e+01,
504,3.16e+01,0.00e+00,2.88e+01,
505,3.20e+01,-1.60e-02,2.80e+01,
506,3.16e+01,0.00e+00,2.80e+01,
507,3.20e+01,-1.60e-02,2.88e+01,
508,3.16e+01,-1.60e-02,2.80e+01,
509,3.24e+01,0.00e+00,2.88e+01,
510,3.16e+01,0.00e+00,2.88e+01,
511,3.16e+01,-1.60e-02,2.80e+01,
512,3.16e+01,-1.60e-02,2.88e+01,
513,3.16e+01,0.00e+00,2.80e+01,
514,3.16e+01,-1.60e-02,2.80e+01,
515,3.24e+01,0.00e+00,2.88e+01,
516,3.16e+01,0.00e+00,2.80e+01,
517,3.16e+01,-1.60e-02,2.88e+01,
518,3.16e+01,0.00e+00,2.88e+01,
519,3.16e+01,-1.60e-02,2.80e+01,
520,3.16e+01,0.00e+00,2.88e+01,
521,3.16e+01,-1.60e-02,2.80e+01,
522,3.16e+01,8.00e-03,2.80e+01,
523,3.16e+01,-1.60e-02,2.88e+01,
524,3.16e+01,0.00e+00,2.88e+01,
525,3.16e+01,-1.60e-02,2.80e+01,
526,3.16e+01,0.00e+00,2.80e+01,
527,3.20e+01,-1.60e-02,2.88e+01,
528,3.16e+01,0.00e+00,2.88e+01,
529,3.16e+01,-1.60e-02,2.80e+01,
530,3.16e+01,0.00e+00,2.88e+01,
531,3.16e+01,-1.60e-02,2.80e+01,
532,3.16e+01,0.00e+00,2.84e+01,
533,3.16e+01,-1.60e-02,2.80e+01,
534,3.16e+01,0.00e+00,2.88e+01,
535,3.16e+01,-1.60e-02,2.80e+01,
536,3.16e+01,0.00e+00,2.88e+01,
537,3.16e+01,-1.60e-02,2.80e+01,
538,3.16e+01,0.00e+00,2.80e+01,
539,3.20e+01,-1.60e-02,2.88e+01,
540,3.20e+01,-1.60e-02,2.88e+01,
541,3.16e+01,0.00e+00,2.80e+01,
542,3.16e+01,0.00e+00,2.88e+01,
543,3.16e+01,-1.60e-02,2.80e+01,
544,3.16e+01,-1.60e-02,2.80e+01,
545,3.16e+01,0.00e+00,2.88e+01,
546,3.16e+01,-8.00e-03,2.80e+01,
547,3.16e+01,8.00e-03,2.84e+01,
548,3.16e+01,8.00e-03,2.80e+01,
549,3.16e+01,-1.60e-02,2.88e+01,
550,3.16e+01,0.00e+00,2.88e+01,
551,3.16e+01,-1.60e-02,2.80e+01,
552,3.16e+01,0.00e+00,2.84e+01,
553,3.16e+01,-1.60e-02,2.80e+01,
554,3.16e+01,0.00e+00,2.80e+01,
555,3.16e+01,-1.60e-02,2.88e+01,
556,3.16e+01,-8.00e-03,2.88e+01,
557,3.16e+01,-1.60e-02,2.80e+01,
558,3.16e+01,0.00e+00,2.88e+01,
559,3.16e+01,-1.60e-02,2.80e+01,
560,3.16e+01,0.00e+00,2.80e+01,
561,3.16e+01,-1.60e-02,2.84e+01,
562,3.20e+01,0.00e+00,2.80e+01,
563,3.16e+01,-1.60e-02,2.88e+01,
564,3.16e+01,-1.60e-02,2.80e+01,
565,3.16e+01,0.00e+00,2.84e+01,
566,3.16e+01,0.00e+00,2.88e+01,
567,3.16e+01,-1.60e-02,2.80e+01,
568,3.16e+01,-1.60e-02,2.80e+01,
569,3.16e+01,0.00e+00,2.84e+01,
570,3.16e+01,8.00e-03,2.80e+01,
571,3.16e+01,-1.60e-02,2.84e+01,
572,3.16e+01,0.00e+00,2.80e+01,
573,3.16e+01,-1.60e-02,2.84e+01,
574,3.16e+01,0.00e+00,2.80e+01,
575,3.16e+01,-1.60e-02,2.88e+01,
576,3.16e+01,0.00e+00,2.84e+01,
577,3.16e+01,-1.60e-02,2.80e+01,
578,3.16e+01,-1.60e-02,2.84e+01,
579,3.20e+01,0.00e+00,2.80e+01,
580,3.16e+01,-1.60e-02,2.80e+01,
581,3.16e+01,0.00e+00,2.88e+01,
582,3.16e+01,0.00e+00,2.80e+01,
583,3.16e+01,-1.60e-02,2.84e+01,
584,3.16e+01,0.00e+00,2.80e+01,
585,3.20e+01,-1.60e-02,2.80e+01,
586,3.16e+01,0.00e+00,2.80e+01,
587,3.16e+01,-1.60e-02,2.84e+01,
588,3.16e+01,-1.60e-02,2.80e+01,
589,3.16e+01,8.00e-03,2.84e+01,
590,3.16e+01,0.00e+00,2.80e+01,
591,3.20e+01,-1.60e-02,2.80e+01,
592,3.16e+01,8.00e-03,2.80e+01,
593,3.16e+01,-1.60e-02,2.84e+01,
594,3.16e+01,0.00e+00,2.84e+01,
595,3.16e+01,-1.60e-02,2.80e+01,
596,3.16e+01,-1.60e-02,2.80e+01,
597,3.16e+01,0.00e+00,2.88e+01,
598,3.16e+01,0.00e+00,2.80e+01,
599,3.20e+01,-1.60e-02,2.80e+01,
600,3.16e+01,-1.60e-02,2.80e+01,
601,3.16e+01,0.00e+00,2.84e+01,
602,3.16e+01,-1.60e-02,2.80e+01,
603,3.16e+01,0.00e+00,2.88e+01,
604,3.16e+01,-1.60e-02,2.80e+01,
605,3.16e+01,0.00e+00,2.84e+01,
606,3.16e+01,8.00e-03,2.84e+01,
607,3.16e+01,-1.60e-02,2.80e+01,
608,3.16e+01,0.00e+00,2.80e+01,
609,3.16e+01,-1.60e-02,2.80e+01,
610,3.16e+01,-1.60e-02,2.80e+01,
611,3.20e+01,0.00e+00,2.80e+01,
612,3.16e+01,0.00e+00,2.80e+01,
613,3.16e+01,-1.60e-02,2.84e+01,
