lb7_data/sbl33.csv

X,CH3,CH4,Start,Increment,
Sequence,Volt,Volt,4.756000e-05,5.000000e-08
0,-8.00e-03,2.96e+01,
1,-1.60e-02,2.72e+01,
2,-8.00e-03,2.72e+01,
3,-1.60e-02,2.96e+01,
4,-8.00e-03,2.72e+01,
5,-1.60e-02,2.96e+01,
6,-8.00e-03,2.88e+01,
7,-1.60e-02,2.72e+01,
8,-8.00e-03,2.72e+01,
9,-1.60e-02,2.88e+01,
10,-8.00e-03,2.88e+01,
11,-1.60e-02,2.72e+01,
12,-8.00e-03,2.96e+01,
13,-1.60e-02,2.72e+01,
14,-8.00e-03,2.80e+01,
15,-1.60e-02,2.88e+01,
16,-8.00e-03,2.72e+01,
17,-1.60e-02,2.88e+01,
18,-8.00e-03,2.80e+01,
19,-1.60e-02,2.88e+01,
20,-8.00e-03,2.88e+01,
21,-1.60e-02,2.72e+01,
22,-1.60e-02,2.88e+01,
23,-8.00e-03,2.72e+01,
24,-8.00e-03,2.80e+01,
25,-1.60e-02,2.80e+01,
26,-8.00e-03,2.80e+01,
27,-1.60e-02,2.72e+01,
28,-8.00e-03,2.80e+01,
29,-1.60e-02,2.80e+01,
30,-8.00e-03,2.88e+01,
31,-1.60e-02,2.72e+01,
32,-8.00e-03,2.80e+01,
33,-1.60e-02,2.72e+01,
34,-8.00e-03,2.72e+01,
35,-1.60e-02,2.80e+01,
36,-8.00e-03,2.80e+01,
37,-1.60e-02,2.72e+01,
38,-8.00e-03,2.80e+01,
39,-1.60e-02,2.72e+01,
40,-8.00e-03,2.80e+01,
41,-1.60e-02,2.72e+01,
42,-8.00e-03,2.80e+01,
43,-1.60e-02,2.72e+01,
44,-8.00e-03,2.80e+01,
45,-1.60e-02,2.72e+01,
46,-8.00e-03,2.80e+01,
47,-2.40e-02,2.72e+01,
48,-8.00e-03,2.80e+01,
49,-1.60e-02,2.72e+01,
50,-8.00e-03,2.80e+01,
51,-1.60e-02,2.56e+01,
52,-8.00e-03,2.64e+01,
53,-1.60e-02,2.40e+01,
54,-8.00e-03,2.48e+01,
55,-1.60e-02,2.32e+01,
56,-8.00e-03,2.40e+01,
57,-1.60e-02,2.16e+01,
58,-8.00e-03,2.24e+01,
59,-1.60e-02,2.08e+01,
60,-8.00e-03,2.16e+01,
61,-1.60e-02,1.92e+01,
62,-8.00e-03,2.00e+01,
63,-1.60e-02,1.84e+01,
64,-8.00e-03,1.92e+01,
65,-1.60e-02,1.76e+01,
66,-8.00e-03,1.92e+01,
67,-8.00e-03,1.76e+01,
68,-8.00e-03,1.84e+01,
69,-1.60e-02,1.68e+01,
70,-8.00e-03,1.68e+01,
71,-1.60e-02,1.84e+01,
72,-8.00e-03,1.76e+01,
73,-1.60e-02,1.60e+01,
74,-8.00e-03,1.76e+01,
75,-1.60e-02,1.60e+01,
76,-8.00e-03,1.68e+01,
77,-1.60e-02,1.60e+01,
78,-8.00e-03,1.60e+01,
79,-1.60e-02,1.68e+01,
80,-1.60e-02,1.68e+01,
81,-8.00e-03,1.60e+01,
82,-8.00e-03,1.68e+01,
83,-1.60e-02,1.60e+01,
84,-8.00e-03,1.60e+01,
85,-1.60e-02,1.68e+01,
86,-8.00e-03,1.68e+01,
87,-1.60e-02,1.60e+01,
88,-8.00e-03,1.68e+01,
89,-1.60e-02,1.60e+01,
90,-8.00e-03,1.68e+01,
91,-1.60e-02,1.60e+01,
92,-1.60e-02,1.68e+01,
93,-8.00e-03,1.60e+01,
94,-8.00e-03,1.60e+01,
95,-1.60e-02,1.68e+01,
96,-8.00e-03,1.68e+01,
97,-1.60e-02,1.60e+01,
98,-8.00e-03,1.60e+01,
99,-1.60e-02,1.68e+01,
100,-8.00e-03,1.60e+01,
101,-1.60e-02,1.76e+01,
102,-8.00e-03,1.60e+01,
103,-1.60e-02,1.76e+01,
104,-8.00e-03,1.60e+01,
105,-1.60e-02,1.76e+01,
106,-1.60e-02,1.76e+01,
107,-8.00e-03,1.60e+01,
108,-8.00e-03,1.76e+01,
109,-1.60e-02,1.60e+01,
110,0.00e+00,1.76e+01,
111,-1.60e-02,1.60e+01,
112,-8.00e-03,1.68e+01,
113,-1.60e-02,1.76e+01,
114,-8.00e-03,1.76e+01,
115,-1.60e-02,1.68e+01,
116,-1.60e-02,1.68e+01,
117,4.00e-02,1.76e+01,
118,1.20e-01,1.84e+01,
119,8.00e-03,-8.00e-01,
120,1.60e-02,8.00e-01,
121,5.60e-02,-8.00e-01,
122,2.40e-02,8.00e-01,
123,4.00e-02,-8.00e-01,
124,3.20e-02,8.00e-01,
125,4.00e-02,-8.00e-01,
126,3.20e-02,8.00e-01,
127,4.80e-02,-8.00e-01,
128,3.20e-02,-8.00e-01,
129,4.80e-02,8.00e-01,
130,4.00e-02,0.00e+00,
131,5.60e-02,8.00e-01,
132,4.00e-02,8.00e-01,
133,5.60e-02,-8.00e-01,
134,5.60e-02,-8.00e-01,
135,4.80e-02,8.00e-01,
136,4.80e-02,8.00e-01,
137,6.40e-02,0.00e+00,
138,6.40e-02,8.00e-01,
139,5.60e-02,-8.00e-01,
140,5.60e-02,0.00e+00,
141,7.20e-02,8.00e-01,
142,6.40e-02,-8.00e-01,
143,7.20e-02,8.00e-01,
144,6.40e-02,8.00e-01,
145,8.00e-02,0.00e+00,
146,8.00e-02,0.00e+00,
147,7.20e-02,8.00e-01,
148,8.00e-02,8.00e-01,
149,8.80e-02,0.00e+00,
150,8.80e-02,8.00e-01,
151,8.00e-02,-8.00e-01,
152,8.80e-02,8.00e-01,
153,9.60e-02,0.00e+00,
154,8.80e-02,8.00e-01,
155,1.04e-01,0.00e+00,
156,9.60e-02,8.00e-01,
157,1.12e-01,0.00e+00,
158,1.12e-01,8.00e-01,
159,9.60e-02,-8.00e-01,
160,1.04e-01,0.00e+00,
161,1.20e-01,8.00e-01,
162,1.20e-01,8.00e-01,
163,1.12e-01,0.00e+00,
164,1.12e-01,0.00e+00,
165,1.28e-01,8.00e-01,
166,1.12e-01,8.00e-01,
167,1.28e-01,-8.00e-01,
168,1.20e-01,8.00e-01,
169,1.36e-01,0.00e+00,
170,1.20e-01,8.00e-01,
171,1.36e-01,0.00e+00,
172,1.28e-01,0.00e+00,
173,1.44e-01,8.00e-01,
174,1.44e-01,8.00e-01,
175,1.28e-01,-8.00e-01,
176,1.36e-01,8.00e-01,
177,1.52e-01,0.00e+00,
178,1.44e-01,8.00e-01,
179,1.52e-01,0.00e+00,
180,1.44e-01,8.00e-01,
181,1.60e-01,0.00e+00,
182,1.52e-01,8.00e-01,
183,1.68e-01,-8.00e-01,
184,1.68e-01,8.00e-01,
185,1.52e-01,0.00e+00,
186,1.60e-01,0.00e+00,
187,1.76e-01,8.00e-01,
188,1.76e-01,0.00e+00,
189,1.60e-01,8.00e-01,
190,1.76e-01,8.00e-01,
191,1.92e-01,-8.00e-01,
192,1.76e-01,8.00e-01,
193,1.92e-01,0.00e+00,
194,1.84e-01,0.00e+00,
195,2.00e-01,8.00e-01,
196,1.92e-01,0.00e+00,
197,2.00e-01,8.00e-01,
198,1.92e-01,0.00e+00,
199,2.08e-01,8.00e-01,
200,2.08e-01,0.00e+00,
201,2.00e-01,8.00e-01,
202,2.00e-01,0.00e+00,
203,2.16e-01,8.00e-01,
204,2.08e-01,0.00e+00,
205,2.16e-01,8.00e-01,
206,2.08e-01,8.00e-01,
207,2.24e-01,0.00e+00,
208,2.16e-01,0.00e+00,
209,2.32e-01,8.00e-01,
210,2.32e-01,8.00e-01,
211,2.16e-01,0.00e+00,
212,2.24e-01,0.00e+00,
213,2.40e-01,8.00e-01,
214,2.24e-01,8.00e-01,
215,2.40e-01,0.00e+00,
216,2.32e-01,8.00e-01,
217,2.48e-01,0.00e+00,
218,2.48e-01,0.00e+00,
219,2.32e-01,8.00e-01,
220,2.40e-01,0.00e+00,
221,2.56e-01,8.00e-01,
222,2.56e-01,0.00e+00,
223,2.40e-01,1.60e+00,
224,2.48e-01,0.00e+00,
225,2.64e-01,8.00e-01,
226,2.64e-01,8.00e-01,
227,2.56e-01,0.00e+00,
228,2.64e-01,0.00e+00,
229,2.80e-01,8.00e-01,
230,2.64e-01,0.00e+00,
231,2.80e-01,1.60e+00,
232,2.72e-01,8.00e-01,
233,2.88e-01,0.00e+00,
234,2.80e-01,0.00e+00,
235,2.88e-01,8.00e-01,
236,2.96e-01,8.00e-01,
237,2.16e-01,0.00e+00,
238,2.32e-01,0.00e+00,
239,2.96e-01,8.00e-01,
240,2.80e-01,8.00e-01,
241,3.04e-01,0.00e+00,
242,2.96e-01,8.00e-01,
243,2.72e-01,8.00e+00,
244,2.72e-01,7.20e+00,
245,-4.16e-01,6.32e+01,
246,-4.16e-01,6.40e+01,
247,7.20e-02,2.24e+01,
248,-8.00e-03,2.88e+01,
249,-2.40e-02,2.72e+01,
250,-8.00e-03,2.88e+01,
251,-1.60e-02,2.72e+01,
252,-1.60e-02,2.80e+01,
253,-8.00e-03,2.72e+01,
254,-8.00e-03,2.88e+01,
255,-1.60e-02,2.72e+01,
256,-8.00e-03,2.80e+01,
257,-1.60e-02,2.72e+01,
258,-8.00e-03,2.80e+01,
259,-1.60e-02,2.72e+01,
260,-8.00e-03,2.80e+01,
261,-1.60e-02,2.72e+01,
262,-8.00e-03,2.80e+01,
263,-1.60e-02,2.72e+01,
264,-8.00e-03,2.80e+01,
265,-1.60e-02,2.72e+01,
266,-8.00e-03,2.80e+01,
267,-1.60e-02,2.72e+01,
268,-8.00e-03,2.72e+01,
269,-1.60e-02,2.80e+01,
270,-8.00e-03,2.80e+01,
271,-1.60e-02,2.80e+01,
272,-8.00e-03,2.72e+01,
273,-1.60e-02,2.80e+01,
274,-8.00e-03,2.80e+01,
275,-8.00e-03,2.72e+01,
276,-1.60e-02,2.80e+01,
277,-8.00e-03,2.80e+01,
278,-8.00e-03,2.80e+01,
279,-1.60e-02,2.88e+01,
280,-8.00e-03,2.80e+01,
281,-1.60e-02,2.80e+01,
282,-8.00e-03,2.80e+01,
283,-1.60e-02,2.72e+01,
284,-1.60e-02,2.80e+01,
285,-8.00e-03,2.72e+01,
286,-8.00e-03,2.80e+01,
287,-1.60e-02,2.88e+01,
288,-8.00e-03,2.80e+01,
289,-1.60e-02,2.72e+01,
290,-8.00e-03,2.72e+01,
291,-1.60e-02,2.88e+01,
292,-8.00e-03,2.72e+01,
293,-1.60e-02,2.88e+01,
294,-8.00e-03,2.88e+01,
295,-1.60e-02,2.72e+01,
296,-1.60e-02,2.88e+01,
297,-8.00e-03,2.72e+01,
298,-8.00e-03,2.88e+01,
299,-1.60e-02,2.72e+01,
300,-8.00e-03,2.88e+01,
301,-1.60e-02,2.72e+01,
302,-8.00e-03,2.80e+01,
303,-1.60e-02,2.88e+01,
304,-8.00e-03,2.72e+01,
305,-1.60e-02,2.88e+01,
306,-8.00e-03,2.80e+01,
307,-1.60e-02,2.88e+01,
308,-8.00e-03,2.96e+01,
309,-1.60e-02,2.72e+01,
310,-8.00e-03,2.80e+01,
311,-1.60e-02,2.96e+01,
312,-8.00e-03,2.88e+01,
313,-1.60e-02,2.72e+01,
314,-8.00e-03,2.88e+01,
315,-1.60e-02,2.72e+01,
316,-8.00e-03,2.72e+01,
317,-1.60e-02,2.88e+01,
318,-8.00e-03,2.96e+01,
319,-1.60e-02,2.72e+01,
320,-8.00e-03,2.80e+01,
321,-1.60e-02,2.96e+01,
322,-8.00e-03,2.96e+01,
323,-1.60e-02,2.72e+01,
324,-8.00e-03,2.88e+01,
325,-1.60e-02,2.80e+01,
326,-8.00e-03,2.96e+01,
327,-1.60e-02,2.72e+01,
328,-1.60e-02,2.96e+01,
329,-8.00e-03,2.72e+01,
330,-8.00e-03,2.72e+01,
331,-1.60e-02,2.96e+01,
332,-8.00e-03,2.88e+01,
333,-1.60e-02,2.72e+01,
334,-8.00e-03,2.96e+01,
335,-1.60e-02,2.72e+01,
336,-8.00e-03,2.96e+01,
337,-1.60e-02,2.72e+01,
338,-8.00e-03,2.72e+01,
339,-1.60e-02,2.96e+01,
340,-8.00e-03,2.88e+01,
341,-1.60e-02,2.72e+01,
342,-8.00e-03,2.72e+01,
343,-1.60e-02,2.96e+01,
344,-1.60e-02,2.80e+01,
345,-8.00e-03,2.96e+01,
346,-1.60e-02,2.72e+01,
347,-8.00e-03,2.96e+01,
348,-8.00e-03,2.96e+01,
349,-1.60e-02,2.72e+01,
350,-8.00e-03,2.80e+01,
351,-1.60e-02,2.96e+01,
352,-8.00e-03,2.96e+01,
353,-1.60e-02,2.72e+01,
354,-8.00e-03,2.88e+01,
355,-1.60e-02,2.80e+01,
356,-8.00e-03,2.96e+01,
357,-1.60e-02,2.72e+01,
358,-8.00e-03,2.80e+01,
359,-1.60e-02,2.96e+01,
360,-8.00e-03,2.72e+01,
361,-1.60e-02,2.96e+01,
362,-8.00e-03,2.80e+01,
363,-1.60e-02,2.96e+01,
364,-8.00e-03,2.96e+01,
365,-1.60e-02,2.72e+01,
366,-8.00e-03,2.96e+01,
367,-1.60e-02,2.72e+01,
368,-8.00e-03,2.80e+01,
369,-1.60e-02,2.96e+01,
370,-8.00e-03,2.88e+01,
371,-1.60e-02,2.72e+01,
372,-1.60e-02,2.96e+01,
373,-8.00e-03,2.72e+01,
374,-8.00e-03,2.72e+01,
375,-1.60e-02,2.96e+01,
376,-8.00e-03,2.72e+01,
377,-1.60e-02,2.96e+01,
378,-8.00e-03,2.72e+01,
379,-1.60e-02,2.96e+01,
380,-8.00e-03,2.96e+01,
381,-1.60e-02,2.72e+01,
382,-8.00e-03,2.88e+01,
383,-1.60e-02,2.72e+01,
384,-8.00e-03,2.80e+01,
385,-1.60e-02,2.96e+01,
386,-8.00e-03,2.88e+01,
387,-1.60e-02,2.72e+01,
388,-8.00e-03,2.80e+01,
389,-2.40e-02,2.96e+01,
390,-1.60e-02,2.96e+01,
391,-8.00e-03,2.72e+01,
392,-8.00e-03,2.80e+01,
393,-1.60e-02,2.88e+01,
394,-8.00e-03,2.88e+01,
395,-1.60e-02,2.72e+01,
396,-8.00e-03,2.80e+01,
397,-1.60e-02,2.88e+01,
398,-8.00e-03,2.88e+01,
399,-1.60e-02,2.80e+01,
400,-8.00e-03,2.80e+01,
401,-1.60e-02,2.88e+01,
402,-8.00e-03,2.88e+01,
403,-1.60e-02,2.72e+01,
404,-8.00e-03,2.80e+01,
405,-1.60e-02,2.96e+01,
406,-8.00e-03,2.80e+01,
407,-1.60e-02,2.96e+01,
408,-8.00e-03,2.72e+01,
409,-1.60e-02,2.88e+01,
410,-8.00e-03,2.96e+01,
411,-1.60e-02,2.72e+01,
412,-8.00e-03,2.80e+01,
413,-1.60e-02,2.88e+01,
414,-8.00e-03,2.72e+01,
415,-1.60e-02,2.88e+01,
416,-1.60e-02,2.80e+01,
417,-8.00e-03,2.72e+01,
418,-8.00e-03,2.72e+01,
419,-1.60e-02,2.88e+01,
420,-8.00e-03,2.80e+01,
421,-1.60e-02,2.72e+01,
422,-8.00e-03,2.72e+01,
423,-1.60e-02,2.88e+01,
424,-8.00e-03,2.80e+01,
425,-1.60e-02,2.72e+01,
426,-8.00e-03,2.80e+01,
427,-1.60e-02,2.72e+01,
428,-8.00e-03,2.80e+01,
429,-1.60e-02,2.80e+01,
430,-8.00e-03,2.80e+01,
431,-1.60e-02,2.72e+01,
432,-8.00e-03,2.80e+01,
433,-1.60e-02,2.80e+01,
434,-8.00e-03,2.80e+01,
435,-1.60e-02,2.72e+01,
436,-8.00e-03,2.80e+01,
437,-1.60e-02,2.80e+01,
438,-8.00e-03,2.80e+01,
439,-1.60e-02,2.72e+01,
440,-8.00e-03,2.80e+01,
441,-1.60e-02,2.72e+01,
442,-8.00e-03,2.80e+01,
443,-1.60e-02,2.80e+01,
444,-8.00e-03,2.80e+01,
445,-1.60e-02,2.72e+01,
446,-8.00e-03,2.80e+01,
447,-1.60e-02,2.80e+01,
448,-1.60e-02,2.80e+01,
449,-8.00e-03,2.64e+01,
450,-8.00e-03,2.72e+01,
451,-1.60e-02,2.48e+01,
452,-8.00e-03,2.56e+01,
453,-1.60e-02,2.32e+01,
454,-8.00e-03,2.40e+01,
455,-1.60e-02,2.24e+01,
456,-8.00e-03,2.32e+01,
457,-1.60e-02,2.16e+01,
458,-8.00e-03,2.16e+01,
459,-1.60e-02,2.00e+01,
460,-8.00e-03,2.08e+01,
461,-1.60e-02,1.92e+01,
462,-8.00e-03,2.00e+01,
463,-1.60e-02,1.84e+01,
464,-8.00e-03,1.92e+01,
465,-1.60e-02,1.76e+01,
466,-8.00e-03,1.84e+01,
467,-1.60e-02,1.68e+01,
468,-8.00e-03,1.68e+01,
469,-1.60e-02,1.84e+01,
470,-8.00e-03,1.76e+01,
471,-1.60e-02,1.68e+01,
472,-8.00e-03,1.76e+01,
473,-1.60e-02,1.60e+01,
474,-8.00e-03,1.60e+01,
475,-1.60e-02,1.76e+01,
476,-8.00e-03,1.60e+01,
477,-1.60e-02,1.68e+01,
478,-8.00e-03,1.60e+01,
479,-1.60e-02,1.68e+01,
480,-8.00e-03,1.60e+01,
481,-1.60e-02,1.68e+01,
482,-8.00e-03,1.60e+01,
483,-1.60e-02,1.68e+01,
484,-8.00e-03,1.68e+01,
485,-1.60e-02,1.60e+01,
486,-8.00e-03,1.60e+01,
487,-1.60e-02,1.68e+01,
488,-8.00e-03,1.68e+01,
489,-1.60e-02,1.60e+01,
490,-8.00e-03,1.68e+01,
491,-1.60e-02,1.60e+01,
492,-1.60e-02,1.60e+01,
493,-8.00e-03,1.68e+01,
494,-8.00e-03,1.60e+01,
495,-1.60e-02,1.68e+01,
496,-8.00e-03,1.60e+01,
497,-1.60e-02,1.68e+01,
498,-8.00e-03,1.68e+01,
499,-1.60e-02,1.60e+01,
500,-8.00e-03,1.60e+01,
501,-1.60e-02,1.76e+01,
502,-8.00e-03,1.60e+01,
503,-1.60e-02,1.76e+01,
504,-8.00e-03,1.60e+01,
505,-1.60e-02,1.76e+01,
506,-8.00e-03,1.76e+01,
507,-1.60e-02,1.60e+01,
508,-8.00e-03,1.76e+01,
509,-1.60e-02,1.60e+01,
510,-8.00e-03,1.76e+01,
511,-1.60e-02,1.68e+01,
512,-8.00e-03,1.76e+01,
513,-1.60e-02,1.68e+01,
514,-8.00e-03,1.76e+01,
515,-1.60e-02,1.68e+01,
516,-8.00e-03,1.84e+01,
517,1.28e-01,2.40e+00,
518,9.60e-02,1.60e+00,
519,1.60e-02,-8.00e-01,
520,2.40e-02,8.00e-01,
521,4.00e-02,-8.00e-01,
522,2.40e-02,-8.00e-01,
523,4.00e-02,8.00e-01,
524,3.20e-02,8.00e-01,
525,4.00e-02,-8.00e-01,
526,3.20e-02,-8.00e-01,
527,4.80e-02,8.00e-01,
528,4.00e-02,8.00e-01,
529,4.80e-02,0.00e+00,
530,4.00e-02,8.00e-01,
531,5.60e-02,-8.00e-01,
532,5.60e-02,0.00e+00,
533,4.00e-02,8.00e-01,
534,4.80e-02,-8.00e-01,
535,6.40e-02,8.00e-01,
536,4.80e-02,8.00e-01,
537,6.40e-02,0.00e+00,
538,5.60e-02,8.00e-01,
539,7.20e-02,-8.00e-01,
540,6.40e-02,0.00e+00,
541,7.20e-02,8.00e-01,
542,6.40e-02,8.00e-01,
543,8.00e-02,-8.00e-01,
544,8.00e-02,8.00e-01,
545,6.40e-02,0.00e+00,
546,8.00e-02,8.00e-01,
547,7.20e-02,-8.00e-01,
548,8.80e-02,8.00e-01,
549,7.20e-02,0.00e+00,
550,8.80e-02,8.00e-01,
551,8.00e-02,-8.00e-01,
552,8.80e-02,8.00e-01,
553,1.04e-01,0.00e+00,
554,9.60e-02,8.00e-01,
555,1.12e-01,0.00e+00,
556,9.60e-02,0.00e+00,
557,1.12e-01,8.00e-01,
558,1.12e-01,8.00e-01,
559,1.04e-01,-8.00e-01,
560,1.20e-01,8.00e-01,
561,1.04e-01,0.00e+00,
562,1.12e-01,0.00e+00,
563,1.28e-01,8.00e-01,
564,1.12e-01,0.00e+00,
565,1.28e-01,8.00e-01,
566,1.20e-01,0.00e+00,
567,1.36e-01,8.00e-01,
568,1.36e-01,0.00e+00,
569,1.20e-01,8.00e-01,
570,1.28e-01,0.00e+00,
571,1.44e-01,8.00e-01,
572,1.28e-01,0.00e+00,
573,1.44e-01,8.00e-01,
574,1.36e-01,8.00e-01,
575,1.52e-01,-8.00e-01,
576,1.52e-01,0.00e+00,
577,1.44e-01,8.00e-01,
578,1.44e-01,0.00e+00,
579,1.60e-01,8.00e-01,
580,1.60e-01,0.00e+00,
581,1.44e-01,8.00e-01,
582,1.52e-01,0.00e+00,
583,1.68e-01,8.00e-01,
584,1.68e-01,0.00e+00,
585,1.60e-01,8.00e-01,
586,1.76e-01,0.00e+00,
587,1.60e-01,8.00e-01,
588,1.76e-01,8.00e-01,
589,1.68e-01,0.00e+00,
590,1.76e-01,8.00e-01,
591,1.92e-01,-8.00e-01,
592,1.84e-01,0.00e+00,
593,2.00e-01,8.00e-01,
594,1.84e-01,0.00e+00,
595,2.00e-01,8.00e-01,
596,1.92e-01,0.00e+00,
597,2.00e-01,8.00e-01,
598,1.92e-01,8.00e-01,
599,2.08e-01,-8.00e-01,
600,2.00e-01,0.00e+00,
601,2.16e-01,8.00e-01,
602,2.16e-01,0.00e+00,
603,2.00e-01,8.00e-01,
604,2.08e-01,8.00e-01,
605,2.24e-01,0.00e+00,
606,2.08e-01,8.00e-01,
607,2.24e-01,0.00e+00,
608,2.16e-01,8.00e-01,
609,2.32e-01,0.00e+00,
610,2.24e-01,8.00e-01,
611,2.40e-01,0.00e+00,
612,2.24e-01,8.00e-01,
613,2.40e-01,0.00e+00,
614,2.40e-01,0.00e+00,
615,2.24e-01,8.00e-01,
616,2.32e-01,8.00e-01,
617,2.48e-01,0.00e+00,
618,2.40e-01,0.00e+00,
619,2.56e-01,8.00e-01,
620,2.40e-01,0.00e+00,
621,2.56e-01,8.00e-01,
622,2.48e-01,0.00e+00,
623,2.64e-01,8.00e-01,
624,2.56e-01,0.00e+00,
625,2.64e-01,8.00e-01,
626,2.56e-01,8.00e-01,
627,2.80e-01,0.00e+00,
628,2.72e-01,0.00e+00,
629,2.56e-01,8.00e-01,
630,2.72e-01,8.00e-01,
631,2.88e-01,0.00e+00,
632,2.88e-01,0.00e+00,
633,2.72e-01,8.00e-01,
634,2.80e-01,0.00e+00,
635,2.96e-01,8.00e-01,
636,2.96e-01,8.00e-01,
637,2.16e-01,0.00e+00,
638,2.80e-01,0.00e+00,
639,2.96e-01,1.60e+00,
640,3.04e-01,0.00e+00,
641,2.80e-01,4.80e+00,
642,2.88e-01,4.80e+00,
643,1.44e-01,2.48e+01,
644,1.28e-01,6.40e+01,
645,-4.16e-01,2.24e+01,
646,-4.00e-02,3.04e+01,
647,-8.00e-03,2.80e+01,
648,-8.00e-03,2.88e+01,
649,-2.40e-02,2.72e+01,
650,-8.00e-03,2.80e+01,
651,-1.60e-02,2.88e+01,
652,-8.00e-03,2.72e+01,
653,-1.60e-02,2.88e+01,
654,-1.60e-02,2.80e+01,
655,-8.00e-03,2.88e+01,
656,-1.60e-02,2.80e+01,
657,-8.00e-03,2.72e+01,
658,-8.00e-03,2.80e+01,
659,-1.60e-02,2.72e+01,
660,-8.00e-03,2.72e+01,
661,-1.60e-02,2.80e+01,
662,-8.00e-03,2.80e+01,
663,-8.00e-03,2.72e+01,
664,-8.00e-03,2.80e+01,
665,-1.60e-02,2.72e+01,
666,-8.00e-03,2.80e+01,
667,-1.60e-02,2.72e+01,
668,-8.00e-03,2.80e+01,
669,-1.60e-02,2.72e+01,
670,-8.00e-03,2.88e+01,
671,-1.60e-02,2.72e+01,
672,-8.00e-03,2.80e+01,
673,-1.60e-02,2.72e+01,
674,-8.00e-03,2.80e+01,
675,-1.60e-02,2.72e+01,
676,-8.00e-03,2.80e+01,
677,-1.60e-02,2.80e+01,
678,-8.00e-03,2.80e+01,
679,-1.60e-02,2.72e+01,
680,-8.00e-03,2.80e+01,
681,-1.60e-02,2.72e+01,
682,-8.00e-03,2.80e+01,
683,-1.60e-02,2.72e+01,
684,-8.00e-03,2.80e+01,
685,-1.60e-02,2.80e+01,
686,-8.00e-03,2.88e+01,
687,-1.60e-02,2.72e+01,
688,-8.00e-03,2.80e+01,
689,-1.60e-02,2.72e+01,
690,-8.00e-03,2.88e+01,
691,-1.60e-02,2.72e+01,
692,-8.00e-03,2.72e+01,
693,-8.00e-03,2.88e+01,
694,-8.00e-03,2.80e+01,
695,-1.60e-02,2.88e+01,
696,-8.00e-03,2.80e+01,
697,-1.60e-02,2.96e+01,
698,-1.60e-02,2.72e+01,
699,-8.00e-03,2.88e+01,
700,-8.00e-03,2.96e+01,
701,-1.60e-02,2.72e+01,
702,-8.00e-03,2.88e+01,
703,-1.60e-02,2.72e+01,
704,-8.00e-03,2.88e+01,
705,-1.60e-02,2.72e+01,
706,-1.60e-02,2.88e+01,
707,-8.00e-03,2.72e+01,
708,-8.00e-03,2.96e+01,
709,-1.60e-02,2.72e+01,
710,-1.60e-02,2.96e+01,
711,0.00e+00,2.72e+01,
712,-8.00e-03,2.88e+01,
713,-1.60e-02,2.72e+01,
714,-8.00e-03,2.88e+01,
715,-1.60e-02,2.72e+01,
716,-8.00e-03,2.72e+01,
717,-1.60e-02,2.96e+01,
718,-1.60e-02,2.88e+01,
719,-8.00e-03,2.72e+01,
720,-8.00e-03,2.72e+01,
721,-1.60e-02,2.96e+01,
722,-8.00e-03,2.80e+01,
723,-1.60e-02,2.88e+01,
724,-8.00e-03,2.72e+01,
725,-1.60e-02,2.96e+01,
726,-8.00e-03,2.88e+01,
727,-1.60e-02,2.72e+01,
728,-8.00e-03,2.80e+01,
729,-1.60e-02,2.96e+01,
730,-8.00e-03,2.96e+01,
731,-1.60e-02,2.72e+01,
732,-8.00e-03,2.80e+01,
733,-1.60e-02,2.88e+01,
734,-8.00e-03,2.80e+01,
735,-1.60e-02,2.96e+01,
736,-8.00e-03,2.80e+01,
737,-1.60e-02,2.96e+01,
738,-8.00e-03,2.88e+01,
739,-1.60e-02,2.80e+01,
740,-8.00e-03,2.80e+01,
741,-1.60e-02,2.96e+01,
742,-8.00e-03,2.88e+01,
743,-1.60e-02,2.72e+01,
744,-8.00e-03,2.96e+01,
745,-1.60e-02,2.72e+01,
746,-1.60e-02,2.96e+01,
747,-8.00e-03,2.72e+01,
748,-1.60e-02,2.80e+01,
749,-8.00e-03,2.96e+01,
750,-8.00e-03,2.88e+01,
751,-1.60e-02,2.72e+01,
752,-8.00e-03,2.96e+01,
753,-1.60e-02,2.72e+01,
754,-8.00e-03,2.80e+01,
755,-1.60e-02,2.96e+01,
756,-8.00e-03,2.96e+01,
757,-1.60e-02,2.72e+01,
758,-8.00e-03,2.80e+01,
759,-1.60e-02,2.96e+01,
760,-8.00e-03,2.72e+01,
761,-1.60e-02,2.96e+01,
762,-1.60e-02,2.88e+01,
763,-8.00e-03,2.80e+01,
764,-8.00e-03,2.80e+01,
765,-1.60e-02,2.96e+01,
766,-8.00e-03,2.80e+01,
767,-1.60e-02,2.96e+01,
768,-8.00e-03,2.80e+01,
769,-1.60e-02,2.96e+01,
770,-8.00e-03,2.80e+01,
771,-1.60e-02,2.96e+01,
772,-8.00e-03,2.88e+01,
773,-1.60e-02,2.72e+01,
774,-8.00e-03,2.88e+01,
775,-8.00e-03,2.72e+01,
776,-8.00e-03,2.80e+01,
777,-1.60e-02,2.96e+01,
778,-8.00e-03,2.80e+01,
779,-1.60e-02,2.96e+01,
780,-8.00e-03,2.80e+01,
781,-1.60e-02,2.96e+01,
782,-8.00e-03,2.96e+01,
783,-1.60e-02,2.72e+01,
784,-8.00e-03,2.96e+01,
785,-1.60e-02,2.72e+01,
786,-8.00e-03,2.80e+01,
787,-1.60e-02,2.96e+01,
788,-8.00e-03,2.88e+01,
789,-1.60e-02,2.72e+01,
790,-1.60e-02,2.88e+01,
791,-8.00e-03,2.72e+01,
792,-8.00e-03,2.88e+01,
793,-1.60e-02,2.72e+01,
794,-8.00e-03,2.96e+01,
795,-1.60e-02,2.72e+01,
796,-8.00e-03,2.72e+01,
797,-1.60e-02,2.96e+01,
798,-8.00e-03,2.80e+01,
799,-1.60e-02,2.96e+01,
800,-8.00e-03,2.88e+01,
801,-1.60e-02,2.72e+01,
802,-8.00e-03,2.80e+01,
803,-1.60e-02,2.96e+01,
804,-8.00e-03,2.72e+01,
805,-1.60e-02,2.96e+01,
806,-1.60e-02,2.80e+01,
807,-8.00e-03,2.96e+01,
808,-8.00e-03,2.88e+01,
809,-1.60e-02,2.72e+01,
810,-8.00e-03,2.80e+01,
811,-1.60e-02,2.96e+01,
812,-8.00e-03,2.88e+01,
813,-1.60e-02,2.72e+01,
814,-8.00e-03,2.88e+01,
815,-1.60e-02,2.72e+01,
816,-1.60e-02,2.72e+01,
817,-8.00e-03,2.88e+01,
818,-8.00e-03,2.88e+01,
819,-8.00e-03,2.72e+01,
820,-8.00e-03,2.80e+01,
821,-1.60e-02,2.88e+01,
822,-8.00e-03,2.88e+01,
823,-1.60e-02,2.72e+01,
824,-8.00e-03,2.80e+01,
825,-1.60e-02,2.80e+01,
826,-8.00e-03,2.80e+01,
827,-1.60e-02,2.72e+01,
828,-8.00e-03,2.80e+01,
829,-1.60e-02,2.72e+01,
830,-8.00e-03,2.72e+01,
831,-1.60e-02,2.88e+01,
832,-8.00e-03,2.80e+01,
833,-1.60e-02,2.72e+01,
834,-1.60e-02,2.80e+01,
835,-8.00e-03,2.72e+01,
836,-8.00e-03,2.80e+01,
837,-1.60e-02,2.72e+01,
838,-8.00e-03,2.80e+01,
839,-1.60e-02,2.72e+01,
840,-8.00e-03,2.80e+01,
841,-1.60e-02,2.72e+01,
842,-8.00e-03,2.80e+01,
843,-1.60e-02,2.72e+01,
