lb7_data/sbl62.csv

X,CH3,CH4,Start,Increment,
Sequence,Volt,Volt,7.948600e-05,1.000000e-09
0,2.96e-01,0.00e+00,
1,2.96e-01,0.00e+00,
2,2.96e-01,8.00e-01,
3,2.96e-01,8.00e-01,
4,2.88e-01,0.00e+00,
5,2.88e-01,0.00e+00,
6,2.96e-01,0.00e+00,
7,2.96e-01,0.00e+00,
8,2.88e-01,8.00e-01,
9,2.88e-01,8.00e-01,
10,3.04e-01,0.00e+00,
11,3.04e-01,0.00e+00,
12,2.88e-01,8.00e-01,
13,2.88e-01,8.00e-01,
14,3.04e-01,0.00e+00,
15,3.04e-01,0.00e+00,
16,2.96e-01,0.00e+00,
17,2.96e-01,0.00e+00,
18,2.96e-01,0.00e+00,
19,2.96e-01,0.00e+00,
20,2.96e-01,8.00e-01,
21,2.96e-01,8.00e-01,
22,2.96e-01,0.00e+00,
23,2.96e-01,0.00e+00,
24,2.96e-01,0.00e+00,
25,2.96e-01,0.00e+00,
26,2.96e-01,0.00e+00,
27,2.96e-01,0.00e+00,
28,2.88e-01,0.00e+00,
29,2.88e-01,0.00e+00,
30,2.96e-01,0.00e+00,
31,2.96e-01,0.00e+00,
32,2.96e-01,0.00e+00,
33,2.96e-01,0.00e+00,
34,2.96e-01,0.00e+00,
35,2.96e-01,0.00e+00,
36,2.88e-01,0.00e+00,
37,2.88e-01,0.00e+00,
38,2.96e-01,0.00e+00,
39,2.96e-01,0.00e+00,
40,3.04e-01,0.00e+00,
41,3.04e-01,0.00e+00,
42,2.96e-01,8.00e-01,
43,2.96e-01,8.00e-01,
44,2.96e-01,0.00e+00,
45,2.96e-01,0.00e+00,
46,2.96e-01,0.00e+00,
47,2.96e-01,0.00e+00,
48,2.96e-01,8.00e-01,
49,2.96e-01,8.00e-01,
50,2.96e-01,0.00e+00,
51,2.96e-01,0.00e+00,
52,3.04e-01,0.00e+00,
53,3.04e-01,0.00e+00,
54,3.04e-01,8.00e-01,
55,3.04e-01,8.00e-01,
56,2.96e-01,8.00e-01,
57,2.96e-01,8.00e-01,
58,3.04e-01,0.00e+00,
59,3.04e-01,0.00e+00,
60,3.04e-01,1.60e+00,
61,3.04e-01,1.60e+00,
62,2.96e-01,0.00e+00,
63,2.96e-01,0.00e+00,
64,3.04e-01,0.00e+00,
65,3.04e-01,0.00e+00,
66,3.04e-01,0.00e+00,
67,3.04e-01,0.00e+00,
68,3.04e-01,0.00e+00,
69,3.04e-01,0.00e+00,
70,3.04e-01,0.00e+00,
71,3.04e-01,0.00e+00,
72,2.96e-01,0.00e+00,
73,2.96e-01,0.00e+00,
74,2.96e-01,0.00e+00,
75,2.96e-01,0.00e+00,
76,2.96e-01,1.60e+00,
77,2.96e-01,1.60e+00,
78,2.96e-01,0.00e+00,
79,2.96e-01,0.00e+00,
80,2.96e-01,8.00e-01,
81,2.96e-01,8.00e-01,
82,2.96e-01,0.00e+00,
83,2.96e-01,0.00e+00,
84,2.96e-01,1.60e+00,
85,2.96e-01,1.60e+00,
86,2.96e-01,0.00e+00,
87,2.96e-01,0.00e+00,
88,3.04e-01,0.00e+00,
89,3.04e-01,0.00e+00,
90,3.04e-01,8.00e-01,
91,3.04e-01,8.00e-01,
92,2.96e-01,8.00e-01,
93,2.96e-01,8.00e-01,
94,2.96e-01,0.00e+00,
95,2.96e-01,0.00e+00,
96,2.96e-01,8.00e-01,
97,2.96e-01,8.00e-01,
98,2.96e-01,1.60e+00,
99,2.96e-01,1.60e+00,
100,2.96e-01,1.60e+00,
101,2.96e-01,1.60e+00,
102,2.96e-01,1.60e+00,
103,2.96e-01,1.60e+00,
104,3.04e-01,1.60e+00,
105,3.04e-01,1.60e+00,
106,3.04e-01,8.00e-01,
107,3.04e-01,8.00e-01,
108,3.04e-01,1.60e+00,
109,3.04e-01,1.60e+00,
110,2.96e-01,1.60e+00,
111,2.96e-01,1.60e+00,
112,2.96e-01,1.60e+00,
113,2.96e-01,1.60e+00,
114,2.96e-01,1.60e+00,
115,2.96e-01,1.60e+00,
116,3.04e-01,2.40e+00,
117,3.04e-01,2.40e+00,
118,3.04e-01,8.00e-01,
119,3.04e-01,8.00e-01,
120,2.96e-01,2.40e+00,
121,2.96e-01,2.40e+00,
122,3.04e-01,2.40e+00,
123,3.04e-01,2.40e+00,
124,2.96e-01,2.40e+00,
125,2.96e-01,2.40e+00,
126,3.04e-01,2.40e+00,
127,3.04e-01,2.40e+00,
128,2.96e-01,2.40e+00,
129,2.96e-01,2.40e+00,
130,3.04e-01,2.40e+00,
131,3.04e-01,2.40e+00,
132,3.04e-01,3.20e+00,
133,3.04e-01,3.20e+00,
134,3.04e-01,2.40e+00,
135,3.04e-01,2.40e+00,
136,2.96e-01,3.20e+00,
137,2.96e-01,3.20e+00,
138,2.96e-01,2.40e+00,
139,2.96e-01,2.40e+00,
140,2.88e-01,2.40e+00,
141,2.88e-01,2.40e+00,
142,3.04e-01,2.40e+00,
143,3.04e-01,2.40e+00,
144,2.96e-01,2.40e+00,
145,2.96e-01,2.40e+00,
146,2.96e-01,2.40e+00,
147,2.96e-01,2.40e+00,
148,2.88e-01,3.20e+00,
149,2.88e-01,3.20e+00,
150,3.04e-01,2.40e+00,
151,3.04e-01,2.40e+00,
152,3.04e-01,4.00e+00,
153,3.04e-01,4.00e+00,
154,2.96e-01,4.00e+00,
155,2.96e-01,4.00e+00,
156,2.88e-01,4.00e+00,
157,2.88e-01,4.00e+00,
158,2.96e-01,4.00e+00,
159,2.96e-01,4.00e+00,
160,3.04e-01,3.20e+00,
161,3.04e-01,3.20e+00,
162,2.96e-01,3.20e+00,
163,2.96e-01,3.20e+00,
164,2.88e-01,4.80e+00,
165,2.88e-01,4.80e+00,
166,2.96e-01,4.80e+00,
167,2.96e-01,4.80e+00,
168,3.04e-01,4.80e+00,
169,3.04e-01,4.80e+00,
170,2.96e-01,4.80e+00,
171,2.96e-01,4.80e+00,
172,2.88e-01,4.80e+00,
173,2.88e-01,4.80e+00,
174,3.04e-01,4.80e+00,
175,3.04e-01,4.80e+00,
176,2.96e-01,4.80e+00,
177,2.96e-01,4.80e+00,
178,3.04e-01,5.60e+00,
179,3.04e-01,5.60e+00,
180,2.88e-01,5.60e+00,
181,2.88e-01,5.60e+00,
182,2.88e-01,5.60e+00,
183,2.88e-01,5.60e+00,
184,2.96e-01,5.60e+00,
185,2.96e-01,5.60e+00,
186,2.88e-01,5.60e+00,
187,2.88e-01,5.60e+00,
188,2.88e-01,5.60e+00,
189,2.88e-01,5.60e+00,
190,2.88e-01,6.40e+00,
191,2.88e-01,6.40e+00,
192,2.88e-01,6.40e+00,
193,2.88e-01,6.40e+00,
194,2.88e-01,6.40e+00,
195,2.88e-01,6.40e+00,
196,2.88e-01,6.40e+00,
197,2.88e-01,6.40e+00,
198,2.88e-01,6.40e+00,
199,2.88e-01,6.40e+00,
200,2.88e-01,8.00e+00,
201,2.88e-01,8.00e+00,
202,2.88e-01,8.00e+00,
203,2.88e-01,8.00e+00,
204,2.88e-01,7.20e+00,
205,2.88e-01,7.20e+00,
206,2.88e-01,8.00e+00,
207,2.88e-01,8.00e+00,
208,2.88e-01,8.00e+00,
209,2.88e-01,8.00e+00,
210,2.96e-01,8.80e+00,
211,2.96e-01,8.80e+00,
212,2.88e-01,8.80e+00,
213,2.88e-01,8.80e+00,
214,2.88e-01,9.60e+00,
215,2.88e-01,9.60e+00,
216,2.96e-01,9.60e+00,
217,2.96e-01,9.60e+00,
218,2.88e-01,8.80e+00,
219,2.88e-01,8.80e+00,
220,2.80e-01,9.60e+00,
221,2.80e-01,9.60e+00,
222,2.80e-01,1.04e+01,
223,2.80e-01,1.04e+01,
224,2.80e-01,1.12e+01,
225,2.80e-01,1.12e+01,
226,2.80e-01,1.12e+01,
227,2.80e-01,1.12e+01,
228,2.80e-01,1.20e+01,
229,2.80e-01,1.20e+01,
230,2.80e-01,1.20e+01,
231,2.80e-01,1.20e+01,
232,2.80e-01,1.20e+01,
233,2.80e-01,1.20e+01,
234,2.80e-01,1.28e+01,
235,2.80e-01,1.28e+01,
236,2.72e-01,1.44e+01,
237,2.72e-01,1.44e+01,
238,2.72e-01,1.44e+01,
239,2.72e-01,1.44e+01,
240,2.72e-01,1.36e+01,
241,2.72e-01,1.36e+01,
242,2.72e-01,1.44e+01,
243,2.72e-01,1.44e+01,
244,2.72e-01,1.52e+01,
245,2.72e-01,1.52e+01,
246,2.72e-01,1.52e+01,
247,2.72e-01,1.52e+01,
248,2.64e-01,1.60e+01,
249,2.64e-01,1.60e+01,
250,2.64e-01,1.68e+01,
251,2.64e-01,1.68e+01,
252,2.56e-01,1.76e+01,
253,2.56e-01,1.76e+01,
254,2.56e-01,1.92e+01,
255,2.56e-01,1.92e+01,
256,2.56e-01,1.92e+01,
257,2.56e-01,1.92e+01,
258,2.56e-01,2.08e+01,
259,2.56e-01,2.08e+01,
260,2.32e-01,2.24e+01,
261,2.32e-01,2.24e+01,
262,2.32e-01,2.24e+01,
263,2.32e-01,2.24e+01,
264,2.00e-01,2.40e+01,
265,2.00e-01,2.40e+01,
266,1.84e-01,2.72e+01,
267,1.84e-01,2.72e+01,
268,1.60e-01,2.96e+01,
269,1.60e-01,2.96e+01,
270,1.36e-01,3.28e+01,
271,1.36e-01,3.28e+01,
272,1.12e-01,3.52e+01,
273,1.12e-01,3.52e+01,
274,8.00e-02,3.84e+01,
275,8.00e-02,3.84e+01,
276,3.20e-02,4.16e+01,
277,3.20e-02,4.16e+01,
278,0.00e+00,4.40e+01,
279,0.00e+00,4.40e+01,
280,-4.00e-02,4.72e+01,
281,-4.00e-02,4.72e+01,
282,-8.80e-02,5.04e+01,
283,-8.80e-02,5.04e+01,
284,-1.36e-01,5.28e+01,
285,-1.36e-01,5.28e+01,
286,-1.68e-01,5.52e+01,
287,-1.68e-01,5.52e+01,
288,-2.08e-01,5.84e+01,
289,-2.08e-01,5.84e+01,
290,-2.56e-01,6.00e+01,
291,-2.56e-01,6.00e+01,
292,-2.88e-01,6.24e+01,
293,-2.88e-01,6.24e+01,
294,-3.28e-01,6.40e+01,
295,-3.28e-01,6.40e+01,
296,-3.60e-01,6.56e+01,
297,-3.60e-01,6.56e+01,
298,-3.92e-01,6.64e+01,
299,-3.92e-01,6.64e+01,
300,-4.08e-01,6.88e+01,
301,-4.08e-01,6.88e+01,
302,-4.40e-01,6.96e+01,
303,-4.40e-01,6.96e+01,
304,-4.48e-01,6.96e+01,
305,-4.48e-01,6.96e+01,
306,-4.56e-01,6.96e+01,
307,-4.56e-01,6.96e+01,
308,-4.56e-01,6.88e+01,
309,-4.56e-01,6.88e+01,
310,-4.16e-01,6.72e+01,
311,-4.16e-01,6.72e+01,
312,-3.76e-01,6.40e+01,
313,-3.76e-01,6.40e+01,
314,-3.12e-01,6.00e+01,
315,-3.12e-01,6.00e+01,
316,-2.40e-01,5.44e+01,
317,-2.40e-01,5.44e+01,
318,-1.84e-01,4.88e+01,
319,-1.84e-01,4.88e+01,
320,-1.36e-01,4.24e+01,
321,-1.36e-01,4.24e+01,
322,-7.20e-02,3.68e+01,
323,-7.20e-02,3.68e+01,
324,-2.40e-02,3.20e+01,
325,-2.40e-02,3.20e+01,
326,1.60e-02,2.72e+01,
327,1.60e-02,2.72e+01,
328,4.00e-02,2.40e+01,
329,4.00e-02,2.40e+01,
330,6.40e-02,2.08e+01,
331,6.40e-02,2.08e+01,
332,8.80e-02,1.84e+01,
333,8.80e-02,1.84e+01,
334,1.04e-01,1.68e+01,
335,1.04e-01,1.68e+01,
336,1.20e-01,1.68e+01,
337,1.20e-01,1.68e+01,
338,1.36e-01,1.52e+01,
339,1.36e-01,1.52e+01,
340,1.28e-01,1.52e+01,
341,1.28e-01,1.52e+01,
342,1.36e-01,1.52e+01,
343,1.36e-01,1.52e+01,
344,1.36e-01,1.68e+01,
345,1.36e-01,1.68e+01,
346,1.28e-01,1.76e+01,
347,1.28e-01,1.76e+01,
348,1.12e-01,1.84e+01,
349,1.12e-01,1.84e+01,
350,8.80e-02,1.92e+01,
351,8.80e-02,1.92e+01,
352,7.20e-02,2.16e+01,
353,7.20e-02,2.16e+01,
354,4.80e-02,2.24e+01,
355,4.80e-02,2.24e+01,
356,1.60e-02,2.56e+01,
357,1.60e-02,2.56e+01,
358,-8.00e-03,2.72e+01,
359,-8.00e-03,2.72e+01,
360,-3.20e-02,3.04e+01,
361,-3.20e-02,3.04e+01,
362,-6.40e-02,3.28e+01,
363,-6.40e-02,3.28e+01,
364,-8.80e-02,3.44e+01,
365,-8.80e-02,3.44e+01,
366,-9.60e-02,3.60e+01,
367,-9.60e-02,3.60e+01,
368,-1.12e-01,3.68e+01,
369,-1.12e-01,3.68e+01,
370,-1.12e-01,3.76e+01,
371,-1.12e-01,3.76e+01,
372,-1.28e-01,3.84e+01,
373,-1.28e-01,3.84e+01,
374,-1.20e-01,3.84e+01,
375,-1.20e-01,3.84e+01,
376,-1.04e-01,3.76e+01,
377,-1.04e-01,3.76e+01,
378,-9.60e-02,3.68e+01,
379,-9.60e-02,3.68e+01,
380,-8.80e-02,3.60e+01,
381,-8.80e-02,3.60e+01,
382,-7.20e-02,3.44e+01,
383,-7.20e-02,3.44e+01,
384,-5.60e-02,3.28e+01,
385,-5.60e-02,3.28e+01,
386,-4.00e-02,3.12e+01,
387,-4.00e-02,3.12e+01,
388,-3.20e-02,3.04e+01,
389,-3.20e-02,3.04e+01,
390,-8.00e-03,2.88e+01,
391,-8.00e-03,2.88e+01,
392,0.00e+00,2.80e+01,
393,0.00e+00,2.80e+01,
394,8.00e-03,2.72e+01,
395,8.00e-03,2.72e+01,
396,1.60e-02,2.56e+01,
397,1.60e-02,2.56e+01,
398,3.20e-02,2.56e+01,
399,3.20e-02,2.56e+01,
400,3.20e-02,2.48e+01,
401,3.20e-02,2.48e+01,
402,2.40e-02,2.40e+01,
403,2.40e-02,2.40e+01,
404,2.40e-02,2.40e+01,
405,2.40e-02,2.40e+01,
406,3.20e-02,2.48e+01,
407,3.20e-02,2.48e+01,
408,2.40e-02,2.48e+01,
409,2.40e-02,2.48e+01,
410,2.40e-02,2.48e+01,
411,2.40e-02,2.48e+01,
412,1.60e-02,2.48e+01,
413,1.60e-02,2.48e+01,
414,8.00e-03,2.64e+01,
415,8.00e-03,2.64e+01,
416,8.00e-03,2.56e+01,
417,8.00e-03,2.56e+01,
418,0.00e+00,2.72e+01,
419,0.00e+00,2.72e+01,
420,-8.00e-03,2.80e+01,
421,-8.00e-03,2.80e+01,
422,-1.60e-02,2.88e+01,
423,-1.60e-02,2.88e+01,
424,-2.40e-02,2.88e+01,
425,-2.40e-02,2.88e+01,
426,-2.40e-02,2.96e+01,
427,-2.40e-02,2.96e+01,
428,-3.20e-02,3.12e+01,
429,-3.20e-02,3.12e+01,
430,-4.00e-02,3.04e+01,
431,-4.00e-02,3.04e+01,
432,-3.20e-02,3.04e+01,
433,-3.20e-02,3.04e+01,
434,-4.00e-02,3.20e+01,
435,-4.00e-02,3.20e+01,
436,-4.00e-02,3.12e+01,
437,-4.00e-02,3.12e+01,
438,-4.80e-02,3.12e+01,
439,-4.80e-02,3.12e+01,
440,-3.20e-02,3.12e+01,
441,-3.20e-02,3.12e+01,
442,-3.20e-02,3.12e+01,
443,-3.20e-02,3.12e+01,
444,-3.20e-02,3.04e+01,
445,-3.20e-02,3.04e+01,
446,-2.40e-02,2.96e+01,
447,-2.40e-02,2.96e+01,
448,-2.40e-02,2.96e+01,
449,-2.40e-02,2.96e+01,
450,-1.60e-02,2.96e+01,
451,-1.60e-02,2.96e+01,
452,-1.60e-02,2.88e+01,
453,-1.60e-02,2.88e+01,
454,-8.00e-03,2.88e+01,
455,-8.00e-03,2.88e+01,
456,-8.00e-03,2.80e+01,
457,-8.00e-03,2.80e+01,
458,-8.00e-03,2.80e+01,
459,-8.00e-03,2.80e+01,
460,-8.00e-03,2.80e+01,
461,-8.00e-03,2.80e+01,
462,0.00e+00,2.80e+01,
463,0.00e+00,2.80e+01,
464,0.00e+00,2.72e+01,
465,0.00e+00,2.72e+01,
466,0.00e+00,2.80e+01,
467,0.00e+00,2.80e+01,
468,0.00e+00,2.80e+01,
469,0.00e+00,2.80e+01,
470,0.00e+00,2.72e+01,
471,0.00e+00,2.72e+01,
472,0.00e+00,2.80e+01,
473,0.00e+00,2.80e+01,
474,0.00e+00,2.80e+01,
475,0.00e+00,2.80e+01,
476,-8.00e-03,2.80e+01,
477,-8.00e-03,2.80e+01,
478,-8.00e-03,2.80e+01,
479,-8.00e-03,2.80e+01,
480,-8.00e-03,2.80e+01,
481,-8.00e-03,2.80e+01,
482,-8.00e-03,2.80e+01,
483,-8.00e-03,2.80e+01,
484,-1.60e-02,2.96e+01,
485,-1.60e-02,2.96e+01,
486,-1.60e-02,2.96e+01,
487,-1.60e-02,2.96e+01,
488,-1.60e-02,2.96e+01,
489,-1.60e-02,2.96e+01,
490,-1.60e-02,2.96e+01,
491,-1.60e-02,2.96e+01,
492,-1.60e-02,2.88e+01,
493,-1.60e-02,2.88e+01,
494,-1.60e-02,2.88e+01,
495,-1.60e-02,2.88e+01,
496,-1.60e-02,2.88e+01,
497,-1.60e-02,2.88e+01,
498,-1.60e-02,2.96e+01,
499,-1.60e-02,2.96e+01,
500,-2.40e-02,2.96e+01,
501,-2.40e-02,2.96e+01,
502,-1.60e-02,2.88e+01,
503,-1.60e-02,2.88e+01,
504,-1.60e-02,2.88e+01,
505,-1.60e-02,2.88e+01,
506,-1.60e-02,2.88e+01,
507,-1.60e-02,2.88e+01,
508,-1.60e-02,2.88e+01,
509,-1.60e-02,2.88e+01,
510,-1.60e-02,2.88e+01,
511,-1.60e-02,2.88e+01,
512,-1.60e-02,2.88e+01,
513,-1.60e-02,2.88e+01,
514,-1.60e-02,2.88e+01,
515,-1.60e-02,2.88e+01,
516,-1.60e-02,2.88e+01,
517,-1.60e-02,2.88e+01,
518,-8.00e-03,2.88e+01,
519,-8.00e-03,2.88e+01,
520,-8.00e-03,2.80e+01,
521,-8.00e-03,2.80e+01,
522,-8.00e-03,2.88e+01,
523,-8.00e-03,2.88e+01,
524,-8.00e-03,2.88e+01,
525,-8.00e-03,2.88e+01,
526,-8.00e-03,2.80e+01,
527,-8.00e-03,2.80e+01,
528,-8.00e-03,2.80e+01,
529,-8.00e-03,2.80e+01,
530,-8.00e-03,2.80e+01,
531,-8.00e-03,2.80e+01,
532,-8.00e-03,2.80e+01,
533,-8.00e-03,2.80e+01,
534,-8.00e-03,2.80e+01,
535,-8.00e-03,2.80e+01,
536,-8.00e-03,2.80e+01,
537,-8.00e-03,2.80e+01,
538,-8.00e-03,2.80e+01,
539,-8.00e-03,2.80e+01,
540,-8.00e-03,2.88e+01,
541,-8.00e-03,2.88e+01,
542,-8.00e-03,2.72e+01,
543,-8.00e-03,2.72e+01,
544,-8.00e-03,2.80e+01,
545,-8.00e-03,2.80e+01,
546,-8.00e-03,2.88e+01,
547,-8.00e-03,2.88e+01,
548,-8.00e-03,2.88e+01,
549,-8.00e-03,2.88e+01,
550,-8.00e-03,2.88e+01,
551,-8.00e-03,2.88e+01,
552,-1.60e-02,2.88e+01,
553,-1.60e-02,2.88e+01,
554,-8.00e-03,2.88e+01,
555,-8.00e-03,2.88e+01,
556,-1.60e-02,2.88e+01,
557,-1.60e-02,2.88e+01,
558,-2.40e-02,2.88e+01,
559,-2.40e-02,2.88e+01,
560,-1.60e-02,2.88e+01,
561,-1.60e-02,2.88e+01,
562,-8.00e-03,2.88e+01,
563,-8.00e-03,2.88e+01,
564,-1.60e-02,2.88e+01,
565,-1.60e-02,2.88e+01,
566,-1.60e-02,2.88e+01,
567,-1.60e-02,2.88e+01,
568,-8.00e-03,2.88e+01,
569,-8.00e-03,2.88e+01,
570,-8.00e-03,2.88e+01,
571,-8.00e-03,2.88e+01,
572,-2.40e-02,2.96e+01,
573,-2.40e-02,2.96e+01,
574,-8.00e-03,2.88e+01,
575,-8.00e-03,2.88e+01,
576,-8.00e-03,2.88e+01,
577,-8.00e-03,2.88e+01,
578,-8.00e-03,2.88e+01,
579,-8.00e-03,2.88e+01,
580,-8.00e-03,2.88e+01,
581,-8.00e-03,2.88e+01,
582,-8.00e-03,2.80e+01,
583,-8.00e-03,2.80e+01,
584,-8.00e-03,2.80e+01,
585,-8.00e-03,2.80e+01,
586,-8.00e-03,2.88e+01,
587,-8.00e-03,2.88e+01,
588,-8.00e-03,2.88e+01,
589,-8.00e-03,2.88e+01,
590,-8.00e-03,2.80e+01,
591,-8.00e-03,2.80e+01,
592,-8.00e-03,2.80e+01,
593,-8.00e-03,2.80e+01,
594,-8.00e-03,2.88e+01,
595,-8.00e-03,2.88e+01,
596,-8.00e-03,2.88e+01,
597,-8.00e-03,2.88e+01,
598,-8.00e-03,2.80e+01,
599,-8.00e-03,2.80e+01,
600,-1.60e-02,2.88e+01,
601,-1.60e-02,2.88e+01,
602,-1.60e-02,2.88e+01,
603,-1.60e-02,2.88e+01,
604,-1.60e-02,2.88e+01,
605,-1.60e-02,2.88e+01,
606,-1.60e-02,2.88e+01,
607,-1.60e-02,2.88e+01,
608,-8.00e-03,2.80e+01,
609,-8.00e-03,2.80e+01,
610,-8.00e-03,2.88e+01,
611,-8.00e-03,2.88e+01,
612,-8.00e-03,2.88e+01,
613,-8.00e-03,2.88e+01,
614,-8.00e-03,2.88e+01,
615,-8.00e-03,2.88e+01,
616,-8.00e-03,2.88e+01,
617,-8.00e-03,2.88e+01,
618,-8.00e-03,2.88e+01,
619,-8.00e-03,2.88e+01,
620,-1.60e-02,2.88e+01,
621,-1.60e-02,2.88e+01,
622,-8.00e-03,2.88e+01,
623,-8.00e-03,2.88e+01,
624,-8.00e-03,2.80e+01,
625,-8.00e-03,2.80e+01,
626,-8.00e-03,2.88e+01,
627,-8.00e-03,2.88e+01,
628,-8.00e-03,2.88e+01,
629,-8.00e-03,2.88e+01,
630,-8.00e-03,2.88e+01,
631,-8.00e-03,2.88e+01,
632,-8.00e-03,2.88e+01,
633,-8.00e-03,2.88e+01,
634,-8.00e-03,2.88e+01,
635,-8.00e-03,2.88e+01,
636,-1.60e-02,2.88e+01,
637,-1.60e-02,2.88e+01,
638,-1.60e-02,2.72e+01,
639,-1.60e-02,2.72e+01,
640,-8.00e-03,2.88e+01,
641,-8.00e-03,2.88e+01,
642,-8.00e-03,2.88e+01,
643,-8.00e-03,2.88e+01,
644,-8.00e-03,2.88e+01,
645,-8.00e-03,2.88e+01,
646,-8.00e-03,2.80e+01,
647,-8.00e-03,2.80e+01,
648,-8.00e-03,2.80e+01,
649,-8.00e-03,2.80e+01,
650,-8.00e-03,2.88e+01,
651,-8.00e-03,2.88e+01,
652,-8.00e-03,2.88e+01,
653,-8.00e-03,2.88e+01,
654,-8.00e-03,2.80e+01,
655,-8.00e-03,2.80e+01,
656,-8.00e-03,2.80e+01,
657,-8.00e-03,2.80e+01,
658,-8.00e-03,2.88e+01,
659,-8.00e-03,2.88e+01,
660,-1.60e-02,2.88e+01,
661,-1.60e-02,2.88e+01,
662,-8.00e-03,2.88e+01,
663,-8.00e-03,2.88e+01,
664,-8.00e-03,2.80e+01,
665,-8.00e-03,2.80e+01,
666,-8.00e-03,2.88e+01,
667,-8.00e-03,2.88e+01,
668,-8.00e-03,2.88e+01,
669,-8.00e-03,2.88e+01,
670,-8.00e-03,2.88e+01,
671,-8.00e-03,2.88e+01,
672,-8.00e-03,2.80e+01,
673,-8.00e-03,2.80e+01,
674,-8.00e-03,2.88e+01,
675,-8.00e-03,2.88e+01,
676,-8.00e-03,2.88e+01,
677,-8.00e-03,2.88e+01,
678,-8.00e-03,2.80e+01,
679,-8.00e-03,2.80e+01,
680,-8.00e-03,2.88e+01,
681,-8.00e-03,2.88e+01,
682,-8.00e-03,2.88e+01,
683,-8.00e-03,2.88e+01,
684,-8.00e-03,2.88e+01,
685,-8.00e-03,2.88e+01,
686,-8.00e-03,2.80e+01,
687,-8.00e-03,2.80e+01,
688,-8.00e-03,2.80e+01,
689,-8.00e-03,2.80e+01,
690,-8.00e-03,2.88e+01,
691,-8.00e-03,2.88e+01,
692,-8.00e-03,2.88e+01,
693,-8.00e-03,2.88e+01,
694,-8.00e-03,2.88e+01,
695,-8.00e-03,2.88e+01,
696,-8.00e-03,2.88e+01,
697,-8.00e-03,2.88e+01,
698,-8.00e-03,2.88e+01,
699,-8.00e-03,2.88e+01,
700,-8.00e-03,2.88e+01,
701,-8.00e-03,2.88e+01,
702,-8.00e-03,2.88e+01,
703,-8.00e-03,2.88e+01,
704,-8.00e-03,2.80e+01,
705,-8.00e-03,2.80e+01,
706,-8.00e-03,2.96e+01,
707,-8.00e-03,2.96e+01,
708,-8.00e-03,2.96e+01,
709,-8.00e-03,2.96e+01,
710,-8.00e-03,2.96e+01,
711,-8.00e-03,2.96e+01,
712,-8.00e-03,2.88e+01,
713,-8.00e-03,2.88e+01,
714,-8.00e-03,2.88e+01,
715,-8.00e-03,2.88e+01,
716,-8.00e-03,2.88e+01,
717,-8.00e-03,2.88e+01,
718,-8.00e-03,2.80e+01,
719,-8.00e-03,2.80e+01,
720,-8.00e-03,2.88e+01,
721,-8.00e-03,2.88e+01,
722,-8.00e-03,2.88e+01,
723,-8.00e-03,2.88e+01,
724,-8.00e-03,2.88e+01,
725,-8.00e-03,2.88e+01,
726,-8.00e-03,2.88e+01,
727,-8.00e-03,2.88e+01,
728,-8.00e-03,2.80e+01,
729,-8.00e-03,2.80e+01,
730,-8.00e-03,2.88e+01,
731,-8.00e-03,2.88e+01,
732,-1.60e-02,2.88e+01,
733,-1.60e-02,2.88e+01,
734,-1.60e-02,2.80e+01,
735,-1.60e-02,2.80e+01,
736,-1.60e-02,2.80e+01,
737,-1.60e-02,2.80e+01,
738,-1.60e-02,2.88e+01,
739,-1.60e-02,2.88e+01,
740,-2.40e-02,2.88e+01,
741,-2.40e-02,2.88e+01,
742,-1.60e-02,2.88e+01,
743,-1.60e-02,2.88e+01,
744,-1.60e-02,2.80e+01,
745,-1.60e-02,2.80e+01,
746,-8.00e-03,2.88e+01,
747,-8.00e-03,2.88e+01,
748,-8.00e-03,2.88e+01,
749,-8.00e-03,2.88e+01,
750,-8.00e-03,2.80e+01,
751,-8.00e-03,2.80e+01,
752,-1.60e-02,2.80e+01,
753,-1.60e-02,2.80e+01,
754,-1.60e-02,2.88e+01,
755,-1.60e-02,2.88e+01,
756,-1.60e-02,2.88e+01,
757,-1.60e-02,2.88e+01,
758,-1.60e-02,2.80e+01,
759,-1.60e-02,2.80e+01,
760,-8.00e-03,2.80e+01,
761,-8.00e-03,2.80e+01,
762,-8.00e-03,2.88e+01,
763,-8.00e-03,2.88e+01,
764,-8.00e-03,2.80e+01,
765,-8.00e-03,2.80e+01,
766,-8.00e-03,2.80e+01,
767,-8.00e-03,2.80e+01,
768,-8.00e-03,2.80e+01,
769,-8.00e-03,2.80e+01,
770,-8.00e-03,2.88e+01,
771,-8.00e-03,2.88e+01,
772,-1.60e-02,2.88e+01,
773,-1.60e-02,2.88e+01,
774,-8.00e-03,2.80e+01,
775,-8.00e-03,2.80e+01,
776,-8.00e-03,2.88e+01,
777,-8.00e-03,2.88e+01,
778,-8.00e-03,2.88e+01,
779,-8.00e-03,2.88e+01,
780,-2.40e-02,2.88e+01,
781,-2.40e-02,2.88e+01,
782,-1.60e-02,2.80e+01,
783,-1.60e-02,2.80e+01,
784,-1.60e-02,2.80e+01,
785,-1.60e-02,2.80e+01,
786,-8.00e-03,2.88e+01,
787,-8.00e-03,2.88e+01,
788,-8.00e-03,2.88e+01,
789,-8.00e-03,2.88e+01,
790,-8.00e-03,2.80e+01,
791,-8.00e-03,2.80e+01,
792,-8.00e-03,2.88e+01,
793,-8.00e-03,2.88e+01,
794,-8.00e-03,2.72e+01,
795,-8.00e-03,2.72e+01,
796,-8.00e-03,2.88e+01,
797,-8.00e-03,2.88e+01,
798,-8.00e-03,2.80e+01,
799,-8.00e-03,2.80e+01,
800,-8.00e-03,2.80e+01,
801,-8.00e-03,2.80e+01,
802,-8.00e-03,2.88e+01,
803,-8.00e-03,2.88e+01,
804,-8.00e-03,2.88e+01,
805,-8.00e-03,2.88e+01,
806,-8.00e-03,2.80e+01,
807,-8.00e-03,2.80e+01,
808,-8.00e-03,2.88e+01,
809,-8.00e-03,2.88e+01,
810,-8.00e-03,2.80e+01,
811,-8.00e-03,2.80e+01,
812,-1.60e-02,2.88e+01,
813,-1.60e-02,2.88e+01,
814,-1.60e-02,2.88e+01,
815,-1.60e-02,2.88e+01,
816,-8.00e-03,2.80e+01,
817,-8.00e-03,2.80e+01,
818,-8.00e-03,2.88e+01,
819,-8.00e-03,2.88e+01,
820,-8.00e-03,2.88e+01,
821,-8.00e-03,2.88e+01,
822,-8.00e-03,2.80e+01,
823,-8.00e-03,2.80e+01,
824,-8.00e-03,2.80e+01,
825,-8.00e-03,2.80e+01,
826,-8.00e-03,2.88e+01,
827,-8.00e-03,2.88e+01,
828,-8.00e-03,2.88e+01,
829,-8.00e-03,2.88e+01,
830,-8.00e-03,2.80e+01,
831,-8.00e-03,2.80e+01,
832,-8.00e-03,2.80e+01,
833,-8.00e-03,2.80e+01,
834,-8.00e-03,2.80e+01,
835,-8.00e-03,2.80e+01,
836,-1.60e-02,2.88e+01,
837,-1.60e-02,2.88e+01,
838,-1.60e-02,2.80e+01,
839,-1.60e-02,2.80e+01,
840,-8.00e-03,2.80e+01,
841,-8.00e-03,2.80e+01,
842,-8.00e-03,2.88e+01,
843,-8.00e-03,2.88e+01,
844,-8.00e-03,2.88e+01,
845,-8.00e-03,2.88e+01,
846,-8.00e-03,2.80e+01,
847,-8.00e-03,2.80e+01,
848,-8.00e-03,2.80e+01,
