LB10_data/LB10_stepresponse.csv

#Digilent WaveForms Oscilloscope Acquisition
#Device Name: Discovery2
#Serial Number: DEMO
#Date Time: 2021-12-02 11:32:32.970
#Sample rate: 1.5873e+06Hz
#Samples: 8192
#Trigger: Source: Channel 1 Type: Edge Condition: Rising Level: 0 V Hyst.: Auto HoldOff: 0 s
#Channel 1: Range: 1 V/div Offset: 100 mV Attenuation: 1 X
#Channel 2: Range: 1 V/div Offset: 9.7 V Attenuation: 1 X
#Wavegen Channel 1: Enabled
#Mode: Simple
#Type: Square
#Frequency: 1 kHz
#Amplitude: 500 mV
#Offset: 0 V
#Symmetry: 50 %
#Phase: 0 °

Time (s),Channel 1 (V),Channel 2 (V)
-0.002580133043478261,0.2541068454948103,-9.607462876510992
-0.002579503043478261,0.2578036654132118,-9.566849470525414
-0.002578873043478261,0.2578036654132134,-9.515159681089182
-0.002578243043478261,0.2615004853316147,-9.470854147286692
-0.002577613043478261,0.2615004853316147,-9.422856485667372
-0.002576983043478261,0.2615004853316147,-9.38962733531552
-0.002576353043478261,0.2541068454948137,-9.345321801513071
-0.002575723043478261,0.2578036654132134,-9.293632012076838
-0.002575093043478261,0.2615004853316147,-9.249326478274369
-0.002574463043478261,0.2578036654132151,-9.20502094447192
-0.002573833043478261,0.2615004853316147,-9.160715410669432
-0.002573203043478261,0.2615004853316131,-9.109025621233199
-0.002572573043478261,0.2578036654132134,-9.06472008743075
-0.002571943043478261,0.2615004853316147,-9.024106681445152
-0.002571313043478261,0.2651973052500178,-8.976109019825792
-0.002570683043478261,0.2651973052500178,-8.931803486023343
-0.002570053043478261,0.2688941251684209,-8.95764838074145
-0.002569423043478261,0.2651973052500195,-9.064720087430702
-0.002568793043478261,0.2615004853316147,-9.186560305387538
-0.002568163043478261,0.2615004853316164,-9.289939884260011
-0.002567533043478261,0.2651973052500178,-9.38962733531552
-0.002566903043478261,0.2615004853316147,-9.474546275103584
-0.002566273043478261,0.2578036654132134,-9.548388831441061
-0.002565643043478261,0.2578036654132134,-9.611155004327864
-0.002565013043478261,0.2541068454948103,-9.648076282496588
-0.002564383043478261,0.2578036654132118,-9.688689688482166
-0.002563753043478261,0.2541068454948103,-9.707150327566547
-0.002563123043478261,0.2541068454948087,-9.72191883883403
-0.002562493043478261,0.250410025576409,-9.710842455383419
-0.002561863043478261,0.2541068454948103,-9.707150327566547
-0.002561233043478261,0.2578036654132118,-9.673921177214678
-0.002560603043478261,0.2541068454948103,-9.636999899045971
-0.002559973043478261,0.2541068454948103,-9.592694365243501
-0.002559343043478261,0.2578036654132118,-9.555773087074794
-0.002558713043478261,0.2541068454948103,-9.493006914187948
-0.002558083043478261,0.2541068454948103,-9.459777763836096
-0.002557453043478261,0.2541068454948103,-9.411780102216754
-0.002556823043478261,0.2578036654132134,-9.382243079681775
-0.002556193043478261,0.2615004853316147,-9.326861162428671
-0.002555563043478261,0.2615004853316147,-9.28255562862622
-0.002554933043478261,0.2541068454948103,-9.234557967006879
-0.002554303043478261,0.2541068454948103,-9.19025243320443
-0.002553673043478261,0.2541068454948103,-9.138562643768196
-0.002553043043478261,0.2541068454948103,-9.101641365599473
-0.002552413043478261,0.2541068454948103,-9.057335831797005
-0.002551783043478261,0.2541068454948103,-9.005646042360791
-0.002551153043478261,0.2578036654132151,-8.961340508558306
-0.002550523043478261,0.2615004853316147,-8.92811135820647
-0.002549893043478261,0.2578036654132134,-9.005646042360791
-0.002549263043478261,0.2578036654132134,-9.112717749050043
-0.002548633043478261,0.2578036654132134,-9.238250094823751
-0.002548003043478261,0.2541068454948103,-9.334245418062434
-0.002547373043478261,0.2615004853316114,-9.430240741301072
-0.002546743043478261,0.2578036654132134,-9.507775425455437
-0.002546113043478261,0.2578036654132151,-9.574233726159161
-0.002545483043478261,0.2615004853316147,-9.622231387778481
-0.002544853043478261,0.2578036654132134,-9.666536921580949
-0.002544223043478261,0.254106845494812,-9.696073944115915
-0.002543593043478261,0.2578036654132134,-9.71453458320029
-0.002542963043478261,0.2615004853316147,-9.718226711017163
-0.002542333043478261,0.2578036654132151,-9.707150327566552
-0.002541703043478261,0.2541068454948103,-9.692381816299056
-0.002541073043478261,0.2578036654132118,-9.66284479376406
-0.002540443043478261,0.2541068454948103,-9.622231387778481
-0.002539813043478261,0.2578036654132134,-9.581617981792885
-0.002539183043478261,0.2578036654132134,-9.537312447990436
-0.002538553043478261,0.2541068454948103,-9.478238402920457
-0.002537923043478261,0.2578036654132134,-9.437624996934861
-0.002537293043478261,0.254106845494812,-9.397011590949283
-0.002536663043478261,0.2541068454948103,-9.363782440597413
-0.002536033043478261,0.2467132056580076,-9.312092651161182
-0.002535403043478261,0.250410025576409,-9.271479245175604
-0.002534773043478261,0.2541068454948103,-9.21978945573939
-0.002534143043478261,0.2541068454948087,-9.171791794120029
-0.002533513043478261,0.250410025576409,-9.12748626031758
-0.002532883043478261,0.250410025576409,-9.086872854331984
-0.002532253043478261,0.2541068454948087,-9.042567320529534
-0.002531623043478261,0.2541068454948103,-8.994569658910173
-0.002530993043478261,0.254106845494812,-8.950264125107704
-0.002530363043478261,0.2578036654132134,-8.950264125107704
-0.002529733043478261,0.2541068454948103,-9.053643703980132
-0.002529103043478261,0.2615004853316131,-9.175483921936971
-0.002528473043478261,0.2578036654132134,-9.286247756443093
-0.002527843043478261,0.2578036654132134,-9.378550951864902
-0.002527213043478261,0.2578036654132134,-9.4671620194698
-0.002526583043478261,0.2578036654132134,-9.533620320173544
-0.002525953043478261,0.2541068454948103,-9.600078620877246
-0.002525323043478261,0.250410025576409,-9.640692026862842
-0.002524693043478261,0.2541068454948103,-9.684997560665312
-0.002524063043478261,0.2467132056580076,-9.703458199749685
-0.002523433043478261,0.250410025576409,-9.725610966650908
-0.002522803043478261,0.250410025576409,-9.718226711017163
-0.002522173043478261,0.2541068454948087,-9.707150327566552
-0.002521543043478261,0.250410025576409,-9.68130543284844
-0.002520913043478261,0.2541068454948103,-9.655460538130333
-0.002520283043478261,0.2541068454948103,-9.607462876510992
-0.002519653043478261,0.2541068454948103,-9.570541598342267
-0.002519023043478261,0.2541068454948103,-9.515159681089164
-0.002518393043478261,0.2541068454948103,-9.474546275103584
-0.002517763043478261,0.250410025576409,-9.426548613484243
-0.002517133043478261,0.25780366541321,-9.389627335315536
-0.002516503043478261,0.2578036654132134,-9.341629673696179
-0.002515873043478261,0.2541068454948103,-9.301016267710583
-0.002515243043478261,0.2578036654132118,-9.253018606091263
-0.002514613043478261,0.2578036654132134,-9.197636688838156
-0.002513983043478261,0.2578036654132134,-9.157023282852537
-0.002513353043478261,0.2578036654132134,-9.105333493416346
-0.002512723043478261,0.2578036654132134,-9.068412215247621
-0.002512093043478261,0.2578036654132134,-9.016722425811432
-0.002511463043478261,0.2578036654132134,-8.976109019825811
-0.002510833043478261,0.2578036654132134,-8.939187741657088
-0.002510203043478261,0.2578036654132134,-8.987185403276408
-0.002509573043478261,0.2541068454948103,-9.097949237782601
-0.002508943043478261,0.2578036654132134,-9.227173711373181
-0.002508313043478261,0.2578036654132134,-9.32686116242869
-0.002507683043478261,0.2615004853316147,-9.4191643578505
-0.002507053043478261,0.2541068454948137,-9.500391169821654
-0.002506423043478261,0.2541068454948103,-9.566849470525396
-0.002505793043478261,0.2578036654132134,-9.618539259961608
-0.002505163043478261,0.2615004853316131,-9.670229049397799
-0.002504533043478261,0.2541068454948103,-9.699766071932801
-0.002503903043478261,0.2578036654132134,-9.718226711017168
-0.002503273043478261,0.2578036654132134,-9.729303094467781
-0.002502643043478261,0.2541068454948103,-9.725610966650908
-0.002502013043478261,0.2541068454948103,-9.707150327566531
-0.002501383043478261,0.2541068454948103,-9.670229049397822
-0.002500753043478261,0.250410025576409,-9.636999899045971
-0.002500123043478261,-0.2634479430812861,-9.596386493060391
-0.002499493043478261,-0.4926507780224654,-9.559465214891651
-0.002498863043478261,-0.4963475979408685,-9.500391169821675
-0.002498233043478261,-0.4963475979408685,-9.463469891652968
-0.002497603043478261,-0.5000444178592698,-9.415472230033627
-0.002496973043478261,-0.4963475979408685,-9.374858824048008
-0.002496343043478261,-0.4963475979408685,-9.323169034611817
-0.002495713043478261,-0.5000444178592698,-9.278863500809349
-0.002495083043478261,-0.5037412377776712,-9.230865839190029
-0.002494453043478261,-0.5000444178592698,-9.182868177570667
-0.002493823043478261,-0.5000444178592698,-9.138562643768175
-0.002493193043478261,-0.5000444178592698,-9.090564982148855
-0.002492563043478261,-0.4963475979408685,-9.053643703980132
-0.002491933043478261,-0.5000444178592698,-9.005646042360771
-0.002491303043478261,-0.5000444178592698,-8.961340508558322
-0.002490673043478261,-0.4963475979408685,-8.917034974755854
-0.002490043043478261,-0.4963475979408685,-8.90226646348837
-0.002489413043478261,-0.5000444178592698,-9.009338170177664
-0.002488783043478261,-0.5037412377776729,-9.138562643768196
-0.002488153043478261,-0.5000444178592698,-9.271479245175604
-0.002487523043478261,-0.5000444178592698,-9.38962733531552
-0.002486893043478261,-0.4963475979408685,-9.496699042004858
-0.002486263043478261,-0.4963475979408685,-9.581617981792885
-0.002485633043478261,-0.5000444178592698,-9.670229049397822
-0.002485003043478261,-0.5000444178592698,-9.725610966650883
-0.002484373043478261,-0.5000444178592698,-9.784685011720866
-0.002483743043478261,-0.5000444178592698,-9.825298417706463
-0.002483113043478261,-0.5000444178592698,-9.865911823692059
-0.002482483043478261,-0.5000444178592698,-9.876988207142677
-0.002481853043478261,-0.5000444178592681,-9.884372462776415
-0.002481223043478261,-0.4963475979408685,-9.873296079325804
-0.002480593043478261,-0.4963475979408685,-9.85114331242457
-0.002479963043478261,-0.4889539581040657,-9.821606289889605
-0.002479333043478261,-0.4926507780224654,-9.773608628270249
-0.002478703043478261,-0.4963475979408685,-9.732995222284654
-0.002478073043478261,-0.4963475979408685,-9.688689688482203
-0.002477443043478261,-0.4963475979408685,-9.65176841031346
-0.002476813043478261,-0.4963475979408685,-9.600078620877225
-0.002476183043478261,-0.4963475979408685,-9.552080959257905
-0.002475553043478261,-0.5000444178592698,-9.500391169821691
-0.002474923043478261,-0.5000444178592698,-9.456085636019242
-0.002474293043478261,-0.5000444178592698,-9.404395846583009
-0.002473663043478261,-0.4963475979408685,-9.360090312780541
-0.002473033043478261,-0.4963475979408685,-9.315784778978092
-0.002472403043478261,-0.5000444178592698,-9.267787117358731
-0.002471773043478261,-0.5037412377776712,-9.21978945573937
-0.002471143043478261,-0.5000444178592698,-9.175483921936921
-0.002470513043478261,-0.4963475979408685,-9.123794132500707
-0.002469883043478261,-0.4963475979408685,-9.101641365599484
-0.002469253043478261,-0.5000444178592698,-9.205020944471901
-0.002468623043478261,-0.5000444178592698,-9.352706057146797
-0.002467993043478261,-0.5000444178592698,-9.500391169821624
-0.002467363043478261,-0.4963475979408685,-9.614847132144737
-0.002466733043478261,-0.4926507780224654,-9.732995222284696
-0.002466103043478261,-0.4926507780224654,-9.825298417706463
-0.002465473043478261,-0.4963475979408685,-9.917601613128273
-0.002464843043478261,-0.4963475979408685,-9.987752041648877
-0.002464213043478261,-0.4963475979408685,-10.05051821453568
-0.002463583043478261,-0.5000444178592698,-10.0874394927044
-0.002462953043478261,-0.5000444178592698,-10.12436077087311
-0.002462323043478261,-0.4963475979408685,-10.14282140995749
-0.002461693043478261,-0.4926507780224688,-10.15758992122498
-0.002461063043478261,-0.5000444178592698,-10.15389779340811
-0.002460433043478261,-0.5000444178592698,-10.13543715432374
-0.002459803043478261,-0.4963475979408685,-10.10590013178875
-0.002459173043478261,-0.4963475979408685,-10.06528672580317
-0.002458543043478261,-0.4963475979408685,-10.0209811920007
-0.002457913043478261,-0.5000444178592681,-9.984059913831992
-0.002457283043478261,-0.4963475979408685,-9.936062252212635
-0.002456653043478261,-0.4926507780224654,-9.884372462776421
-0.002456023043478261,-0.4926507780224654,-9.83637480115708
-0.002455393043478261,-0.4926507780224654,-9.780992883903995
-0.002454763043478261,-0.4926507780224637,-9.732995222284631
-0.002454133043478261,-0.4889539581040623,-9.68130543284844
-0.002453503043478261,-0.4926507780224654,-9.636999899045971
-0.002452873043478261,-0.4926507780224654,-9.585310109609781
-0.002452243043478261,-0.4889539581040623,-9.537312447990416
-0.002451613043478261,-0.4889539581040623,-9.48193053073733
-0.002450983043478261,-0.4926507780224654,-9.441317124751734
-0.002450353043478261,-0.4926507780224654,-9.38962733531552
-0.002449723043478261,-0.4889539581040657,-9.411780102216813
-0.002449093043478261,-0.4963475979408685,-9.541004575807289
-0.002448463043478261,-0.5000444178592698,-9.688689688482183
-0.002447833043478261,-0.5000444178592698,-9.82160628988953
-0.002447203043478261,-0.5000444178592698,-9.939754380029507
-0.002446573043478261,-0.4963475979408685,-10.05421034235255
-0.002445943043478261,-0.4963475979408685,-10.14651353777432
-0.002445313043478261,-0.4963475979408685,-10.22404822192868
-0.002444683043478261,-0.492650778022467,-10.28312226699867
-0.002444053043478261,-0.4963475979408685,-10.3421963120686
-0.002443423043478261,-0.4963475979408685,-10.37911759023732
-0.002442793043478261,-0.4963475979408685,-10.40865461277229
-0.002442163043478261,-0.4963475979408685,-10.41603886840605
-0.002441533043478261,-0.4926507780224654,-10.42711525185666
-0.002440903043478261,-0.4889539581040639,-10.40127035713857
-0.002440273043478261,-0.485257138185661,-10.38280971805419
-0.002439643043478261,-0.4889539581040639,-10.33481205643483
-0.002439013043478261,-0.4926507780224654,-10.29050652263238
-0.002438383043478261,-0.4889539581040623,-10.24989311664679
-0.002437753043478261,-0.4926507780224637,-10.20558758284434
-0.002437123043478261,-0.4926507780224654,-10.15758992122498
-0.002436493043478261,-0.4926507780224654,-10.10220800397189
-0.002435863043478261,-0.4889539581040639,-10.0505182145357
-0.002435233043478261,-0.4889539581040623,-9.987752041648848
-0.002434603043478261,-0.485257138185661,-9.939754380029486
-0.002433973043478261,-0.485257138185661,-9.891756718410166
-0.002433343043478261,-0.4889539581040623,-9.843759056790825
-0.002432713043478261,-0.4889539581040623,-9.795761395171461
-0.002432083043478261,-0.4889539581040623,-9.74407160573527
-0.002431453043478261,-0.4889539581040623,-9.688689688482183
-0.002430823043478261,-0.4926507780224637,-9.633307771229124
-0.002430193043478261,-0.4889539581040623,-9.603770748694119
-0.002429563043478261,-0.4889539581040639,-9.703458199749734
-0.002428933043478261,-0.4926507780224654,-9.83637480115708
-0.002428303043478261,-0.4926507780224654,-9.987752041648848
-0.002427673043478261,-0.4926507780224654,-10.09851587615508
-0.002427043043478261,-0.4926507780224654,-10.22404822192868
-0.002426413043478261,-0.4926507780224654,-10.31265928953362
-0.002425783043478261,-0.4963475979408668,-10.39388610150477
-0.002425153043478261,-0.4926507780224654,-10.45665227439164
-0.002424523043478261,-0.4889539581040623,-10.51941844727849
-0.002423893043478261,-0.4889539581040623,-10.54895546981345
-0.002423263043478261,-0.485257138185661,-10.57849249234843
-0.002422633043478261,-0.4815603182672613,-10.58587674798218
-0.002422003043478261,-0.4889539581040623,-10.58956887579905
-0.002421373043478261,-0.4889539581040623,-10.57849249234843
-0.002420743043478261,-0.4926507780224637,-10.54895546981347
-0.002420113043478261,-0.4926507780224654,-10.50834206382786
-0.002419483043478261,-0.4889539581040623,-10.46034440220851
-0.002418853043478261,-0.4926507780224654,-10.41973099622292
-0.002418223043478261,-0.4889539581040623,-10.35696482333609
-0.002417593043478261,-0.4926507780224654,-10.32004354516734
-0.002416963043478261,-0.4926507780224654,-10.26466162791428
-0.002416333043478261,-0.4889539581040623,-10.22035609411181
-0.002415703043478261,-0.4852571381856626,-10.15758992122501
-0.002415073043478261,-0.4815603182672579,-10.10590013178876
-0.002414443043478261,-0.485257138185661,-10.05790247016942
-0.002413813043478261,-0.485257138185661,-10.00621268073321
-0.002413183043478261,-0.4889539581040623,-9.94344650784638
-0.002412553043478261,-0.4852571381856626,-9.899140974043886
-0.002411923043478261,-0.4889539581040623,-9.843759056790825
-0.002411293043478261,-0.4926507780224654,-9.795761395171484
-0.002410663043478261,-0.4889539581040639,-9.744071605735293
-0.002410033043478261,-0.485257138185661,-9.747763733552143
-0.002409403043478261,-0.485257138185661,-9.869603951508932
-0.002408773043478261,-0.4815603182672595,-10.00990480855002
-0.002408143043478261,-0.4889539581040623,-10.13543715432374
-0.002407513043478261,-0.4926507780224637,-10.24989311664684
-0.002406883043478261,-0.4889539581040623,-10.35696482333609
-0.002406253043478261,-0.485257138185661,-10.43449950749041
-0.002405623043478261,-0.4889539581040606,-10.50834206382782
-0.002404993043478261,-0.4889539581040623,-10.57110823671469
-0.002404363043478261,-0.4889539581040623,-10.61910589833403
-0.002403733043478261,-0.4889539581040623,-10.63756653741838
-0.002403103043478261,-0.4889539581040623,-10.6634114321365
-0.002402473043478261,-0.4889539581040623,-10.65602717650275
-0.002401843043478261,-0.4889539581040623,-10.65233504868588
-0.002401213043478261,-0.4889539581040623,-10.61910589833403
-0.002400583043478261,-0.4889539581040623,-10.58956887579906
-0.002399953043478261,-0.4889539581040623,-10.53418695854596
-0.002399323043478261,-0.485257138185661,-10.49726568037724
-0.002398693043478261,-0.485257138185661,-10.43819163530731
-0.002398063043478261,-0.4889539581040623,-10.39019397368794
-0.002397433043478261,-0.4926507780224654,-10.34219631206858
-0.002396803043478261,-0.4926507780224654,-10.29419865044926
-0.002396173043478261,-0.4889539581040623,-10.23881673319617
-0.002395543043478261,-0.485257138185661,-10.18343481594306
-0.002394913043478261,-0.485257138185661,-10.12805289869
-0.002394283043478261,-0.485257138185661,-10.07267098143691
-0.002393653043478261,-0.485257138185661,-10.02467331981759
-0.002393023043478261,-0.4889539581040623,-9.972983530381359
-0.002392393043478261,-0.4815603182672595,-9.921293740945123
-0.002391763043478261,-0.485257138185661,-9.869603951508932
-0.002391133043478261,-0.4815603182672579,-9.817914162072718
-0.002390503043478261,-0.4815603182672562,-9.780992883904023
-0.002389873043478261,-0.4778634983488566,-9.843759056790825
-0.002389243043478261,-0.4778634983488566,-9.97667565819823
-0.002388613043478261,-0.4815603182672562,-10.12066864305619
-0.002387983043478261,-0.4889539581040623,-10.22404822192868
-0.002387353043478261,-0.4926507780224654,-10.33850418425176
-0.002386723043478261,-0.4926507780224654,-10.41973099622292
-0.002386093043478261,-0.4889539581040623,-10.50095780819411
-0.002385463043478261,-0.4852571381856626,-10.56003185326409
-0.002384833043478261,-0.4889539581040623,-10.61541377051716
-0.002384203043478261,-0.485257138185661,-10.64495079305214
-0.002383573043478261,-0.4889539581040606,-10.66710355995336
-0.002382943043478261,-0.485257138185661,-10.66710355995337
-0.002382313043478261,-0.4815603182672579,-10.65971930431962
-0.002381683043478261,-0.485257138185661,-10.63756653741839
-0.002381053043478261,-0.485257138185661,-10.60064525924967
-0.002380423043478261,-0.4815603182672562,-10.55633972544718
-0.002379793043478261,-0.4778634983488566,-10.51203419164473
-0.002379163043478261,-0.485257138185661,-10.46403653002539
-0.002378533043478261,-0.4889539581040606,-10.40127035713859
-0.002377903043478261,-0.485257138185661,-10.3680412067867
