flyback_data/7vo2.csv

X,CH1,CH2,CH3,CH4,Start,Increment,
Sequence,Volt,Volt,Volt,Volt,3.917200e-05,2.000000e-09
0,2.32e+00,-8.00e-01,6.72e+00,1.76e+01,
1,2.32e+00,-8.00e-01,6.72e+00,1.76e+01,
2,2.32e+00,-8.00e-01,6.72e+00,1.84e+01,
3,2.32e+00,-8.00e-01,6.72e+00,1.84e+01,
4,2.32e+00,-8.00e-01,6.72e+00,1.84e+01,
5,2.32e+00,-8.00e-01,6.72e+00,1.84e+01,
6,2.40e+00,-8.00e-01,6.72e+00,1.84e+01,
7,2.40e+00,-8.00e-01,6.72e+00,1.84e+01,
8,2.32e+00,-8.00e-01,6.76e+00,1.84e+01,
9,2.32e+00,-8.00e-01,6.76e+00,1.84e+01,
10,2.36e+00,-8.00e-01,6.72e+00,1.84e+01,
11,2.36e+00,-8.00e-01,6.72e+00,1.84e+01,
12,2.40e+00,0.00e+00,6.80e+00,1.84e+01,
13,2.40e+00,0.00e+00,6.80e+00,1.84e+01,
14,2.36e+00,0.00e+00,6.76e+00,1.84e+01,
15,2.36e+00,0.00e+00,6.76e+00,1.84e+01,
16,2.36e+00,0.00e+00,6.76e+00,1.76e+01,
17,2.36e+00,0.00e+00,6.76e+00,1.76e+01,
18,2.36e+00,-8.00e-01,6.76e+00,1.84e+01,
19,2.36e+00,-8.00e-01,6.76e+00,1.84e+01,
20,2.40e+00,-8.00e-01,6.72e+00,1.76e+01,
21,2.40e+00,-8.00e-01,6.72e+00,1.76e+01,
22,2.40e+00,-8.00e-01,6.76e+00,1.76e+01,
23,2.40e+00,-8.00e-01,6.76e+00,1.76e+01,
24,2.40e+00,-8.00e-01,6.72e+00,1.76e+01,
25,2.40e+00,-8.00e-01,6.72e+00,1.76e+01,
26,2.36e+00,-8.00e-01,6.80e+00,1.84e+01,
27,2.36e+00,-8.00e-01,6.80e+00,1.84e+01,
28,2.36e+00,-8.00e-01,6.72e+00,1.84e+01,
29,2.36e+00,-8.00e-01,6.72e+00,1.84e+01,
30,2.36e+00,-8.00e-01,6.76e+00,1.84e+01,
31,2.36e+00,-8.00e-01,6.76e+00,1.84e+01,
32,2.36e+00,-8.00e-01,6.72e+00,1.84e+01,
33,2.36e+00,-8.00e-01,6.72e+00,1.84e+01,
34,2.36e+00,-8.00e-01,6.76e+00,1.76e+01,
35,2.36e+00,-8.00e-01,6.76e+00,1.76e+01,
36,2.40e+00,-8.00e-01,6.72e+00,1.76e+01,
37,2.40e+00,-8.00e-01,6.72e+00,1.76e+01,
38,2.36e+00,0.00e+00,6.72e+00,1.84e+01,
39,2.36e+00,0.00e+00,6.72e+00,1.84e+01,
40,2.40e+00,0.00e+00,6.72e+00,1.84e+01,
41,2.40e+00,0.00e+00,6.72e+00,1.84e+01,
42,2.40e+00,0.00e+00,6.76e+00,1.84e+01,
43,2.40e+00,0.00e+00,6.76e+00,1.84e+01,
44,2.40e+00,0.00e+00,6.76e+00,1.84e+01,
45,2.40e+00,0.00e+00,6.76e+00,1.84e+01,
46,2.36e+00,0.00e+00,6.76e+00,1.84e+01,
47,2.36e+00,0.00e+00,6.76e+00,1.84e+01,
48,2.40e+00,0.00e+00,6.76e+00,1.84e+01,
49,2.40e+00,0.00e+00,6.76e+00,1.84e+01,
50,2.40e+00,0.00e+00,6.76e+00,1.84e+01,
51,2.40e+00,0.00e+00,6.76e+00,1.84e+01,
52,2.36e+00,-8.00e-01,6.76e+00,1.84e+01,
53,2.36e+00,-8.00e-01,6.76e+00,1.84e+01,
54,2.36e+00,-8.00e-01,6.76e+00,1.84e+01,
55,2.36e+00,-8.00e-01,6.76e+00,1.84e+01,
56,2.36e+00,-8.00e-01,6.76e+00,1.84e+01,
57,2.36e+00,-8.00e-01,6.76e+00,1.84e+01,
58,2.44e+00,-8.00e-01,6.76e+00,1.84e+01,
59,2.44e+00,-8.00e-01,6.76e+00,1.84e+01,
60,2.44e+00,-8.00e-01,6.76e+00,1.76e+01,
61,2.44e+00,-8.00e-01,6.76e+00,1.76e+01,
62,2.44e+00,-8.00e-01,6.72e+00,1.76e+01,
63,2.44e+00,-8.00e-01,6.72e+00,1.76e+01,
64,2.40e+00,-8.00e-01,6.72e+00,1.76e+01,
65,2.40e+00,-8.00e-01,6.72e+00,1.76e+01,
66,2.40e+00,-8.00e-01,6.72e+00,1.76e+01,
67,2.40e+00,-8.00e-01,6.72e+00,1.76e+01,
68,2.44e+00,-8.00e-01,6.72e+00,1.76e+01,
69,2.44e+00,-8.00e-01,6.72e+00,1.76e+01,
70,2.44e+00,-8.00e-01,6.72e+00,1.76e+01,
71,2.44e+00,-8.00e-01,6.72e+00,1.76e+01,
72,2.44e+00,-8.00e-01,6.76e+00,1.84e+01,
73,2.44e+00,-8.00e-01,6.76e+00,1.84e+01,
74,2.44e+00,-8.00e-01,6.76e+00,1.84e+01,
75,2.44e+00,-8.00e-01,6.76e+00,1.84e+01,
76,2.44e+00,-8.00e-01,6.76e+00,1.84e+01,
77,2.44e+00,-8.00e-01,6.76e+00,1.84e+01,
78,2.44e+00,-8.00e-01,6.76e+00,1.84e+01,
79,2.44e+00,-8.00e-01,6.76e+00,1.84e+01,
80,2.44e+00,-8.00e-01,6.76e+00,1.76e+01,
81,2.44e+00,-8.00e-01,6.76e+00,1.76e+01,
82,2.44e+00,-8.00e-01,6.72e+00,1.76e+01,
83,2.44e+00,-8.00e-01,6.72e+00,1.76e+01,
84,2.44e+00,-8.00e-01,6.72e+00,1.76e+01,
85,2.44e+00,-8.00e-01,6.72e+00,1.76e+01,
86,2.44e+00,0.00e+00,6.76e+00,1.84e+01,
87,2.44e+00,0.00e+00,6.76e+00,1.84e+01,
88,2.44e+00,0.00e+00,6.76e+00,1.84e+01,
89,2.44e+00,0.00e+00,6.76e+00,1.84e+01,
90,2.44e+00,0.00e+00,6.76e+00,1.84e+01,
91,2.44e+00,0.00e+00,6.76e+00,1.84e+01,
92,2.44e+00,-8.00e-01,6.76e+00,1.84e+01,
93,2.44e+00,-8.00e-01,6.76e+00,1.84e+01,
94,2.40e+00,-8.00e-01,6.76e+00,1.84e+01,
95,2.40e+00,-8.00e-01,6.76e+00,1.84e+01,
96,2.44e+00,-8.00e-01,6.76e+00,1.84e+01,
97,2.44e+00,-8.00e-01,6.76e+00,1.84e+01,
98,2.40e+00,-8.00e-01,6.76e+00,1.84e+01,
99,2.40e+00,-8.00e-01,6.76e+00,1.84e+01,
100,2.40e+00,-8.00e-01,6.76e+00,1.84e+01,
101,2.40e+00,-8.00e-01,6.76e+00,1.84e+01,
102,2.44e+00,-8.00e-01,6.76e+00,1.84e+01,
103,2.44e+00,-8.00e-01,6.76e+00,1.84e+01,
104,2.40e+00,-8.00e-01,6.76e+00,1.84e+01,
105,2.40e+00,-8.00e-01,6.76e+00,1.84e+01,
106,2.44e+00,-8.00e-01,6.76e+00,1.84e+01,
107,2.44e+00,-8.00e-01,6.76e+00,1.84e+01,
108,2.40e+00,0.00e+00,6.76e+00,1.76e+01,
109,2.40e+00,0.00e+00,6.76e+00,1.76e+01,
110,2.40e+00,0.00e+00,6.72e+00,1.76e+01,
111,2.40e+00,0.00e+00,6.72e+00,1.76e+01,
112,2.40e+00,0.00e+00,6.76e+00,1.84e+01,
113,2.40e+00,0.00e+00,6.76e+00,1.84e+01,
114,2.40e+00,-8.00e-01,6.72e+00,1.76e+01,
115,2.40e+00,-8.00e-01,6.72e+00,1.76e+01,
116,2.40e+00,-8.00e-01,6.72e+00,1.76e+01,
117,2.40e+00,-8.00e-01,6.72e+00,1.76e+01,
118,2.44e+00,0.00e+00,6.72e+00,1.84e+01,
119,2.44e+00,0.00e+00,6.72e+00,1.84e+01,
120,2.44e+00,0.00e+00,6.72e+00,1.84e+01,
121,2.44e+00,0.00e+00,6.72e+00,1.84e+01,
122,2.44e+00,-8.00e-01,6.76e+00,1.84e+01,
123,2.44e+00,-8.00e-01,6.76e+00,1.84e+01,
124,2.24e+00,-8.00e-01,6.76e+00,1.84e+01,
125,2.24e+00,-8.00e-01,6.76e+00,1.84e+01,
126,2.00e+00,-8.00e-01,6.76e+00,1.84e+01,
127,2.00e+00,-8.00e-01,6.76e+00,1.84e+01,
128,1.84e+00,-8.00e-01,6.72e+00,1.84e+01,
129,1.84e+00,-8.00e-01,6.72e+00,1.84e+01,
130,1.92e+00,-8.00e-01,6.72e+00,1.76e+01,
131,1.92e+00,-8.00e-01,6.72e+00,1.76e+01,
132,2.00e+00,-8.00e-01,6.76e+00,1.76e+01,
133,2.00e+00,-8.00e-01,6.76e+00,1.76e+01,
134,2.20e+00,-8.00e-01,6.72e+00,1.84e+01,
135,2.20e+00,-8.00e-01,6.72e+00,1.84e+01,
136,2.24e+00,-8.00e-01,6.76e+00,1.84e+01,
137,2.24e+00,-8.00e-01,6.76e+00,1.84e+01,
138,2.28e+00,-8.00e-01,6.76e+00,1.84e+01,
139,2.28e+00,-8.00e-01,6.76e+00,1.84e+01,
140,2.28e+00,-8.00e-01,6.76e+00,1.76e+01,
141,2.28e+00,-8.00e-01,6.76e+00,1.76e+01,
142,2.32e+00,0.00e+00,6.76e+00,1.84e+01,
143,2.32e+00,0.00e+00,6.76e+00,1.84e+01,
144,2.32e+00,0.00e+00,6.76e+00,1.84e+01,
145,2.32e+00,0.00e+00,6.76e+00,1.84e+01,
146,2.32e+00,-8.00e-01,6.76e+00,1.84e+01,
147,2.32e+00,-8.00e-01,6.76e+00,1.84e+01,
148,2.36e+00,-8.00e-01,6.76e+00,1.84e+01,
149,2.36e+00,-8.00e-01,6.76e+00,1.84e+01,
150,2.36e+00,-8.00e-01,6.76e+00,1.84e+01,
151,2.36e+00,-8.00e-01,6.76e+00,1.84e+01,
152,2.32e+00,-8.00e-01,6.76e+00,1.84e+01,
153,2.32e+00,-8.00e-01,6.76e+00,1.84e+01,
154,2.40e+00,-8.00e-01,6.72e+00,1.84e+01,
155,2.40e+00,-8.00e-01,6.72e+00,1.84e+01,
156,2.36e+00,-8.00e-01,6.72e+00,1.76e+01,
157,2.36e+00,-8.00e-01,6.72e+00,1.76e+01,
158,2.36e+00,-8.00e-01,6.72e+00,1.84e+01,
159,2.36e+00,-8.00e-01,6.72e+00,1.84e+01,
160,2.36e+00,-8.00e-01,6.76e+00,1.84e+01,
161,2.36e+00,-8.00e-01,6.76e+00,1.84e+01,
162,2.36e+00,0.00e+00,6.76e+00,1.84e+01,
163,2.36e+00,0.00e+00,6.76e+00,1.84e+01,
164,2.40e+00,-8.00e-01,6.76e+00,1.76e+01,
165,2.40e+00,-8.00e-01,6.76e+00,1.76e+01,
166,2.40e+00,-8.00e-01,6.76e+00,1.84e+01,
167,2.40e+00,-8.00e-01,6.76e+00,1.84e+01,
168,2.36e+00,-8.00e-01,6.76e+00,1.76e+01,
169,2.36e+00,-8.00e-01,6.76e+00,1.76e+01,
170,2.44e+00,-8.00e-01,6.76e+00,1.84e+01,
171,2.44e+00,-8.00e-01,6.76e+00,1.84e+01,
172,2.40e+00,-8.00e-01,6.76e+00,1.84e+01,
173,2.40e+00,-8.00e-01,6.76e+00,1.84e+01,
174,2.40e+00,0.00e+00,6.76e+00,1.84e+01,
175,2.40e+00,0.00e+00,6.76e+00,1.84e+01,
176,2.40e+00,0.00e+00,6.76e+00,1.76e+01,
177,2.40e+00,0.00e+00,6.76e+00,1.76e+01,
178,2.44e+00,0.00e+00,6.76e+00,1.84e+01,
179,2.44e+00,0.00e+00,6.76e+00,1.84e+01,
180,2.40e+00,0.00e+00,6.72e+00,1.76e+01,
181,2.40e+00,0.00e+00,6.72e+00,1.76e+01,
182,2.40e+00,0.00e+00,6.76e+00,1.76e+01,
183,2.40e+00,0.00e+00,6.76e+00,1.76e+01,
184,2.40e+00,0.00e+00,6.76e+00,1.84e+01,
185,2.40e+00,0.00e+00,6.76e+00,1.84e+01,
186,2.44e+00,0.00e+00,6.76e+00,1.76e+01,
187,2.44e+00,0.00e+00,6.76e+00,1.76e+01,
188,2.40e+00,0.00e+00,6.76e+00,1.76e+01,
189,2.40e+00,0.00e+00,6.76e+00,1.76e+01,
190,2.48e+00,-8.00e-01,6.76e+00,1.84e+01,
191,2.48e+00,-8.00e-01,6.76e+00,1.84e+01,
192,2.48e+00,-8.00e-01,6.72e+00,1.76e+01,
193,2.48e+00,-8.00e-01,6.72e+00,1.76e+01,
194,2.48e+00,-8.00e-01,6.76e+00,1.76e+01,
195,2.48e+00,-8.00e-01,6.76e+00,1.76e+01,
196,2.48e+00,-8.00e-01,6.72e+00,1.76e+01,
197,2.48e+00,-8.00e-01,6.72e+00,1.76e+01,
198,2.48e+00,-8.00e-01,6.76e+00,1.76e+01,
199,2.48e+00,-8.00e-01,6.76e+00,1.76e+01,
200,2.48e+00,-8.00e-01,6.76e+00,1.76e+01,
201,2.48e+00,-8.00e-01,6.76e+00,1.76e+01,
202,2.48e+00,-8.00e-01,6.76e+00,1.76e+01,
203,2.48e+00,-8.00e-01,6.76e+00,1.76e+01,
204,2.48e+00,-8.00e-01,6.76e+00,1.76e+01,
205,2.48e+00,-8.00e-01,6.76e+00,1.76e+01,
206,2.48e+00,-8.00e-01,6.76e+00,1.76e+01,
207,2.48e+00,-8.00e-01,6.76e+00,1.76e+01,
208,2.48e+00,0.00e+00,6.76e+00,1.76e+01,
209,2.48e+00,0.00e+00,6.76e+00,1.76e+01,
210,2.48e+00,-8.00e-01,6.72e+00,1.84e+01,
211,2.48e+00,-8.00e-01,6.72e+00,1.84e+01,
212,2.48e+00,-8.00e-01,6.76e+00,1.76e+01,
213,2.48e+00,-8.00e-01,6.76e+00,1.76e+01,
214,2.48e+00,-8.00e-01,6.72e+00,1.76e+01,
215,2.48e+00,-8.00e-01,6.72e+00,1.76e+01,
216,2.48e+00,-8.00e-01,6.72e+00,1.76e+01,
217,2.48e+00,-8.00e-01,6.72e+00,1.76e+01,
218,2.48e+00,-8.00e-01,6.72e+00,1.76e+01,
219,2.48e+00,-8.00e-01,6.72e+00,1.76e+01,
220,2.52e+00,-8.00e-01,6.72e+00,1.76e+01,
221,2.52e+00,-8.00e-01,6.72e+00,1.76e+01,
222,2.52e+00,0.00e+00,6.72e+00,1.76e+01,
223,2.52e+00,0.00e+00,6.72e+00,1.76e+01,
224,2.52e+00,0.00e+00,6.76e+00,1.84e+01,
225,2.52e+00,0.00e+00,6.76e+00,1.84e+01,
226,2.52e+00,0.00e+00,6.72e+00,1.76e+01,
227,2.52e+00,0.00e+00,6.72e+00,1.76e+01,
228,2.48e+00,0.00e+00,6.72e+00,1.76e+01,
229,2.48e+00,0.00e+00,6.72e+00,1.76e+01,
230,2.52e+00,-8.00e-01,6.72e+00,1.84e+01,
231,2.52e+00,-8.00e-01,6.72e+00,1.84e+01,
232,2.48e+00,8.00e-01,6.76e+00,1.76e+01,
233,2.48e+00,8.00e-01,6.76e+00,1.76e+01,
234,2.52e+00,8.00e-01,6.72e+00,1.76e+01,
235,2.52e+00,8.00e-01,6.72e+00,1.76e+01,
236,2.44e+00,8.00e-01,6.72e+00,1.76e+01,
237,2.44e+00,8.00e-01,6.72e+00,1.76e+01,
238,2.52e+00,8.00e-01,6.76e+00,1.84e+01,
239,2.52e+00,8.00e-01,6.76e+00,1.84e+01,
240,2.52e+00,0.00e+00,6.72e+00,1.76e+01,
241,2.52e+00,0.00e+00,6.72e+00,1.76e+01,
242,2.52e+00,0.00e+00,6.72e+00,1.76e+01,
243,2.52e+00,0.00e+00,6.72e+00,1.76e+01,
244,2.52e+00,1.60e+00,6.76e+00,1.76e+01,
245,2.52e+00,1.60e+00,6.76e+00,1.76e+01,
246,2.52e+00,1.60e+00,6.76e+00,1.76e+01,
247,2.52e+00,1.60e+00,6.76e+00,1.76e+01,
248,2.52e+00,1.60e+00,6.76e+00,1.76e+01,
249,2.52e+00,1.60e+00,6.76e+00,1.76e+01,
250,2.52e+00,1.60e+00,6.72e+00,1.84e+01,
251,2.52e+00,1.60e+00,6.72e+00,1.84e+01,
252,2.48e+00,2.40e+00,6.72e+00,1.84e+01,
253,2.48e+00,2.40e+00,6.72e+00,1.84e+01,
254,2.52e+00,2.40e+00,6.72e+00,1.76e+01,
255,2.52e+00,2.40e+00,6.72e+00,1.76e+01,
256,2.52e+00,3.20e+00,6.72e+00,1.76e+01,
257,2.52e+00,3.20e+00,6.72e+00,1.76e+01,
258,2.56e+00,3.20e+00,6.72e+00,1.84e+01,
259,2.56e+00,3.20e+00,6.72e+00,1.84e+01,
260,2.56e+00,3.20e+00,6.76e+00,1.76e+01,
261,2.56e+00,3.20e+00,6.76e+00,1.76e+01,
262,2.52e+00,3.20e+00,6.72e+00,1.76e+01,
263,2.52e+00,3.20e+00,6.72e+00,1.76e+01,
264,2.52e+00,2.40e+00,6.76e+00,1.84e+01,
265,2.52e+00,2.40e+00,6.76e+00,1.84e+01,
266,2.52e+00,4.00e+00,6.76e+00,1.84e+01,
267,2.52e+00,4.00e+00,6.76e+00,1.84e+01,
268,2.52e+00,4.80e+00,6.76e+00,1.84e+01,
269,2.52e+00,4.80e+00,6.76e+00,1.84e+01,
270,2.52e+00,4.00e+00,6.72e+00,1.84e+01,
271,2.52e+00,4.00e+00,6.72e+00,1.84e+01,
272,2.52e+00,4.00e+00,6.72e+00,1.76e+01,
273,2.52e+00,4.00e+00,6.72e+00,1.76e+01,
274,2.52e+00,4.00e+00,6.76e+00,1.76e+01,
275,2.52e+00,4.00e+00,6.76e+00,1.76e+01,
276,2.52e+00,5.60e+00,6.72e+00,1.76e+01,
277,2.52e+00,5.60e+00,6.72e+00,1.76e+01,
278,2.52e+00,5.60e+00,6.76e+00,1.76e+01,
279,2.52e+00,5.60e+00,6.76e+00,1.76e+01,
280,2.56e+00,5.60e+00,6.72e+00,1.84e+01,
281,2.56e+00,5.60e+00,6.72e+00,1.84e+01,
282,2.52e+00,7.20e+00,6.72e+00,1.76e+01,
283,2.52e+00,7.20e+00,6.72e+00,1.76e+01,
284,2.52e+00,6.40e+00,6.76e+00,1.76e+01,
285,2.52e+00,6.40e+00,6.76e+00,1.76e+01,
286,2.52e+00,8.00e+00,6.76e+00,1.84e+01,
287,2.52e+00,8.00e+00,6.76e+00,1.84e+01,
288,2.52e+00,8.00e+00,6.76e+00,1.76e+01,
289,2.52e+00,8.00e+00,6.76e+00,1.76e+01,
290,2.52e+00,9.60e+00,6.76e+00,1.84e+01,
291,2.52e+00,9.60e+00,6.76e+00,1.84e+01,
292,2.52e+00,9.60e+00,6.76e+00,1.76e+01,
293,2.52e+00,9.60e+00,6.76e+00,1.76e+01,
294,2.52e+00,1.04e+01,6.76e+00,1.84e+01,
295,2.52e+00,1.04e+01,6.76e+00,1.84e+01,
296,2.48e+00,1.04e+01,6.76e+00,1.76e+01,
297,2.48e+00,1.04e+01,6.76e+00,1.76e+01,
298,2.48e+00,1.20e+01,6.72e+00,1.76e+01,
299,2.48e+00,1.20e+01,6.72e+00,1.76e+01,
300,2.48e+00,1.28e+01,6.76e+00,1.76e+01,
301,2.48e+00,1.28e+01,6.76e+00,1.76e+01,
302,2.48e+00,1.44e+01,6.76e+00,1.76e+01,
303,2.48e+00,1.44e+01,6.76e+00,1.76e+01,
304,2.48e+00,1.60e+01,6.76e+00,1.84e+01,
305,2.48e+00,1.60e+01,6.76e+00,1.84e+01,
306,2.48e+00,1.68e+01,6.76e+00,1.84e+01,
307,2.48e+00,1.68e+01,6.76e+00,1.84e+01,
308,2.44e+00,1.76e+01,6.72e+00,1.84e+01,
309,2.44e+00,1.76e+01,6.72e+00,1.84e+01,
310,2.44e+00,1.92e+01,6.72e+00,1.84e+01,
311,2.44e+00,1.92e+01,6.72e+00,1.84e+01,
312,2.40e+00,2.16e+01,6.76e+00,1.84e+01,
313,2.40e+00,2.16e+01,6.76e+00,1.84e+01,
314,2.20e+00,2.48e+01,6.72e+00,1.84e+01,
315,2.20e+00,2.48e+01,6.72e+00,1.84e+01,
316,2.04e+00,3.12e+01,6.80e+00,1.76e+01,
317,2.04e+00,3.12e+01,6.80e+00,1.76e+01,
318,1.84e+00,3.76e+01,6.80e+00,1.84e+01,
319,1.84e+00,3.76e+01,6.80e+00,1.84e+01,
320,1.36e+00,4.48e+01,6.92e+00,1.84e+01,
321,1.36e+00,4.48e+01,6.92e+00,1.84e+01,
322,9.60e-01,5.28e+01,6.88e+00,1.84e+01,
323,9.60e-01,5.28e+01,6.88e+00,1.84e+01,
324,2.80e-01,6.00e+01,6.96e+00,1.84e+01,
325,2.80e-01,6.00e+01,6.96e+00,1.84e+01,
326,-3.20e-01,6.56e+01,7.08e+00,1.84e+01,
327,-3.20e-01,6.56e+01,7.08e+00,1.84e+01,
328,-1.04e+00,7.20e+01,7.00e+00,1.76e+01,
329,-1.04e+00,7.20e+01,7.00e+00,1.76e+01,
330,-1.64e+00,7.68e+01,7.12e+00,1.84e+01,
331,-1.64e+00,7.68e+01,7.12e+00,1.84e+01,
332,-2.28e+00,8.16e+01,7.16e+00,1.84e+01,
333,-2.28e+00,8.16e+01,7.16e+00,1.84e+01,
334,-2.88e+00,8.40e+01,7.16e+00,1.84e+01,
335,-2.88e+00,8.40e+01,7.16e+00,1.84e+01,
336,-3.40e+00,8.64e+01,7.20e+00,1.84e+01,
337,-3.40e+00,8.64e+01,7.20e+00,1.84e+01,
338,-3.72e+00,8.64e+01,7.12e+00,1.84e+01,
339,-3.72e+00,8.64e+01,7.12e+00,1.84e+01,
340,-3.72e+00,8.16e+01,7.12e+00,1.84e+01,
341,-3.72e+00,8.16e+01,7.12e+00,1.84e+01,
342,-3.36e+00,7.20e+01,7.08e+00,1.84e+01,
343,-3.36e+00,7.20e+01,7.08e+00,1.84e+01,
344,-2.84e+00,5.60e+01,7.00e+00,1.84e+01,
345,-2.84e+00,5.60e+01,7.00e+00,1.84e+01,
346,-2.20e+00,3.76e+01,6.96e+00,1.84e+01,
347,-2.20e+00,3.76e+01,6.96e+00,1.84e+01,
348,-1.48e+00,2.40e+01,6.76e+00,1.76e+01,
349,-1.48e+00,2.40e+01,6.76e+00,1.76e+01,
350,-7.20e-01,1.28e+01,6.68e+00,1.76e+01,
351,-7.20e-01,1.28e+01,6.68e+00,1.76e+01,
352,1.20e-01,8.80e+00,6.64e+00,1.76e+01,
353,1.20e-01,8.80e+00,6.64e+00,1.76e+01,
354,8.00e-01,4.80e+00,6.60e+00,1.76e+01,
355,8.00e-01,4.80e+00,6.60e+00,1.76e+01,
356,1.24e+00,4.00e+00,6.68e+00,1.76e+01,
357,1.24e+00,4.00e+00,6.68e+00,1.76e+01,
358,1.60e+00,3.20e+00,6.64e+00,1.76e+01,
359,1.60e+00,3.20e+00,6.64e+00,1.76e+01,
360,1.72e+00,2.40e+00,6.56e+00,1.76e+01,
361,1.72e+00,2.40e+00,6.56e+00,1.76e+01,
362,1.84e+00,4.00e+00,6.64e+00,1.84e+01,
363,1.84e+00,4.00e+00,6.64e+00,1.84e+01,
364,1.84e+00,6.40e+00,6.60e+00,1.84e+01,
365,1.84e+00,6.40e+00,6.60e+00,1.84e+01,
366,1.72e+00,8.80e+00,6.60e+00,1.76e+01,
367,1.72e+00,8.80e+00,6.60e+00,1.76e+01,
368,1.52e+00,1.36e+01,6.68e+00,1.76e+01,
369,1.52e+00,1.36e+01,6.68e+00,1.76e+01,
370,1.16e+00,2.08e+01,6.68e+00,1.76e+01,
371,1.16e+00,2.08e+01,6.68e+00,1.76e+01,
372,4.80e-01,3.28e+01,6.84e+00,1.76e+01,
373,4.80e-01,3.28e+01,6.84e+00,1.76e+01,
374,-1.60e-01,4.64e+01,6.88e+00,1.76e+01,
375,-1.60e-01,4.64e+01,6.88e+00,1.76e+01,
376,-9.20e-01,5.84e+01,6.96e+00,1.84e+01,
377,-9.20e-01,5.84e+01,6.96e+00,1.84e+01,
378,-1.60e+00,6.80e+01,7.12e+00,1.84e+01,
379,-1.60e+00,6.80e+01,7.12e+00,1.84e+01,
380,-2.08e+00,7.04e+01,7.04e+00,1.76e+01,
381,-2.08e+00,7.04e+01,7.04e+00,1.76e+01,
382,-2.40e+00,6.88e+01,7.04e+00,1.84e+01,
383,-2.40e+00,6.88e+01,7.04e+00,1.84e+01,
384,-2.40e+00,6.00e+01,7.04e+00,1.84e+01,
385,-2.40e+00,6.00e+01,7.04e+00,1.84e+01,
386,-2.12e+00,4.72e+01,6.92e+00,1.84e+01,
387,-2.12e+00,4.72e+01,6.92e+00,1.84e+01,
388,-1.68e+00,3.52e+01,6.88e+00,1.76e+01,
389,-1.68e+00,3.52e+01,6.88e+00,1.76e+01,
390,-1.08e+00,2.40e+01,6.80e+00,1.84e+01,
391,-1.08e+00,2.40e+01,6.80e+00,1.84e+01,
392,-4.80e-01,1.52e+01,6.72e+00,1.84e+01,
393,-4.80e-01,1.52e+01,6.72e+00,1.84e+01,
394,1.60e-01,1.12e+01,6.68e+00,1.84e+01,
395,1.60e-01,1.12e+01,6.68e+00,1.84e+01,
396,6.80e-01,9.60e+00,6.64e+00,1.76e+01,
397,6.80e-01,9.60e+00,6.64e+00,1.76e+01,
398,1.04e+00,8.00e+00,6.64e+00,1.76e+01,
399,1.04e+00,8.00e+00,6.64e+00,1.76e+01,
400,1.36e+00,6.40e+00,6.72e+00,1.76e+01,
401,1.36e+00,6.40e+00,6.72e+00,1.76e+01,
402,1.44e+00,7.20e+00,6.64e+00,1.84e+01,
403,1.44e+00,7.20e+00,6.64e+00,1.84e+01,
404,1.48e+00,8.00e+00,6.68e+00,1.76e+01,
405,1.48e+00,8.00e+00,6.68e+00,1.76e+01,
406,1.44e+00,1.04e+01,6.64e+00,1.84e+01,
407,1.44e+00,1.04e+01,6.64e+00,1.84e+01,
408,1.28e+00,1.36e+01,6.64e+00,1.76e+01,
409,1.28e+00,1.36e+01,6.64e+00,1.76e+01,
410,1.04e+00,1.84e+01,6.72e+00,1.84e+01,
411,1.04e+00,1.84e+01,6.72e+00,1.84e+01,
412,6.00e-01,2.80e+01,6.80e+00,1.84e+01,
413,6.00e-01,2.80e+01,6.80e+00,1.84e+01,
414,1.20e-01,3.76e+01,6.84e+00,1.84e+01,
415,1.20e-01,3.76e+01,6.84e+00,1.84e+01,
416,-4.80e-01,4.72e+01,6.92e+00,1.84e+01,
417,-4.80e-01,4.72e+01,6.92e+00,1.84e+01,
418,-1.04e+00,5.52e+01,7.00e+00,1.76e+01,
419,-1.04e+00,5.52e+01,7.00e+00,1.76e+01,
420,-1.48e+00,6.00e+01,7.00e+00,1.84e+01,
421,-1.48e+00,6.00e+01,7.00e+00,1.84e+01,
422,-1.76e+00,6.00e+01,7.00e+00,1.84e+01,
423,-1.76e+00,6.00e+01,7.00e+00,1.84e+01,
424,-1.84e+00,5.52e+01,7.00e+00,1.84e+01,
425,-1.84e+00,5.52e+01,7.00e+00,1.84e+01,
426,-1.76e+00,4.80e+01,6.96e+00,1.84e+01,
427,-1.76e+00,4.80e+01,6.96e+00,1.84e+01,
428,-1.44e+00,3.84e+01,6.92e+00,1.76e+01,
429,-1.44e+00,3.84e+01,6.92e+00,1.76e+01,
430,-1.08e+00,2.88e+01,6.88e+00,1.76e+01,
431,-1.08e+00,2.88e+01,6.88e+00,1.76e+01,
432,-6.00e-01,2.16e+01,6.76e+00,1.84e+01,
433,-6.00e-01,2.16e+01,6.76e+00,1.84e+01,
434,-8.00e-02,1.60e+01,6.76e+00,1.84e+01,
435,-8.00e-02,1.60e+01,6.76e+00,1.84e+01,
436,3.60e-01,1.28e+01,6.72e+00,1.84e+01,
437,3.60e-01,1.28e+01,6.72e+00,1.84e+01,
438,7.60e-01,1.20e+01,6.68e+00,1.84e+01,
439,7.60e-01,1.20e+01,6.68e+00,1.84e+01,
440,1.00e+00,1.04e+01,6.68e+00,1.84e+01,
441,1.00e+00,1.04e+01,6.68e+00,1.84e+01,
442,1.16e+00,1.12e+01,6.72e+00,1.84e+01,
443,1.16e+00,1.12e+01,6.72e+00,1.84e+01,
444,1.20e+00,1.20e+01,6.72e+00,1.84e+01,
445,1.20e+00,1.20e+01,6.72e+00,1.84e+01,
446,1.20e+00,1.28e+01,6.68e+00,1.84e+01,
447,1.20e+00,1.28e+01,6.68e+00,1.84e+01,
448,1.08e+00,1.68e+01,6.76e+00,1.84e+01,
449,1.08e+00,1.68e+01,6.76e+00,1.84e+01,
450,8.40e-01,2.16e+01,6.76e+00,1.84e+01,
451,8.40e-01,2.16e+01,6.76e+00,1.84e+01,
452,5.20e-01,2.80e+01,6.80e+00,1.76e+01,
453,5.20e-01,2.80e+01,6.80e+00,1.76e+01,
454,1.20e-01,3.52e+01,6.84e+00,1.76e+01,
455,1.20e-01,3.52e+01,6.84e+00,1.76e+01,
456,-3.20e-01,4.24e+01,6.88e+00,1.84e+01,
457,-3.20e-01,4.24e+01,6.88e+00,1.84e+01,
458,-7.60e-01,4.88e+01,6.96e+00,1.76e+01,
459,-7.60e-01,4.88e+01,6.96e+00,1.76e+01,
460,-1.12e+00,5.28e+01,6.92e+00,1.76e+01,
461,-1.12e+00,5.28e+01,6.92e+00,1.76e+01,
462,-1.36e+00,5.28e+01,7.00e+00,1.76e+01,
463,-1.36e+00,5.28e+01,7.00e+00,1.76e+01,
464,-1.44e+00,5.04e+01,6.96e+00,1.84e+01,
465,-1.44e+00,5.04e+01,6.96e+00,1.84e+01,
466,-1.36e+00,4.40e+01,6.92e+00,1.84e+01,
467,-1.36e+00,4.40e+01,6.92e+00,1.84e+01,
468,-1.16e+00,3.76e+01,6.92e+00,1.84e+01,
469,-1.16e+00,3.76e+01,6.92e+00,1.84e+01,
470,-8.80e-01,3.04e+01,6.84e+00,1.84e+01,
471,-8.80e-01,3.04e+01,6.84e+00,1.84e+01,
472,-4.80e-01,2.40e+01,6.80e+00,1.84e+01,
473,-4.80e-01,2.40e+01,6.80e+00,1.84e+01,
474,-8.00e-02,1.92e+01,6.72e+00,1.76e+01,
475,-8.00e-02,1.92e+01,6.72e+00,1.76e+01,
476,2.40e-01,1.68e+01,6.72e+00,1.84e+01,
477,2.40e-01,1.68e+01,6.72e+00,1.84e+01,
478,5.60e-01,1.44e+01,6.72e+00,1.84e+01,
479,5.60e-01,1.44e+01,6.72e+00,1.84e+01,
480,8.00e-01,1.36e+01,6.68e+00,1.84e+01,
481,8.00e-01,1.36e+01,6.68e+00,1.84e+01,
